[gd_scene load_steps=3 format=3 uid="uid://bul612c43sjmu"]

[ext_resource type="PackedScene" uid="uid://c2eix8xqw6vck" path="res://scenes/levelbase/LevelBase.tscn" id="1"]
[ext_resource type="PackedScene" uid="uid://cvlltljaq3eea" path="res://objects/actors/enemy/Enemy.tscn" id="2"]

[node name="Base" instance=ExtResource("1")]

[node name="TileMap" parent="." index="0"]
layer_0/tile_data = PackedInt32Array(-1114095, 3, 0, -1114094, 3, 0, -1048559, 3, 0, -1048558, 3, 0, -983023, 3, 0, -983022, 3, 0, -917487, 3, 0, -917486, 3, 0, -851951, 3, 0, -851950, 3, 0, -786415, 3, 0, -786414, 3, 0, -720879, 3, 0, -720878, 3, 0, -655343, 3, 0, -655342, 3, 0, -589807, 3, 0, -589806, 3, 0, -524271, 3, 0, -524270, 3, 0, -458735, 3, 0, -458734, 3, 0, -393199, 3, 0, -393198, 3, 0, -262151, 131075, 1, -262150, 131075, 1, -327659, 3, 0, -327658, 3, 0, -196615, 131075, 1, -196614, 131075, 1, -262123, 3, 0, -262122, 3, 0, -131079, 131075, 1, -131078, 131075, 1, -196587, 3, 0, -196586, 3, 0, -131051, 3, 0, -131050, 3, 0, -65527, 3, 0, -65526, 3, 0, -65515, 3, 0, -65514, 3, 0, 65529, 131075, 1, 65530, 131075, 1, 21, 3, 0, 22, 3, 0, 65557, 3, 0, 65558, 3, 0, 196601, 131075, 1, 196602, 131075, 1, 131093, 3, 0, 131094, 3, 0, 262133, 131075, 1, 262134, 65539, 1, 262137, 65539, 1, 262138, 131075, 1, 196625, 3, 0, 196626, 3, 0, 327669, 65539, 1, 327670, 131075, 1, 327673, 65539, 1, 327674, 65539, 1, 262161, 3, 0, 262162, 3, 0, 327685, 131075, 1, 327686, 131075, 1, 327697, 3, 0, 327698, 3, 0, 393221, 131075, 1, 393222, 131075, 1, 393233, 3, 0, 393234, 3, 0, 458757, 131075, 1, 458758, 131075, 1, 458761, 3, 0, 458762, 3, 0, 458778, 3, 0, 589813, 131075, 1, 589814, 65539, 1, 589817, 131075, 1, 589818, 65539, 1, 524293, 131075, 1, 524294, 131075, 1, 524297, 3, 0, 524298, 3, 0, 524314, 3, 0, 655349, 131075, 1, 655350, 131075, 1, 655353, 131075, 1, 655354, 65539, 1, 655357, 65539, 1, 655358, 131075, 1, 589849, 3, 0, 589850, 3, 0, 720885, 131075, 1, 720886, 65539, 1, 720889, 65539, 1, 720890, 131075, 1, 720893, 65539, 1, 720894, 131075, 1, 655385, 3, 0, 655386, 3, 0, 786421, 65539, 1, 786422, 65539, 1, 786425, 65539, 1, 786426, 65539, 1, 786429, 131075, 1, 786430, 65539, 1, 720921, 3, 0, 720922, 3, 0, 851957, 65539, 1, 851958, 65539, 1, 851961, 65539, 1, 851962, 65539, 1, 851965, 65539, 1, 851966, 65539, 1, 786457, 3, 0, 786458, 3, 0, 917493, 65539, 1, 917494, 65539, 1, 917497, 65539, 1, 917498, 65539, 1, 917501, 65539, 1, 917502, 131075, 1, 851993, 3, 0, 851994, 3, 0, 917529, 3, 0, 917530, 3, 0, 983065, 3, 0, 983066, 3, 0, 1048601, 3, 0, 1048602, 3, 0, 1507326, 131075, 0, 1638394, 131075, 0, 1703930, 65539, 0, 1769466, 65539, 0, 1835002, 65539, 0, 1900538, 131075, 0, 1966074, 131075, 0, 2031610, 131075, 0, 2097146, 131075, 0, 2162682, 131075, 0, 2228218, 65539, 0, 2162701, 131075, 0, 2293754, 65539, 0, 2228237, 65539, 0, 2359290, 65539, 0, 2293773, 65539, 0, 2424826, 131075, 0, 2424827, 131075, 0, 2424828, 131075, 0, 2359301, 65539, 0, 2359302, 131075, 0, 2359307, 131075, 0, 2359308, 131075, 0, 2359309, 131075, 0, 2490365, 131075, 0, 2490366, 65539, 0, 2490367, 131075, 0, 2424832, 65539, 0, 2424833, 65539, 0, 2424834, 131075, 0, 2424837, 65539, 0, 2424838, 131075, 0, 2424839, 131075, 0, 2424841, 131075, 0, 2555903, 131075, 0, 2490368, 131075, 0, 2490369, 65539, 0, 2490374, 65539, 0, 2490376, 131075, 0, 2555904, 65539, 0, 2555905, 131075, 0, 2555910, 65539, 0, 2555911, 65539, 0, 2621440, 65539, 0, 2621441, 65539, 0, 2621446, 65539, 0, 2621447, 65539, 0, 2686976, 65539, 0, 2686977, 65539, 0, 2686982, 65539, 0, 2686983, 65539, 0, 2752512, 65539, 0, 2752513, 65539, 0, 2752518, 65539, 0, 2752519, 65539, 0, 2818048, 65539, 0, 2818049, 65539, 0, 2818050, 65539, 0, 2818051, 65539, 0, 2818052, 65539, 0, 2818053, 65539, 0, 2818054, 65539, 0, 2818055, 65539, 0, 2883584, 65539, 0, 2883585, 65539, 0, 2883586, 65539, 0, 2883587, 65539, 0, 2883588, 65539, 0, 2883589, 65539, 0, 2883590, 65539, 0, 2883591, 65539, 0, 2490375, 65539, 0, 2424840, 65539, 0, 2424842, 131075, 0, 2359306, 131075, 0, 2424829, 65539, 0, 1572861, 65539, 0, 1572860, 131075, 0, 1572859, 131075, 0, 1572858, 131075, 0, 2097165, 131075, 0, 2031629, 131075, 0, 1966093, 131075, 0, 1900557, 131075, 0, 1835021, 65539, 0, 1769485, 65539, 0, 1703949, 131075, 0, 1638413, 131075, 0, 1572877, 131075, 0, 1507341, 131075, 0, 1507340, 131075, 0, 1507339, 131075, 0, 1507338, 131075, 0, 1572862, 65539, 0, 1507327, 65539, 0, 1376256, 131075, 0, 1441791, 131075, 0, 1245185, 131075, 0, 1310720, 131075, 0, 1245184, 131075, 0, 1310727, 131075, 0, 1245191, 131075, 0, 1245190, 131075, 0, 1376263, 131075, 0, 1441800, 131075, 0, 1376264, 131075, 0, 1507337, 131075, 0, 1441801, 131075, 0, 1179654, 131075, 0, 1114118, 3, 0, 1048582, 3, 0, 983046, 3, 0, 1179653, 131075, 0, 1114117, 3, 0, 1048581, 3, 0, 983045, 3, 0, 1179650, 131075, 0, 1114114, 3, 0, 1048578, 3, 0, 983042, 3, 0, 917506, 3, 0, 851970, 3, 0, 786434, 3, 0, 720898, 3, 0, 1179649, 131075, 0, 1114113, 3, 0, 1048577, 3, 0, 983041, 3, 0, 917505, 3, 0, 851969, 3, 0, 786433, 3, 0, 720897, 3, 0, 1114112, 3, 0, 1048576, 3, 0, 1179647, 3, 0, 1114111, 3, 0, 1179646, 3, 0, 1114110, 131075, 1, 1179645, 131075, 1, 1114109, 131075, 1, 1179644, 131075, 1, 1114108, 131075, 1, 1179643, 65539, 1, 1114107, 131075, 1, 1179642, 65539, 1, 1114106, 65539, 1, 1179641, 65539, 1, 1114105, 131075, 1, 1179640, 131075, 1, 1114104, 65539, 1, 1179639, 65539, 1, 1114103, 65539, 1, 1179638, 65539, 1, 1114102, 65539, 1, 1179637, 65539, 1, 1114101, 65539, 1, 1179636, 65539, 1, 1114100, 65539, 1, 1179635, 65539, 1, 1114099, 65539, 1, 1179634, 65539, 1, 1114098, 65539, 1, 1179633, 65539, 1, 1114097, 65539, 1, 1048562, 65539, 1, 983026, 65539, 1, 917490, 65539, 1, 851954, 65539, 1, 786418, 65539, 1, 720882, 65539, 1, 655346, 131075, 1, 589810, 131075, 1, 524274, 131075, 1, 458738, 131075, 1, 393202, 131075, 1, 327666, 131075, 1, 1048561, 65539, 1, 983025, 65539, 1, 917489, 65539, 1, 851953, 65539, 1, 786417, 65539, 1, 720881, 65539, 1, 655345, 65539, 1, 589809, 131075, 1, 524273, 131075, 1, 458737, 131075, 1, 393201, 131075, 1, 327665, 131075, 1, 262130, 131075, 1, 196594, 131075, 1, 131058, 65539, 1, 65522, 65539, 1, -14, 65539, 1, -65550, 65539, 1, -131086, 131075, 1, -196622, 131075, 1, -262158, 131075, 1, -327694, 65539, 1, -393230, 65539, 1, -458766, 131075, 1, 262129, 131075, 1, 196593, 65539, 1, 131057, 65539, 1, 65521, 65539, 1, -15, 65539, 1, -65551, 65539, 1, -131087, 65539, 1, -196623, 131075, 1, -262159, 131075, 1, -327695, 131075, 1, -393231, 65539, 1, -458767, 65539, 1, -524302, 131075, 1, -589838, 131075, 1, -655374, 131075, 1, -720910, 131075, 1, -786446, 131075, 1, -851982, 0, 2, -917518, 327680, 0, -983054, 262144, 1, -1048590, 131072, 1, -1114126, 131072, 1, -1179662, 131072, 1, -524303, 65539, 1, -589839, 65539, 1, -655375, 131075, 1, -720911, 131075, 1, -786447, 131075, 1, -851983, 131075, 1, -917519, 0, 2, -983055, 0, 1, -1048591, 0, 1, -1114127, 0, 1, -1179663, 0, 1, -1245199, 0, 0, -1245197, 131072, 2, -1245198, 262144, 5, -1310734, 0, 0, -1310732, 131072, 2, -1310733, 262144, 5, -1376269, 0, 0, -1376268, 262144, 5, -1441804, 0, 0, -1376260, 262144, 0, -1441796, 327680, 1, -1376261, 327680, 0, -1441797, 65536, 0, -1376262, 65536, 2, -1441798, 65536, 0, -1376263, 65536, 2, -1441799, 65536, 0, -1376264, 65536, 2, -1441800, 65536, 0, -1376265, 65536, 2, -1441801, 65536, 0, -1376266, 65536, 2, -1441802, 65536, 0, -1376267, 65536, 2, -1441803, 65536, 0, -1376259, 131072, 2, -1441795, 131072, 1, -1507331, 131072, 1, -1572867, 131072, 1, -1638403, 131072, 1, -1703939, 262144, 0, -1769475, 65536, 1, -1835011, 65536, 0, -1507332, 0, 1, -1572868, 0, 1, -1638404, 0, 1, -1703940, 0, 1, -1769476, 0, 1, -1835012, 0, 0, -1835001, 131072, 1, -1900537, 131072, 0, -1835002, 65536, 1, -1900538, 65536, 0, -1835003, 327680, 0, -1900539, 65536, 0, -1835004, 65536, 2, -1900540, 65536, 0, -1835005, 65536, 2, -1900541, 65536, 0, -1835006, 65536, 2, -1900542, 65536, 0, -1835007, 65536, 2, -1900543, 65536, 0, -1835008, 65536, 2, -1900544, 65536, 0, -1769473, 65536, 2, -1835009, 65536, 0, -1769474, 262144, 0, -1835010, 65536, 0, -1376249, 131072, 1, -1441785, 131072, 1, -1507321, 131072, 1, -1572857, 131072, 1, -1638393, 131072, 1, -1703929, 131072, 1, -1769465, 131072, 1, -1310714, 0, 1, -1376250, 0, 1, -1441786, 0, 1, -1507322, 0, 1, -1572858, 0, 1, -1638394, 0, 1, -1703930, 0, 1, -1769466, 327680, 0, -1179630, 3, 0, -1245166, 3, 0, -1179631, 3, 0, -1245167, 3, 0, -1179632, 3, 0, -1245168, 3, 0, -1179633, 3, 0, -1245169, 3, 0, -1179634, 3, 0, -1245170, 3, 0, -1179635, 3, 0, -1245171, 3, 0, -1179636, 3, 0, -1245172, 3, 0, -1179638, 3, 0, -1245175, 3, 0, -1179640, 3, 0, -1179641, 131072, 1, -1245177, 131072, 1, -1179642, 0, 1, -1245178, 0, 1, -393194, 3, 0, -458730, 3, 0, -393195, 3, 0, -458731, 3, 0, -393196, 3, 0, -458732, 3, 0, -393197, 3, 0, -458733, 3, 0, 131092, 3, 0, 65556, 3, 0, 131091, 3, 0, 65555, 3, 0, 131090, 3, 0, 65554, 3, 0, 131089, 3, 0, 65553, 3, 0, 393242, 3, 0, 327706, 3, 0, 393241, 3, 0, 327705, 3, 0, 393240, 3, 0, 327704, 3, 0, 393239, 3, 0, 327703, 3, 0, 393238, 3, 0, 327702, 3, 0, 393237, 3, 0, 327701, 3, 0, 393236, 3, 0, 327700, 3, 0, 393235, 3, 0, 327699, 3, 0, 458776, 3, 0, 524313, 3, 0, 458777, 3, 0, 1048600, 3, 0, 983064, 3, 0, 917528, 3, 0, 851992, 3, 0, 1048599, 3, 0, 983063, 3, 0, 917527, 3, 0, 1048598, 3, 0, 983062, 3, 0, 1048597, 3, 0, 983061, 3, 0, 1048596, 3, 0, 983060, 3, 0, 1048595, 3, 0, 983059, 3, 0, 1048594, 3, 0, 983058, 3, 0, 1048593, 3, 0, 983057, 3, 0, 1048592, 3, 0, 983056, 3, 0, 1048591, 3, 0, 983055, 3, 0, 1048590, 3, 0, 983054, 3, 0, 1048589, 3, 0, 983053, 3, 0, 1048588, 3, 0, 983052, 3, 0, 1048587, 3, 0, 983051, 3, 0, 1048586, 3, 0, 983050, 3, 0, 1048585, 3, 0, 983049, 3, 0, 1048584, 3, 0, 983048, 3, 0, 1048583, 3, 0, 983047, 3, 0, 786445, 3, 0, 786444, 3, 0, 720908, 3, 0, 786443, 3, 0, 720907, 3, 0, 786442, 3, 0, 720906, 3, 0, 786441, 3, 0, 720905, 3, 0, 786440, 3, 0, 720904, 3, 0, 786439, 3, 0, 720903, 3, 0, 786438, 3, 0, 720902, 3, 0, 786437, 3, 0, 720901, 3, 0, 786436, 3, 0, 720900, 3, 0, 786435, 3, 0, 720899, 3, 0, 720910, 3, 0, 655374, 3, 0, 720909, 3, 0, 589838, 3, 0, 655380, 3, 0, 589844, 3, 0, 655379, 3, 0, 589843, 3, 0, 655378, 3, 0, 589842, 3, 0, 655377, 3, 0, 589841, 3, 0, 655376, 3, 0, 589840, 3, 0, 655375, 3, 0, 589839, 3, 0, 131086, 131075, 1, 65550, 131075, 1, 14, 131075, 1, -65522, 131075, 1, -131058, 131075, 1, 131085, 131075, 1, 65549, 131075, 1, 13, 131075, 1, -65523, 131075, 1, -131059, 131075, 1, -131054, 131075, 1, -196590, 131075, 1, -131055, 131075, 1, -196591, 131075, 1, -131056, 131075, 1, -196592, 131075, 1, -131057, 131075, 1, -196593, 131075, 1, -196594, 131075, 1, -262130, 131075, 1, -327666, 131075, 1, -393202, 131075, 1, -458738, 131075, 1, -196595, 131075, 1, -262131, 131075, 1, -327667, 131075, 1, -393203, 131075, 1, -458739, 131075, 1, -393204, 131075, 1, -458740, 131075, 1, -393205, 131075, 1, -458741, 131075, 1, -393206, 131075, 1, -458742, 131075, 1, -393207, 131075, 1, -458743, 131075, 1, -393208, 131075, 1, -458744, 131075, 1, -393209, 131075, 1, -458745, 131075, 1, -393210, 131075, 1, -458746, 131075, 1, -393211, 131075, 1, -458747, 131075, 1, -393212, 131075, 1, -458748, 131075, 1, -393213, 131075, 1, -458749, 131075, 1, -393214, 131075, 1, -458750, 131075, 1, -393215, 131075, 1, -458751, 131075, 1, -393216, 131075, 1, -458752, 131075, 1, -327681, 131075, 1, -393217, 131075, 1, -327682, 131075, 1, -393218, 131075, 1, -327683, 131075, 1, -393219, 131075, 1, -327684, 131075, 1, -393220, 131075, 1, -327685, 131075, 1, -393221, 131075, 1, -327686, 131075, 1, -393222, 65539, 1, -327687, 65539, 1, -393223, 65539, 1, 196598, 131075, 1, 131062, 131075, 1, 65526, 131075, 1, -10, 65539, 1, -65546, 65539, 1, -131082, 65539, 1, -196618, 65539, 1, -262154, 65539, 1, -327690, 65539, 1, -393226, 65539, 1, 196597, 65539, 1, 131061, 65539, 1, 65525, 131075, 1, -11, 131075, 1, -65547, 131075, 1, -131083, 65539, 1, -196619, 65539, 1, -262155, 65539, 1, -327691, 65539, 1, -393227, 65539, 1, 524278, 131075, 1, 524277, 131075, 1, 524282, 131075, 1, 524281, 131075, 1, 524292, 65539, 1, 458756, 131075, 1, 524291, 65539, 1, 458755, 65539, 1, 524290, 131075, 1, 458754, 65539, 1, 524289, 65539, 1, 458753, 131075, 1, 524288, 65539, 1, 458752, 131075, 1, 589823, 131075, 1, 524287, 131075, 1, 589822, 131075, 1, 524286, 131075, 1, 589821, 131075, 1, 524285, 131075, 1, 262150, 131075, 1, 196614, 131075, 1, 262149, 131075, 1, 196613, 131075, 1, 262148, 131075, 1, 196612, 131075, 1, 262147, 131075, 1, 196611, 131075, 1, 262146, 131075, 1, 196610, 131075, 1, 262145, 131075, 1, 196609, 131075, 1, 262144, 131075, 1, 196608, 131075, 1, 327679, 131075, 1, 262143, 65539, 1, 327678, 65539, 1, 262142, 65539, 1, 327677, 65539, 1, 262141, 131075, 1, 327676, 131075, 1, 262140, 131075, 1, 327675, 131075, 1, 262139, 131075, 1, 131066, 131075, 1, 131065, 65539, 1, 6, 3, 0, -65530, 3, 0, 5, 3, 0, -65531, 3, 0, -131062, 3, 0, -196598, 3, 0, -131063, 3, 0, -196599, 3, 0, 393226, 3, 0, 393225, 3, 0, 196618, 65539, 0, 131082, 65539, 0, 196617, 65539, 0, 131081, 65539, 0, -851979, 131072, 2, -917515, 131072, 0, -851980, 65536, 2, -917516, 65536, 0, -851981, 65536, 2, -917517, 262144, 1, -983053, 131072, 0, -851973, 65536, 2, -917509, 327680, 1, -851974, 65536, 2, -917510, 65536, 0, -851975, 0, 2, -917511, 0, 0, -851971, 65536, 2, -917507, 65536, 0, -851972, 65536, 2, -917508, 262144, 1, -983044, 131072, 0, -983045, 0, 0, -1310724, 131072, 2, -1310725, 0, 2, -1114105, 131072, 2, -1114106, 0, 2, -917497, 131072, 0, -917498, 0, 0, -786425, 131072, 2, -851961, 131072, 1, -786426, 65536, 2, -851962, 327680, 1, -786427, 65536, 2, -851963, 65536, 0, -786428, 65536, 2, -851964, 65536, 0, -786429, 65536, 2, -851965, 262144, 1, -786430, 0, 2, -851966, 327680, 0, -917501, 131072, 0, -917502, 262144, 1, -851967, 0, 2, -917503, 327680, 0, -983039, 65536, 0, -983040, 65536, 0, -983038, 131072, 0, -917504, 65536, 2, -851969, 65536, 2, -917505, 65536, 0, -851970, 65536, 2, -917506, 65536, 0, -1769467, 0, 2, -1703938, 131072, 2, 2490362, 65536, 3, 2490363, 65536, 3, 2490364, 327680, 2, 2555900, 262144, 3, 2555901, 65536, 3, 2555902, 327680, 2, 2621438, 262144, 3, 2621439, 327680, 2, 2686975, 196608, 1, 2752511, 196608, 1, 2818047, 196608, 1, 2883583, 196608, 1, 2949119, 196608, 1, 2949118, 196608, 1, 2883582, 196608, 1, 2818046, 196608, 1, 2752510, 196608, 1, 2686974, 327680, 2, 2686973, 262144, 3, 2621437, 327680, 2, 2621436, 65536, 3, 2621435, 262144, 3, 2555899, 327680, 2, 2555898, 65536, 3, 2883592, 196608, 1, 2818056, 196608, 1, 2752520, 196608, 1, 2686984, 196608, 1, 2621448, 196608, 1, 2555912, 262144, 2, 2555913, 327680, 3, 2490377, 262144, 2, 2490378, 65536, 3, 2490379, 327680, 3, 2424843, 262144, 2, 2424844, 65536, 3, 2424845, 65536, 3, 2883593, 196608, 1, 2818057, 196608, 1, 2752521, 196608, 1, 2686985, 196608, 1, 2621449, 262144, 2, 2621450, 327680, 3, 2555914, 262144, 2, 2555915, 65536, 3, 2555916, 327680, 3, 2490380, 262144, 2, 2490381, 65536, 3, 3014655, 262144, 3, 2949120, 65536, 3, 2949121, 65536, 3, 2949122, 65536, 3, 2949123, 65536, 3, 2949124, 65536, 3, 2949125, 65536, 3, 2949126, 65536, 3, 2949127, 65536, 3, 2949128, 327680, 3, 2949129, 196608, 1, 3014665, 327680, 3, 3014664, 65536, 3, 3014663, 65536, 3, 3014662, 65536, 3, 3014661, 65536, 3, 3014660, 65536, 3, 3014659, 65536, 3, 3014658, 65536, 3, 3014657, 65536, 3, 3014656, 65536, 3, 3080191, 65536, 3, 3080190, 262144, 3, 3014654, 196608, 1, 2490361, 262144, 3, 2424825, 196608, 1, 2359289, 196608, 1, 2293753, 196608, 1, 2228217, 196608, 1, 2555897, 65536, 3, 2359288, 196608, 1, 2555896, 262144, 3, 2490360, 196608, 1, 2424824, 196608, 1, 2293752, 196608, 1, 2228216, 196608, 1, 2162680, 196608, 1, 2097144, 196608, 1, 2031608, 196608, 1, 2162681, 196608, 1, 2097145, 196608, 1, 2031609, 196608, 1, 1966073, 196608, 1, 1900537, 196608, 1, 1835001, 196608, 1, 1769465, 196608, 1, 1703929, 196608, 1, 1638393, 196608, 1, 1572857, 196608, 1, 1966072, 196608, 1, 1900536, 196608, 1, 1835000, 196608, 1, 1769464, 196608, 1, 1703928, 196608, 1, 1638392, 196608, 1, 1572856, 196608, 1, 1507321, 262144, 2, 1507322, 65536, 3, 1507323, 65536, 3, 1507324, 65536, 3, 1507325, 327680, 3, 1441789, 262144, 2, 1441790, 327680, 3, 1376254, 262144, 2, 1376255, 327680, 3, 1310719, 196608, 1, 1245183, 393216, 2, 1179648, 131072, 3, 1507320, 196608, 1, 1441784, 262144, 2, 1441785, 65536, 3, 1441786, 65536, 3, 1441787, 65536, 3, 1441788, 327680, 3, 1376252, 262144, 2, 1376253, 327680, 3, 1310717, 262144, 2, 1310718, 327680, 3, 1245182, 262144, 2, 2424846, 327680, 3, 2359310, 196608, 1, 2293774, 196608, 1, 2228238, 196608, 1, 2162702, 196608, 1, 2097166, 196608, 1, 2031630, 196608, 1, 1966094, 196608, 1, 2490382, 65536, 3, 2490383, 327680, 3, 2424847, 196608, 1, 2359311, 196608, 1, 2293775, 196608, 1, 2228239, 196608, 1, 2162703, 196608, 1, 2097167, 196608, 1, 2031631, 196608, 1, 1966095, 196608, 1, 1900558, 196608, 1, 1835022, 196608, 1, 1769486, 196608, 1, 1703950, 196608, 1, 1638414, 196608, 1, 1572878, 196608, 1, 1507342, 196608, 1, 1441806, 327680, 2, 1441805, 65536, 3, 1441804, 65536, 3, 1441803, 65536, 3, 1441802, 262144, 3, 1376266, 327680, 2, 1900559, 196608, 1, 1835023, 196608, 1, 1769487, 196608, 1, 1703951, 196608, 1, 1638415, 196608, 1, 1572879, 196608, 1, 1507343, 196608, 1, 1441807, 196608, 1, 1376271, 327680, 2, 1376270, 65536, 3, 1376269, 65536, 3, 1376268, 65536, 3, 1376267, 262144, 3, 1376265, 262144, 3, 1310729, 327680, 2, 1310728, 262144, 3, 1245192, 196608, 1, 1179656, 393216, 2, 1179655, 0, 3, 1310731, 327680, 2, 1310730, 262144, 3, 1245194, 327680, 2, 1245193, 262144, 3, 1179657, 327680, 2, 1114119, 3, 0, 1114120, 3, 0, 1114121, 3, 0, -131074, 65536, 3, 65533, 262144, 3, -3, 196608, 1, -65539, 196608, 1, -131075, 262144, 2, -131070, 196608, 1, -196606, 327680, 2, -196607, 65536, 3, -196608, 65536, 3, -131073, 65536, 3, 2, 327680, 3, -65534, 196608, 1, 65534, 131072, 3, 1, 0, 3, -1179639, 3, 0, -1245176, 3, 0, -1245174, 3, 0, -1245173, 3, 0, -1179637, 3, 0, -1310713, 131072, 1, -2031608, 3, 0, -1966072, 3, 0, -1900536, 3, 0, -1835000, 3, 0, -1769464, 3, 0, -1703928, 3, 0, -1638392, 3, 0, -1572856, 3, 0, -1507320, 3, 0, -1441784, 3, 0, -1376248, 3, 0, -1310712, 3, 0, -2031607, 3, 0, -1966071, 3, 0, -1900535, 3, 0, -1834999, 3, 0, -1769463, 3, 0, -1703927, 3, 0, -1638391, 3, 0, -1572855, 3, 0, -1507319, 3, 0, -1441783, 3, 0, -1376247, 3, 0, -1310711, 3, 0, -1900550, 3, 0, -1966085, 3, 0, -1900549, 3, 0, -1966084, 3, 0, -1900548, 3, 0, -1966083, 3, 0, -1900547, 3, 0, -1966082, 3, 0, -1900546, 3, 0, -1966081, 3, 0, -1900545, 3, 0, -2031616, 3, 0, -1966080, 3, 0, -2031615, 3, 0, -1966079, 3, 0, -2031614, 3, 0, -1966078, 3, 0, -2031613, 3, 0, -1966077, 3, 0, -2031612, 3, 0, -1966076, 3, 0, -2031611, 3, 0, -1966075, 3, 0, -2031610, 3, 0, -1966074, 3, 0, -2031609, 3, 0, -1966073, 3, 0, -1966086, 3, 0, -1835014, 3, 0, -1769478, 3, 0, -1703942, 3, 0, -1638406, 3, 0, -1572870, 3, 0, -1507334, 3, 0, -1835013, 3, 0, -1769477, 3, 0, -1703941, 3, 0, -1638405, 3, 0, -1572869, 3, 0, -1507333, 3, 0, -1572878, 3, 0, -1507342, 3, 0, -1572877, 3, 0, -1507341, 3, 0, -1572876, 3, 0, -1507340, 3, 0, -1572875, 3, 0, -1507339, 3, 0, -1572874, 3, 0, -1507338, 3, 0, -1572873, 3, 0, -1507337, 3, 0, -1572872, 3, 0, -1507336, 3, 0, -1572871, 3, 0, -1507335, 3, 0, -1441806, 3, 0, -1441805, 3, 0, -1507343, 3, 0, -1441807, 3, 0, -1376271, 3, 0, -1376270, 3, 0, -1441808, 3, 0, -1376272, 3, 0, -1310736, 3, 0, -1310735, 3, 0, -1376273, 3, 0, -1310737, 3, 0, -1245201, 3, 0, -1179665, 65539, 1, -1114129, 65539, 1, -1048593, 65539, 1, -983057, 131075, 1, -917521, 131075, 1, -851985, 65539, 1, -1245200, 3, 0, -1179664, 3, 0, -1114128, 131075, 1, -1048592, 131075, 1, -983056, 131075, 1, -917520, 65539, 1, -851984, 131075, 1, -786448, 131075, 1, -786449, 131075, 1, 1114122, 3, 0, 1179658, 3, 0, 1114123, 3, 0, 1179659, 3, 0, 1114124, 3, 0, 1179660, 3, 0, 1245195, 3, 0, 1245196, 3, 0, 1310732, 3, 0, 1114125, 3, 0, 1179661, 3, 0, 1245197, 3, 0, 1310733, 3, 0, 1114126, 3, 0, 1179662, 3, 0, 1245198, 3, 0, 1310734, 3, 0, 1114127, 3, 0, 1179663, 3, 0, 1245199, 3, 0, 1310735, 3, 0, 1114128, 3, 0, 1179664, 3, 0, 1245200, 3, 0, 1310736, 3, 0, 1376272, 3, 0, 1441808, 3, 0, 1507344, 3, 0, 1572880, 3, 0, 1638416, 3, 0, 1703952, 3, 0, 1769488, 3, 0, 1114129, 3, 0, 1179665, 3, 0, 1245201, 3, 0, 1310737, 3, 0, 1376273, 3, 0, 1441809, 3, 0, 1507345, 3, 0, 1572881, 3, 0, 1638417, 3, 0, 1703953, 3, 0, 1769489, 3, 0, 1835025, 3, 0, 1835024, 3, 0, 1900560, 3, 0, 1966096, 3, 0, 2031632, 3, 0, 2097168, 3, 0, 2162704, 3, 0, 2228240, 3, 0, 2293776, 3, 0, 2359312, 3, 0, 2424848, 3, 0, 2490384, 3, 0, 2555920, 3, 0, 2621456, 3, 0, 1900561, 3, 0, 1966097, 3, 0, 2031633, 3, 0, 2097169, 3, 0, 2162705, 3, 0, 2228241, 3, 0, 2293777, 3, 0, 2359313, 3, 0, 2424849, 3, 0, 2490385, 3, 0, 2555921, 3, 0, 2621457, 3, 0, 2555917, 3, 0, 2621453, 3, 0, 2555918, 3, 0, 2621454, 3, 0, 2555919, 3, 0, 2621455, 3, 0, 2686989, 3, 0, 2686990, 3, 0, 2621451, 3, 0, 2686987, 3, 0, 2621452, 3, 0, 2686988, 3, 0, 2752523, 3, 0, 2752524, 3, 0, 2686986, 3, 0, 2752522, 3, 0, 2818058, 3, 0, 2883594, 3, 0, 2949130, 3, 0, 3014666, 3, 0, 3080202, 3, 0, 3145738, 3, 0, 2818059, 3, 0, 2883595, 3, 0, 2949131, 3, 0, 3014667, 3, 0, 3080203, 3, 0, 3145739, 3, 0, 3145724, 3, 0, 3211260, 3, 0, 3145725, 3, 0, 3211261, 3, 0, 3145726, 3, 0, 3211262, 3, 0, 3145727, 3, 0, 3211263, 3, 0, 3080192, 3, 0, 3145728, 3, 0, 3080193, 3, 0, 3145729, 3, 0, 3080194, 3, 0, 3145730, 3, 0, 3080195, 3, 0, 3145731, 3, 0, 3080196, 3, 0, 3145732, 3, 0, 3080197, 3, 0, 3145733, 3, 0, 3080198, 3, 0, 3145734, 3, 0, 3080199, 3, 0, 3145735, 3, 0, 3080200, 3, 0, 3145736, 3, 0, 3080201, 3, 0, 3145737, 3, 0, 2752508, 3, 0, 2818044, 3, 0, 2883580, 3, 0, 2949116, 3, 0, 3014652, 3, 0, 3080188, 3, 0, 2752509, 3, 0, 2818045, 3, 0, 2883581, 3, 0, 2949117, 3, 0, 3014653, 3, 0, 3080189, 3, 0, 2686971, 3, 0, 2752507, 3, 0, 2818043, 3, 0, 2686972, 3, 0, 2686969, 3, 0, 2752505, 3, 0, 2686970, 3, 0, 2752506, 3, 0, 2621433, 3, 0, 2621434, 3, 0, 2621430, 3, 0, 2686966, 3, 0, 2621431, 3, 0, 2686967, 3, 0, 2621432, 3, 0, 2686968, 3, 0, 1900534, 3, 0, 1966070, 3, 0, 2031606, 3, 0, 2097142, 3, 0, 2162678, 3, 0, 2228214, 3, 0, 2293750, 3, 0, 2359286, 3, 0, 2424822, 3, 0, 2490358, 3, 0, 2555894, 3, 0, 1900535, 3, 0, 1966071, 3, 0, 2031607, 3, 0, 2097143, 3, 0, 2162679, 3, 0, 2228215, 3, 0, 2293751, 3, 0, 2359287, 3, 0, 2424823, 3, 0, 2490359, 3, 0, 2555895, 3, 0, 1310710, 3, 0, 1376246, 3, 0, 1441782, 3, 0, 1507318, 3, 0, 1572854, 3, 0, 1638390, 3, 0, 1703926, 3, 0, 1769462, 3, 0, 1834998, 3, 0, 1310711, 3, 0, 1376247, 3, 0, 1441783, 3, 0, 1507319, 3, 0, 1572855, 3, 0, 1638391, 3, 0, 1703927, 3, 0, 1769463, 3, 0, 1834999, 3, 0, 1310712, 3, 0, 1376248, 3, 0, 1310713, 3, 0, 1376249, 3, 0, 1310714, 3, 0, 1376250, 3, 0, 1310715, 3, 0, 1376251, 3, 0, 1245174, 3, 0, 1245175, 3, 0, 1245176, 3, 0, 1245177, 3, 0, 1245178, 3, 0, 1245179, 3, 0, 1245180, 3, 0, 1245181, 3, 0, 1310716, 3, 0, 1245171, 3, 0, 1245172, 3, 0, 1245173, 3, 0, 1245170, 3, 0, 1310706, 3, 0, 1310707, 3, 0, 1376243, 3, 0, 1310708, 3, 0, 1376244, 3, 0, 1441779, 3, 0, 1441780, 3, 0, 1310709, 3, 0, 1376245, 3, 0, 1441781, 3, 0, 1507316, 3, 0, 1572852, 3, 0, 1507317, 3, 0, 1572853, 3, 0, 1703925, 3, 0, 1638389, 3, 0, 2359298, 65539, 0, 2359297, 131075, 0, 2359303, 131075, 0, 2359296, 131075, 0, 2359304, 65539, 0, 2359305, 65539, 0, 2424831, 65539, 0, 2424830, 131075, 0, 2293772, 327680, 3, 2228236, 196608, 0, 2097164, 65539, 0, 2031628, 131075, 0, 1835020, 131075, 0, 1769484, 65539, 0, 1703948, 131075, 0, 2293771, 0, 3, 2359292, 131072, 3, 2359291, 262144, 3, 2293755, 196608, 0, 2162683, 65539, 0, 2097147, 65539, 0, 2031611, 0, 2, 1900539, 131075, 0, 1835003, 131075, 0, 1769467, 65539, 0, 2228220, 196608, 0, 2293756, 262144, 3, 2293757, 131072, 3, 2228234, 0, 3, 2228235, 327680, 3, 2162699, 196608, 0, 1638410, 0, 3, 1638411, 327680, 2, 1703947, 196608, 2, 1703933, 131072, 3, 1703932, 262144, 2, 1769468, 196608, 2, 2031612, 458752, 0, 1966077, 65536, 0, 2031613, 65536, 2, 1900540, 196608, 0, 2162684, 131075, 0, 1835004, 131075, 0, 2097163, 131075, 0, 1769483, 131075, 0, 2097148, 196608, 2, 1966076, 393216, 0, 1966075, 0, 0, 1900556, 131072, 0, 1966092, 131072, 2, 1835019, 196608, 0, 2031627, 196608, 2, 1900555, 393216, 0, 1966091, 458752, 0, 1966090, 65536, 2, 1966089, 0, 2, 1900553, 0, 0, 1900554, 65536, 0, 1638396, 131072, 3, 1638395, 262144, 2, 1703931, 196608, 2, 1638412, 196608, 2, 1572876, 327680, 2, 1572875, 0, 3, 2228219, 65539, 0, 2359293, 131075, 0, 2359294, 131075, 0, 2293770, 131075, 0, 2293769, 131075, 0, 2162700, 131075, 0, 1638397, 65539, 0, 1638398, 131075, 0, 1572873, 131075, 0, 1572874, 131075, 0, 1966078, 131072, 0, 2031614, 131072, 2)
layer_1/tile_data = PackedInt32Array(2490370, 2, 0, 2555906, 2, 0, 2621442, 2, 0, 2686978, 2, 0, 2752514, 2, 0, 2490371, 2, 0, 2555907, 2, 0, 2621443, 2, 0, 2686979, 2, 0, 2752515, 2, 0, 2490372, 2, 0, 2555908, 2, 0, 2621444, 2, 0, 2686980, 2, 0, 2752516, 2, 0, 2490373, 2, 0, 2555909, 2, 0, 2621445, 2, 0, 2686981, 2, 0, 2752517, 2, 0, 2359299, 2, 0, 2424835, 2, 0, 2359300, 2, 0, 2424836, 2, 0, 2097149, 65538, 0, 2162685, 2, 0, 2228221, 2, 0, 2097150, 65538, 0, 2162686, 196610, 0, 2228222, 65538, 0, 2097151, 2, 0, 2162687, 65538, 0, 2228223, 2, 0, 2031616, 2, 0, 2097152, 2, 0, 2162688, 2, 0, 2031617, 65538, 0, 2097153, 65538, 0, 2162689, 2, 0, 2031618, 2, 0, 2097154, 65538, 0, 2162690, 65538, 0, 2031619, 196610, 0, 2097155, 2, 0, 2162691, 65538, 0, 2031620, 2, 0, 2097156, 65538, 0, 2162692, 131074, 0, 2031621, 65538, 0, 2097157, 131074, 0, 2162693, 65538, 0, 2031622, 65538, 0, 2097158, 65538, 0, 2162694, 65538, 0, 2031623, 2, 0, 2097159, 65538, 0, 2162695, 2, 0, 2031624, 2, 0, 2097160, 65538, 0, 2162696, 65538, 0, 2031625, 2, 0, 2097161, 131074, 0, 2162697, 131074, 0, 2293758, 2, 0, 2293759, 2, 0, 2228224, 2, 0, 2228225, 2, 0, 2228226, 196610, 0, 2228227, 65538, 0, 2228228, 2, 0, 2228229, 65538, 0, 2228230, 65538, 0, 2228231, 65538, 0, 2228232, 2, 0, 2228233, 2, 0, 2359295, 2, 0, 2293760, 2, 0, 2293761, 2, 0, 2293762, 2, 0, 2293763, 2, 0, 2293764, 65538, 0, 2293765, 65538, 0, 2293766, 65538, 0, 2293767, 2, 0, 2293768, 65538, 0, 1572863, 2, 0, 1638399, 2, 0, 1703935, 2, 0, 1769471, 65538, 0, 1835007, 2, 0, 1900543, 65538, 0, 1966079, 65538, 0, 2031615, 2, 0, 1769470, 2, 0, 1835006, 131074, 0, 1900542, 2, 0, 1769469, 196610, 0, 1835005, 131074, 0, 1900541, 2, 0, 1703936, 2, 0, 1769472, 196610, 0, 1835008, 65538, 0, 1703937, 2, 0, 1769473, 65538, 0, 1835009, 131074, 0, 1703938, 2, 0, 1769474, 65538, 0, 1835010, 2, 0, 1703939, 2, 0, 1769475, 65538, 0, 1835011, 2, 0, 1703940, 65538, 0, 1769476, 65538, 0, 1835012, 65538, 0, 1703941, 131074, 0, 1769477, 65538, 0, 1835013, 65538, 0, 1703942, 2, 0, 1769478, 2, 0, 1835014, 65538, 0, 1703943, 2, 0, 1769479, 65538, 0, 1835015, 65538, 0, 1703944, 2, 0, 1769480, 2, 0, 1835016, 2, 0, 1703945, 2, 0, 1769481, 2, 0, 1835017, 65538, 0, 1900544, 2, 0, 1966080, 2, 0, 1900545, 65538, 0, 1966081, 65538, 0, 1900546, 2, 0, 1966082, 2, 0, 1900547, 131074, 0, 1966083, 65538, 0, 1900548, 2, 0, 1966084, 65538, 0, 1900549, 2, 0, 1966085, 2, 0, 1900550, 65538, 0, 1966086, 65538, 0, 1900551, 65538, 0, 1966087, 2, 0, 1900552, 2, 0, 1966088, 196610, 0, 1441792, 2, 0, 1507328, 65538, 0, 1572864, 65538, 0, 1638400, 2, 0, 1441793, 65538, 0, 1507329, 2, 0, 1572865, 2, 0, 1638401, 65538, 0, 1441794, 65538, 0, 1507330, 65538, 0, 1572866, 65538, 0, 1638402, 65538, 0, 1441795, 65538, 0, 1507331, 2, 0, 1572867, 2, 0, 1638403, 65538, 0, 1441796, 2, 0, 1507332, 2, 0, 1572868, 2, 0, 1638404, 65538, 0, 1441797, 2, 0, 1507333, 2, 0, 1572869, 65538, 0, 1638405, 65538, 0, 1441798, 65538, 0, 1507334, 2, 0, 1572870, 2, 0, 1638406, 2, 0, 1441799, 65538, 0, 1507335, 2, 0, 1572871, 65538, 0, 1638407, 2, 0, 1507336, 131074, 0, 1572872, 65538, 0, 1638408, 65538, 0, 1638409, 65538, 0, 1310721, 131074, 0, 1376257, 196610, 0, 1310722, 2, 0, 1376258, 65538, 0, 1310723, 2, 0, 1376259, 2, 0, 1310724, 196610, 0, 1376260, 65538, 0, 1310725, 2, 0, 1376261, 65538, 0, 1310726, 196610, 0, 1376262, 65538, 0, 1245187, 65538, 0, 1245188, 65538, 0, 1245189, 65538, 0, 1245186, 65538, 0, 1114115, 196609, 0, 1179651, 65538, 0, 1114116, 65537, 0, 1179652, 131074, 0, 1703934, 65538, 0, 1703946, 65538, 0, 1769482, 131074, 0, 1835018, 2, 0, 2031626, 65538, 0, 2097162, 2, 0, 2162698, 2, 0, 851971, 1, 0, 917507, 65537, 0, 983043, 65537, 0, 1048579, 1, 0, 851972, 1, 0, 917508, 131073, 0, 983044, 65538, 0, 1048580, 65538, 0, 851973, 196609, 0, 917509, 65537, 0, 851974, 65538, 0, 917510, 1, 0, 851975, 65537, 0, 917511, 1, 0, 851976, 65537, 0, 917512, 65537, 0, 851977, 65537, 0, 917513, 65537, 0, 851978, 65538, 0, 917514, 196610, 0, 851979, 196610, 0, 917515, 196610, 0, 851980, 65538, 0, 917516, 1, 0, 851981, 65537, 0, 917517, 65537, 0, 851982, 65537, 0, 917518, 1, 0, 851983, 196610, 0, 917519, 131073, 0, 851984, 1, 0, 917520, 65538, 0, 851985, 2, 0, 917521, 2, 0, 851986, 65538, 0, 917522, 2, 0, 851987, 65538, 0, 917523, 131074, 0, 851988, 65538, 0, 917524, 65538, 0, 851989, 65538, 0, 917525, 65538, 0, 851990, 2, 0, 917526, 2, 0, 720911, 65538, 0, 786447, 196610, 0, 720912, 2, 0, 786448, 2, 0, 720913, 2, 0, 786449, 65538, 0, 720914, 131073, 0, 786450, 2, 0, 720915, 65537, 0, 786451, 65537, 0, 720916, 65537, 0, 786452, 65538, 0, 720917, 196610, 0, 786453, 65538, 0, 720918, 65538, 0, 786454, 65538, 0, 720919, 2, 0, 786455, 65538, 0, 786446, 65538, 0, 458773, 65537, 0, 524309, 1, 0, 589845, 131074, 0, 655381, 65538, 0, 458774, 131073, 0, 524310, 65537, 0, 589846, 1, 0, 655382, 1, 0, 458775, 2, 0, 524311, 65537, 0, 589847, 65537, 0, 655383, 1, 0, 851991, 2, 0, 524312, 1, 0, 589848, 65537, 0, 655384, 1, 0, 720920, 65537, 0, 786456, 2, 0, 458766, 131073, 0, 524302, 131074, 0, 458767, 65538, 0, 524303, 65538, 0, 458768, 2, 0, 524304, 2, 0, 458769, 2, 0, 524305, 2, 0, 458770, 196610, 0, 524306, 65538, 0, 458771, 2, 0, 524307, 65538, 0, 458772, 1, 0, 524308, 65538, 0, 655368, 2, 0, 655369, 2, 0, 655370, 65538, 0, 655367, 2, 0, 589833, 65538, 0, 589834, 65538, 0, 458763, 196610, 0, 524299, 65538, 0, 589835, 65538, 0, 655371, 2, 0, 458764, 2, 0, 524300, 2, 0, 589836, 131074, 0, 655372, 65538, 0, 458765, 196609, 0, 524301, 65538, 0, 589837, 196610, 0, 655373, 2, 0, 393227, 2, 0, 393228, 65537, 0, 393229, 65537, 0, 393230, 1, 0, 393231, 65537, 0, 393232, 65538, 0, 196623, 2, 0, 262159, 65538, 0, 327695, 2, 0, 196624, 2, 0, 262160, 131074, 0, 327696, 2, 0, 262158, 65537, 0, 327694, 65537, 0, 196621, 65538, 0, 262157, 2, 0, 327693, 65537, 0, 196622, 196610, 0, 131083, 65538, 0, 196619, 2, 0, 262155, 2, 0, 327691, 2, 0, 131084, 131074, 0, 196620, 65538, 0, 262156, 65538, 0, 327692, 2, 0, 327689, 2, 0, 327690, 2, 0, 262154, 65538, 0, 65546, 65538, 0, 65547, 65538, 0, 65548, 65538, 0, 11, 65538, 0, 12, 2, 0, -65524, 65538, 0, -65521, 131074, 0, 15, 2, 0, 65551, 2, 0, 131087, 65538, 0, -65520, 65538, 0, 16, 2, 0, 65552, 131074, 0, 131088, 65538, 0, -65519, 2, 0, 17, 131074, 0, -65518, 2, 0, 18, 2, 0, -65517, 131074, 0, 19, 65538, 0, -65516, 65538, 0, 20, 65538, 0, -327661, 2, 0, -262125, 65538, 0, -196589, 2, 0, -131053, 65538, 0, -327660, 2, 0, -262124, 65538, 0, -196588, 2, 0, -131052, 2, 0, -327665, 2, 0, -262129, 65538, 0, -327664, 2, 0, -262128, 131074, 0, -327663, 196610, 0, -262127, 65538, 0, -327662, 2, 0, -262126, 65538, 0, -458737, 2, 0, -393201, 65538, 0, -655344, 2, 0, -589808, 131074, 0, -524272, 2, 0, -458736, 65538, 0, -393200, 2, 0, -524275, 131074, 0, -524274, 2, 0, -589809, 196610, 0, -524273, 2, 0, 655359, 65537, 0, 720895, 1, 0, 589824, 196609, 0, 655360, 1, 0, 589825, 1, 0, 655361, 65537, 0, 589826, 1, 0, 655362, 1, 0, 589827, 65537, 0, 655363, 65537, 0, 589828, 1, 0, 655364, 131073, 0, 589829, 1, 0, 655365, 1, 0, 589830, 1, 0, 655366, 65537, 0, 786431, 65537, 0, 851967, 65537, 0, 917503, 65537, 0, 983039, 1, 0, 1048575, 131073, 0, 720896, 65537, 0, 786432, 1, 0, 851968, 1, 0, 917504, 1, 0, 983040, 65537, 0, 983027, 65537, 0, 1048563, 1, 0, 983028, 65537, 0, 1048564, 65537, 0, 983029, 65537, 0, 1048565, 196609, 0, 983030, 65537, 0, 1048566, 131073, 0, 983031, 1, 0, 1048567, 65537, 0, 983032, 1, 0, 1048568, 196609, 0, 983033, 1, 0, 1048569, 1, 0, 983034, 131073, 0, 1048570, 65537, 0, 983035, 65537, 0, 1048571, 65537, 0, 983036, 196609, 0, 1048572, 65537, 0, 983037, 196609, 0, 1048573, 1, 0, 983038, 65537, 0, 1048574, 65537, 0, 524279, 1, 0, 589815, 1, 0, 655351, 65537, 0, 720887, 65537, 0, 786423, 1, 0, 851959, 1, 0, 917495, 1, 0, 524280, 65537, 0, 589816, 1, 0, 655352, 65537, 0, 720888, 65537, 0, 786424, 1, 0, 851960, 1, 0, 917496, 1, 0, 524283, 65537, 0, 589819, 65537, 0, 655355, 65537, 0, 720891, 65537, 0, 786427, 1, 0, 851963, 1, 0, 917499, 65537, 0, 524284, 65537, 0, 589820, 65537, 0, 655356, 196609, 0, 720892, 196609, 0, 786428, 131073, 0, 851964, 1, 0, 917500, 1, 0, 589831, 131073, 0, 589832, 65537, 0, 196615, 1, 0, 262151, 1, 0, 327687, 1, 0, 393223, 65537, 0, 458759, 1, 0, 524295, 1, 0, 196616, 65537, 0, 262152, 65537, 0, 327688, 65537, 0, 393224, 1, 0, 458760, 65537, 0, 524296, 1, 0, 262153, 196609, 0, 7, 1, 0, 65543, 131073, 0, 131079, 65537, 0, 8, 1, 0, 65544, 1, 0, 131080, 65537, 0, 9, 65537, 0, 10, 65537, 0, 65545, 65537, 0, -196601, 1, 0, -131065, 1, 0, -65529, 1, 0, -196600, 196609, 0, -131064, 65537, 0, -65528, 65537, 0, -327673, 1, 0, -262137, 1, 0, -327672, 65537, 0, -262136, 131073, 0, -327671, 1, 0, -262135, 65537, 0, -327670, 1, 0, -262134, 1, 0, -327669, 65537, 0, -262133, 1, 0, -327668, 1, 0, -262132, 65537, 0, -196597, 65537, 0, -131061, 1, 0, -196596, 196609, 0, -131060, 65537, 0, -65525, 1, 0, 131075, 65537, 0, 131076, 65537, 0, 131077, 65537, 0, 131078, 65537, 0, 65541, 1, 0, 65542, 65537, 0, -262139, 1, 0, -196603, 1, 0, -131067, 1, 0, -262138, 1, 0, -196602, 1, 0, -131066, 65537, 0, -327675, 131073, 0, -327674, 1, 0, 65536, 65537, 0, 131072, 1, 0, 65537, 1, 0, 131073, 196609, 0, 65538, 131073, 0, 131074, 196609, 0, 65539, 131073, 0, 65540, 131073, 0, -196605, 1, 0, -131069, 131073, 0, -65533, 1, 0, 3, 1, 0, -196604, 1, 0, -131068, 131073, 0, -65532, 1, 0, 4, 196609, 0, -327676, 1, 0, -262140, 196609, 0, 458747, 1, 0, 458748, 1, 0, 393212, 1, 0, 393207, 131073, 0, 458743, 65537, 0, 458744, 1, 0, 458741, 196609, 0, 458742, 65537, 0, 393206, 1, 0, 393213, 65538, 0, 458749, 2, 0, 393214, 131074, 0, 458750, 65538, 0, 393215, 2, 0, 458751, 65537, 0, 327680, 65537, 0, 393216, 65537, 0, 327681, 1, 0, 393217, 1, 0, 327682, 196610, 0, 393218, 65537, 0, 327683, 2, 0, 393219, 2, 0, 327684, 65538, 0, 393220, 65538, 0, 393209, 65538, 0, 393210, 2, 0, 393211, 2, 0, 458745, 196610, 0, 458746, 2, 0, 65528, 2, 0, 131064, 1, 0, 196600, 2, 0, 262136, 65538, 0, 327672, 65537, 0, 393208, 65538, 0, 131063, 196609, 0, 196599, 1, 0, 262135, 1, 0, 327671, 2, 0, -196616, 65538, 0, -131080, 196610, 0, -65544, 2, 0, -8, 65538, 0, -131081, 196610, 0, -65545, 65538, 0, -9, 65537, 0, 65527, 65537, 0, 131060, 2, 0, 196596, 65538, 0, 262132, 196610, 0, 327668, 196610, 0, 393204, 2, 0, 458740, 131074, 0, 524276, 2, 0, 589812, 65537, 0, 262131, 2, 0, 327667, 2, 0, 393203, 65538, 0, 458739, 65538, 0, 524275, 1, 0, 589811, 2, 0, 655347, 65537, 0, 720883, 65537, 0, 786419, 65537, 0, 655348, 1, 0, 720884, 65538, 0, 786420, 65538, 0, 131059, 131074, 0, 196595, 65538, 0, 851955, 131073, 0, 917491, 65537, 0, 851956, 65538, 0, 917492, 131073, 0, 131067, 65538, 0, 196603, 131074, 0, 131068, 65538, 0, 196604, 65538, 0, 131069, 65538, 0, 196605, 65538, 0, 131070, 2, 0, 196606, 2, 0, 131071, 65538, 0, 196607, 65538, 0, -196613, 65538, 0, -131077, 65538, 0, -65541, 65538, 0, -5, 2, 0, 65531, 65538, 0, -196612, 2, 0, -131076, 65538, 0, -65540, 65538, 0, -4, 65538, 0, 65532, 2, 0, -65543, 65538, 0, -7, 65538, 0, -65542, 2, 0, -6, 65538, 0, -262149, 2, 0, -262148, 65538, 0, -262147, 65538, 0, -196611, 2, 0, -262146, 2, 0, -196610, 2, 0, -262145, 65538, 0, -196609, 2, 0, -327680, 65538, 0, -262144, 196610, 0, -327679, 65538, 0, -262143, 2, 0, -327678, 2, 0, -262142, 65538, 0, -327677, 2, 0, -262141, 2, 0, -65538, 2, 0, -2, 2, 0, -65537, 2, 0, -1, 2, 0, -131072, 2, 0, -65536, 2, 0, -131071, 2, 0, -65535, 2, 0, 65535, 2, 0, 0, 2, 0, -589837, 65537, 0, -524301, 65538, 0, -458765, 65538, 0, -393229, 2, 0, -327693, 65538, 0, -262157, 65538, 0, -196621, 65538, 0, -131085, 65538, 0, -65549, 131074, 0, -13, 65538, 0, 65523, 131074, 0, -589836, 1, 0, -524300, 2, 0, -458764, 65538, 0, -393228, 2, 0, -327692, 2, 0, -262156, 65538, 0, -196620, 65538, 0, -131084, 2, 0, -65548, 65538, 0, -12, 65538, 0, 65524, 2, 0, -786445, 1, 0, -720909, 65537, 0, -655373, 65537, 0, -786444, 1, 0, -720908, 65538, 0, -655372, 65537, 0, -786443, 65538, 0, -720907, 2, 0, -655371, 65537, 0, -589835, 131073, 0, -524299, 65538, 0, -458763, 65538, 0, -655370, 65538, 0, -589834, 65538, 0, -524298, 131074, 0, -458762, 2, 0, -655369, 2, 0, -589833, 2, 0, -655368, 65538, 0, -589832, 131074, 0, -720903, 65537, 0, -655367, 196609, 0, -589831, 65538, 0, -720902, 1, 0, -655366, 65537, 0, -589830, 65538, 0, -655364, 2, 0, -589828, 65537, 0, -524292, 65537, 0, -655363, 131074, 0, -589827, 65538, 0, -524291, 2, 0, -524295, 196610, 0, -524294, 2, 0, -720897, 2, 0, -655361, 65538, 0, -589825, 2, 0, -524289, 131074, 0, -786432, 65538, 0, -720896, 2, 0, -655360, 65538, 0, -589824, 65538, 0, -786431, 131074, 0, -720895, 65537, 0, -655359, 1, 0, -589823, 1, 0, -786434, 65538, 0, -786433, 65538, 0, -851968, 65538, 0, -720906, 2, 0, -1179661, 65538, 0, -1114125, 2, 0, -1048589, 65538, 0, -1245196, 2, 0, -1179660, 2, 0, -1114124, 65538, 0, -1048588, 65538, 0, -983052, 65538, 0, -1245195, 65538, 0, -1179659, 2, 0, -1114123, 65538, 0, -1048587, 65538, 0, -983051, 65538, 0, -1310730, 65538, 0, -1245194, 2, 0, -1179658, 2, 0, -1310731, 196610, 0, -983050, 131074, 0, -917514, 65538, 0, -1048586, 2, 0, -983049, 2, 0, -917513, 2, 0, -1179654, 2, 0, -1114118, 2, 0, -1179653, 2, 0, -1114117, 65538, 0, -1179652, 196610, 0, -1114116, 65538, 0, -1245185, 196610, 0, -1179649, 131074, 0, -1114113, 131074, 0, -1310720, 2, 0, -1245184, 65538, 0, -1179648, 2, 0, -1310719, 65538, 0, -1245183, 65538, 0, -1179647, 65538, 0, -720893, 131074, 0, -655357, 65538, 0, -589821, 65538, 0, -720892, 65538, 0, -655356, 65538, 0, -589820, 196610, 0, -720891, 65538, 0, -655355, 131074, 0, -589819, 65538, 0, -720890, 2, 0, -655354, 65538, 0, -589818, 65538, 0, -720889, 2, 0, -655353, 65538, 0, -589817, 2, 0, -720888, 65538, 0, -655352, 131074, 0, -589816, 65538, 0, -917496, 65538, 0, -851960, 65538, 0, -786424, 2, 0, -917495, 2, 0, -851959, 65538, 0, -786423, 65538, 0, -720887, 65538, 0, -655351, 2, 0, -589815, 2, 0, -917494, 2, 0, -851958, 2, 0, -786422, 65538, 0, -720886, 65538, 0, -655350, 2, 0, -589814, 2, 0, -917493, 65538, 0, -851957, 2, 0, -786421, 196610, 0, -720885, 2, 0, -655349, 65538, 0, -589813, 65538, 0, -786420, 2, 0, -720884, 65538, 0, -655348, 196610, 0, -1114099, 2, 0, -1048563, 65538, 0, -983027, 65538, 0, -917491, 2, 0, -1114098, 65538, 0, -1048562, 65538, 0, -983026, 2, 0, -917490, 2, 0, -1114097, 196610, 0, -1048561, 65538, 0, -983025, 2, 0, -1114096, 65538, 0, -1048560, 65538, 0, -983024, 131074, 0, -720894, 131073, 0, -917512, 1, 0, -851978, 1, 0, -196617, 65537, 0, -262153, 65537, 0, -327689, 1, 0, -393225, 65537, 0, -458761, 1, 0, -524297, 131073, 0, -524296, 1, 0, -458760, 65537, 0, -393224, 65537, 0, -327688, 65537, 0, -262152, 1, 0, -458759, 1, 0, -458758, 1, 0, -458757, 1, 0, -458756, 65537, 0, -458755, 65537, 0, -458754, 131073, 0, -458753, 65537, 0, -524288, 65537, 0, -524287, 1, 0, -524286, 65537, 0, -524285, 1, 0, -524284, 131073, 0, -524283, 65537, 0, -524282, 1, 0, -524281, 65537, 0, -524280, 1, 0, -524279, 1, 0, -524278, 65537, 0, -524277, 1, 0, -524276, 1, 0, -655358, 1, 0, -589822, 65537, 0, -720898, 65537, 0, -655362, 1, 0, -589826, 1, 0, -524290, 65537, 0, -589829, 65537, 0, -524293, 1, 0, -786439, 65537, 0, -786438, 131073, 0, -786437, 196609, 0, -720901, 1, 0, -655365, 65537, 0, -786436, 131073, 0, -720900, 1, 0, -786435, 65537, 0, -720899, 131073, 0, -851977, 65537, 0, -786441, 1, 0, -720905, 65537, 0, -851976, 1, 0, -786440, 1, 0, -720904, 65537, 0, -786442, 1, 0, -1310728, 196609, 0, -1245192, 1, 0, -1179656, 65537, 0, -1114120, 1, 0, -1048584, 1, 0, -983048, 65537, 0, -1310727, 65537, 0, -1245191, 1, 0, -1179655, 65537, 0, -1114119, 131073, 0, -1048583, 65537, 0, -983047, 1, 0, -1310729, 131073, 0, -1245193, 65537, 0, -1179657, 1, 0, -1114121, 196609, 0, -1048585, 1, 0, -1114122, 1, 0, -1310726, 1, 0, -1245190, 1, 0, -1245189, 1, 0, -1245188, 131073, 0, -1048582, 131073, 0, -1048581, 1, 0, -1048580, 1, 0, -983046, 131073, 0, -1245187, 196609, 0, -1179651, 1, 0, -1114115, 1, 0, -1048579, 65537, 0, -983043, 131073, 0, -1245186, 1, 0, -1179650, 196609, 0, -1114114, 131073, 0, -1048578, 1, 0, -983042, 1, 0, -1310723, 1, 0, -1310722, 196609, 0, -1048577, 1, 0, -983041, 131073, 0, -1114112, 131073, 0, -1048576, 1, 0, -1114111, 65537, 0, -1048575, 65537, 0, -1114110, 1, 0, -1048574, 1, 0, -1114109, 1, 0, -1048573, 65537, 0, -983036, 1, 0, -917500, 131073, 0, -983035, 65537, 0, -917499, 65537, 0, -983037, 65537, 0, -1638402, 131073, 0, -1572866, 1, 0, -1507330, 1, 0, -1441794, 65537, 0, -1376258, 131073, 0, -1638401, 1, 0, -1572865, 1, 0, -1507329, 1, 0, -1441793, 1, 0, -1376257, 1, 0, -1703936, 1, 0, -1638400, 65537, 0, -1572864, 1, 0, -1507328, 1, 0, -1441792, 1, 0, -1703935, 65537, 0, -1638399, 65537, 0, -1572863, 1, 0, -1507327, 1, 0, -1441791, 65537, 0, -1310721, 65537, 0, -1376256, 196609, 0, -1376255, 1, 0, -1703937, 1, 0, -1769472, 65537, 0, -1769471, 65537, 0, -1769470, 65537, 0, -1769469, 65537, 0, -1769468, 65537, 0, -1703934, 1, 0, -1638398, 65537, 0, -1572862, 1, 0, -1507326, 65537, 0, -1441790, 65537, 0, -1376254, 1, 0, -1310718, 65537, 0, -1245182, 131073, 0, -1179646, 1, 0, -1703933, 131073, 0, -1638397, 65537, 0, -1572861, 1, 0, -1507325, 1, 0, -1441789, 65537, 0, -1376253, 65537, 0, -1310717, 1, 0, -1245181, 65537, 0, -1179645, 1, 0, -1703932, 1, 0, -1638396, 65537, 0, -1572860, 65537, 0, -1507324, 65537, 0, -1441788, 1, 0, -1376252, 1, 0, -1310716, 131073, 0, -1245180, 1, 0, -1179644, 65537, 0, -1703931, 65537, 0, -1638395, 65537, 0, -1572859, 1, 0, -1507323, 65537, 0, -1441787, 1, 0, -1376251, 65537, 0, -1310715, 1, 0, -1245179, 65537, 0, -1179643, 1, 0, -1114108, 1, 0, -1048572, 65537, 0, -1114107, 1, 0, -1048571, 1, 0, -1048570, 65537, 0, -983034, 196609, 0, -1048569, 1, 0, -983033, 65537, 0, -1048568, 1, 0, -983032, 65537, 0, -1114104, 1, 0, -1114103, 1, 0, -1048567, 65537, 0, -983031, 65537, 0, -1114102, 131073, 0, -1048566, 65537, 0, -983030, 1, 0, -1114101, 196609, 0, -1048565, 1, 0, -983029, 65537, 0, -1114100, 65537, 0, -1048564, 1, 0, -983028, 131073, 0, -917492, 65537, 0, -851956, 1, 0, -851955, 1, 0, -851954, 1, 0, -851953, 131073, 0, -851952, 65537, 0, -917489, 65537, 0, -917488, 196609, 0, -786419, 65537, 0, -720883, 65537, 0, -786418, 131073, 0, -720882, 65537, 0, -786417, 65537, 0, -720881, 65537, 0, -786416, 1, 0, -720880, 65537, 0, -655347, 1, 0, -655346, 1, 0, -655345, 1, 0, -589812, 65537, 0, -589811, 1, 0, -589810, 1, 0)

[node name="Exit" parent="." index="2"]
position = Vector2(128, 1312)
NEXT_LEVEL = "res://scenes/levelbase/levels/Level_4.tscn"

[node name="Enemy" parent="Enemy_Node" index="0" instance=ExtResource("2")]
position = Vector2(-256, -128)

[node name="Enemy2" parent="Enemy_Node" index="1" instance=ExtResource("2")]
position = Vector2(-128, 256)

[node name="Enemy3" parent="Enemy_Node" index="2" instance=ExtResource("2")]
position = Vector2(-320, -552)

[node name="Enemy4" parent="Enemy_Node" index="3" instance=ExtResource("2")]
position = Vector2(-232, -576)

[node name="Enemy5" parent="Enemy_Node" index="4" instance=ExtResource("2")]
position = Vector2(-16, -760)

[node name="Enemy6" parent="Enemy_Node" index="5" instance=ExtResource("2")]
position = Vector2(56, -784)

[node name="Enemy7" parent="Enemy_Node" index="6" instance=ExtResource("2")]
position = Vector2(104, -712)

[node name="Enemy8" parent="Enemy_Node" index="7" instance=ExtResource("2")]
position = Vector2(480, -480)

[node name="Enemy9" parent="Enemy_Node" index="8" instance=ExtResource("2")]
position = Vector2(496, 368)

[node name="Enemy10" parent="Enemy_Node" index="9" instance=ExtResource("2")]
position = Vector2(256, 256)

[node name="Enemy11" parent="Enemy_Node" index="10" instance=ExtResource("2")]
position = Vector2(16, 848)

[node name="Enemy12" parent="Enemy_Node" index="11" instance=ExtResource("2")]
position = Vector2(240, 848)

[node name="Enemy13" parent="Enemy_Node" index="12" instance=ExtResource("2")]
position = Vector2(16, 1008)

[node name="Enemy14" parent="Enemy_Node" index="13" instance=ExtResource("2")]
position = Vector2(240, 1008)
