[gd_scene load_steps=3 format=3 uid="uid://bnmmj7snty04x"]

[ext_resource type="PackedScene" uid="uid://c2eix8xqw6vck" path="res://scenes/levelbase/LevelBase.tscn" id="1_76jxe"]
[ext_resource type="PackedScene" uid="uid://cvlltljaq3eea" path="res://objects/actors/enemy/Enemy.tscn" id="2_nk8yv"]

[node name="Base" instance=ExtResource("1_76jxe")]

[node name="TileMap" parent="." index="0"]
layer_0/tile_data = PackedInt32Array(-327677, 196608, 0, -262141, 262144, 3, -262140, 131072, 3, -196613, 0, 3, -262148, 196608, 0, -196612, 327680, 3, 262139, 0, 3, 262140, 327680, 2, 327676, 196608, 2, 196611, 262144, 2, 262147, 196608, 2, 196612, 131072, 3, -524297, 3, 0, -458761, 3, 0, -524296, 3, 0, -458760, 3, 0, -589817, 3, 0, -524281, 3, 0, -589816, 3, 0, -524280, 3, 0, 524279, 3, 0, 589815, 3, 0, 524280, 3, 0, 589816, 3, 0, -327691, 3, 0, -262155, 196608, 0, -196619, 458752, 4, -131083, 196608, 2, 196597, 196608, 0, 262133, 458752, 4, 327669, 196608, 2, 393205, 3, 0, 458741, 3, 0, -327690, 3, 0, -262154, 3, 0, -196618, 131072, 3, 262134, 131072, 3, 327670, 3, 0, 393206, 3, 0, 458742, 3, 0, -393227, 3, 0, -393226, 3, 0, -655367, 3, 0, -589831, 3, 0, -655366, 3, 0, -589830, 3, 0, -655365, 0, 3, -589829, 3, 0, -655364, 458752, 4, -589828, 196608, 2, -655363, 131072, 3, -720894, 0, 3, -720893, 458752, 4, -655357, 196608, 2, -720892, 131072, 3, -655356, 3, 0, -720891, 3, 0, -655355, 3, 0, -720890, 3, 0, -655354, 3, 0, -458743, 3, 0, -393207, 3, 0, -327671, 3, 0, -262135, 0, 3, 196617, 0, 3, 262153, 3, 0, 327689, 3, 0, -458742, 3, 0, -393206, 3, 0, -327670, 196608, 0, -262134, 458752, 4, -196598, 196608, 2, 131082, 196608, 0, 196618, 458752, 4, 262154, 196608, 2, 327690, 3, 0, 655353, 3, 0, 655354, 3, 0, 655355, 3, 0, 655356, 196608, 0, 589827, 196608, 0, 589828, 3, 0, 589829, 3, 0, 589830, 3, 0, 458759, 3, 0, 524295, 3, 0, 458760, 3, 0, 524296, 3, 0, 393225, 3, 0, 393226, 3, 0, 720889, 3, 0, 720890, 3, 0, 720891, 0, 3, 720892, 458752, 4, 655362, 0, 3, 655363, 458752, 4, 655364, 131072, 3, 655365, 3, 0, 655366, 3, 0, 720893, 131072, 3, 196619, 131072, 3, 262155, 3, 0, 327691, 3, 0, 393227, 3, 0, -458741, 3, 0, -393205, 3, 0, -327669, 3, 0, -262133, 131072, 3, -393228, 3, 0, -327692, 3, 0, -262156, 3, 0, -196620, 0, 3, 262132, 0, 3, 327668, 3, 0, 393204, 3, 0, 458740, 3, 0, 720899, 196608, 2, 720900, 3, 0, 720901, 3, 0, 720902, 3, 0, 786425, 3, 0, 786426, 3, 0, 786427, 3, 0, 786428, 196608, 2, -786429, 196608, 0, -786428, 3, 0, -786427, 3, 0, -786426, 3, 0, -720903, 3, 0, -720902, 3, 0, -720901, 3, 0, -720900, 196608, 0, -655368, 3, 0, -589832, 3, 0, -589833, 3, 0, -524298, 3, 0, -458762, 3, 0, -458763, 3, 0, -720889, 3, 0, -655353, 3, 0, -655352, 3, 0, -589815, 3, 0, -524279, 3, 0, -524278, 3, 0, 458761, 3, 0, 458762, 3, 0, 524297, 3, 0, 589831, 3, 0, 589832, 3, 0, 655367, 3, 0, 524277, 3, 0, 524278, 3, 0, 589814, 3, 0, 655351, 3, 0, 655352, 3, 0, 720888, 3, 0, 458743, 3, 0, 589817, 3, 0, 524294, 3, 0, 393224, 3, 0, -589818, 3, 0, -458744, 3, 0, -524295, 3, 0, -393225, 3, 0, -458732, 3, 0, -393196, 3, 0, -327660, 3, 0, -262124, 0, 3, 196628, 0, 3, 262164, 3, 0, 327700, 3, 0, 393236, 3, 0, -524267, 3, 0, -458731, 3, 0, -393195, 3, 0, -327659, 196608, 0, -262123, 458752, 4, -196587, 196608, 2, 131093, 196608, 0, 196629, 458752, 4, 262165, 196608, 2, 327701, 3, 0, 393237, 3, 0, 458773, 3, 0, -589802, 3, 0, -524266, 3, 0, -458730, 3, 0, -393194, 3, 0, -327658, 3, 0, -262122, 131072, 3, 196630, 131072, 3, 262166, 3, 0, 327702, 3, 0, 393238, 3, 0, 458774, 3, 0, 524310, 3, 0, -655337, 3, 0, -589801, 3, 0, -524265, 3, 0, -458729, 3, 0, 393239, 3, 0, 458775, 3, 0, 524311, 3, 0, 589847, 3, 0, -720872, 3, 0, -655336, 3, 0, -589800, 3, 0, -524264, 3, 0, 458776, 3, 0, 524312, 3, 0, 589848, 3, 0, 655384, 3, 0, -786407, 3, 0, -720871, 3, 0, -655335, 3, 0, -589799, 3, 0, 524313, 3, 0, 589849, 3, 0, 655385, 3, 0, 720921, 3, 0, -786406, 3, 0, -720870, 3, 0, -655334, 3, 0, 589850, 3, 0, 655386, 3, 0, 720922, 3, 0, -786405, 3, 0, -720869, 0, 3, -655333, 3, 0, -262117, 0, 3, 196635, 0, 3, 589851, 3, 0, 655387, 0, 3, 720923, 3, 0, -786404, 196608, 0, -720868, 458752, 4, -655332, 196608, 2, -327652, 196608, 0, -262116, 327680, 3, 196636, 327680, 2, 262172, 196608, 2, 589852, 196608, 0, 655388, 458752, 4, 720924, 196608, 2, -720867, 131072, 3, 655389, 131072, 3, -720862, 0, 3, 655394, 0, 3, -786397, 196608, 0, -720861, 458752, 4, -655325, 196608, 2, -327645, 196608, 0, -262109, 262144, 3, 196643, 262144, 2, 262179, 196608, 2, 589859, 196608, 0, 655395, 458752, 4, 720931, 196608, 2, -786396, 3, 0, -720860, 131072, 3, -655324, 3, 0, -262108, 131072, 3, 196644, 131072, 3, 589860, 3, 0, 655396, 131072, 3, 720932, 3, 0, -786395, 3, 0, -720859, 3, 0, -655323, 3, 0, 589861, 3, 0, 655397, 3, 0, 720933, 3, 0, -786394, 3, 0, -720858, 3, 0, -655322, 3, 0, -589786, 3, 0, 524326, 3, 0, 589862, 3, 0, 655398, 3, 0, 720934, 3, 0, -720857, 3, 0, -655321, 3, 0, -589785, 3, 0, -524249, 3, 0, 458791, 3, 0, 524327, 3, 0, 589863, 3, 0, 655399, 3, 0, -655320, 3, 0, -589784, 3, 0, -524248, 3, 0, -458712, 3, 0, 393256, 3, 0, 458792, 3, 0, 524328, 3, 0, 589864, 3, 0, -589783, 3, 0, -524247, 3, 0, -458711, 3, 0, -393175, 3, 0, -327639, 3, 0, -262103, 0, 3, 196649, 0, 3, 262185, 3, 0, 327721, 3, 0, 393257, 3, 0, 458793, 3, 0, 524329, 3, 0, -524246, 3, 0, -458710, 3, 0, -393174, 3, 0, -327638, 196608, 0, -262102, 458752, 4, -196566, 196608, 2, 131114, 196608, 0, 196650, 458752, 4, 262186, 196608, 2, 327722, 3, 0, 393258, 3, 0, 458794, 3, 0, -458709, 3, 0, -393173, 3, 0, -327637, 3, 0, -262101, 131072, 3, 196651, 131072, 3, 262187, 3, 0, 327723, 3, 0, 393259, 3, 0, -2490380, 3, 0, -2424844, 3, 0, -2359308, 3, 0, -2293772, 0, 3, -1835020, 0, 3, -1769484, 3, 0, -1703948, 3, 0, -1638412, 3, 0, -2555915, 3, 0, -2490379, 3, 0, -2424843, 3, 0, -2359307, 196608, 0, -2293771, 458752, 4, -2228235, 196608, 2, -1900555, 196608, 0, -1835019, 458752, 4, -1769483, 196608, 2, -1703947, 3, 0, -1638411, 3, 0, -1572875, 3, 0, -2621450, 3, 0, -2555914, 3, 0, -2490378, 3, 0, -2424842, 3, 0, -2359306, 3, 0, -2293770, 131072, 3, -1835018, 131072, 3, -1769482, 3, 0, -1703946, 3, 0, -1638410, 3, 0, -1572874, 3, 0, -1507338, 3, 0, -2686985, 3, 0, -2621449, 3, 0, -2555913, 3, 0, -2490377, 3, 0, -1638409, 3, 0, -1572873, 3, 0, -1507337, 3, 0, -1441801, 3, 0, -2752520, 3, 0, -2686984, 3, 0, -2621448, 3, 0, -2555912, 3, 0, -1572872, 3, 0, -1507336, 3, 0, -1441800, 3, 0, -1376264, 3, 0, -2818055, 3, 0, -2752519, 3, 0, -2686983, 3, 0, -2621447, 3, 0, -1507335, 3, 0, -1441799, 3, 0, -1376263, 3, 0, -1310727, 3, 0, -2818054, 3, 0, -2752518, 3, 0, -2686982, 3, 0, -1441798, 3, 0, -1376262, 3, 0, -1310726, 3, 0, -2818053, 3, 0, -2752517, 0, 3, -2686981, 3, 0, -2293765, 0, 3, -1835013, 0, 3, -1441797, 3, 0, -1376261, 0, 3, -1310725, 3, 0, -2818052, 196608, 0, -2752516, 458752, 4, -2686980, 196608, 2, -2359300, 196608, 0, -2293764, 327680, 3, -1835012, 327680, 2, -1769476, 196608, 2, -1441796, 196608, 0, -1376260, 458752, 4, -1310724, 196608, 2, -2752515, 131072, 3, -1376259, 131072, 3, -2818046, 0, 3, -1441790, 0, 3, -2883581, 196608, 0, -2818045, 458752, 4, -2752509, 196608, 2, -2424829, 196608, 0, -2359293, 262144, 3, -1900541, 262144, 2, -1835005, 196608, 2, -1507325, 196608, 0, -1441789, 458752, 4, -1376253, 196608, 2, -2883580, 3, 0, -2818044, 131072, 3, -2752508, 3, 0, -2359292, 131072, 3, -1900540, 131072, 3, -1507324, 3, 0, -1441788, 131072, 3, -1376252, 3, 0, -2883579, 3, 0, -2818043, 3, 0, -2752507, 3, 0, -1507323, 3, 0, -1441787, 3, 0, -1376251, 3, 0, -2883578, 3, 0, -2818042, 3, 0, -2752506, 3, 0, -2686970, 3, 0, -1572858, 3, 0, -1507322, 3, 0, -1441786, 3, 0, -1376250, 3, 0, -2818041, 3, 0, -2752505, 3, 0, -2686969, 3, 0, -2621433, 3, 0, -1638393, 3, 0, -1572857, 3, 0, -1507321, 3, 0, -1441785, 3, 0, -2752504, 3, 0, -2686968, 3, 0, -2621432, 3, 0, -2555896, 3, 0, -1703928, 3, 0, -1638392, 3, 0, -1572856, 3, 0, -1507320, 3, 0, -2686967, 3, 0, -2621431, 3, 0, -2555895, 3, 0, -2490359, 3, 0, -2424823, 3, 0, -2359287, 0, 3, -1900535, 0, 3, -1834999, 3, 0, -1769463, 3, 0, -1703927, 3, 0, -1638391, 3, 0, -1572855, 3, 0, -2621430, 3, 0, -2555894, 3, 0, -2490358, 3, 0, -2424822, 196608, 0, -2359286, 458752, 4, -2293750, 196608, 2, -1966070, 196608, 0, -1900534, 458752, 4, -1834998, 196608, 2, -1769462, 3, 0, -1703926, 3, 0, -1638390, 3, 0, -2555893, 3, 0, -2490357, 3, 0, -2424821, 3, 0, -2359285, 131072, 3, -1900533, 131072, 3, -1834997, 3, 0, -1769461, 3, 0, -1703925, 3, 0, -2555884, 3, 0, -2490348, 3, 0, -2424812, 3, 0, -2359276, 0, 3, -1900524, 0, 3, -1834988, 3, 0, -1769452, 3, 0, -1703916, 3, 0, -2621419, 3, 0, -2555883, 3, 0, -2490347, 3, 0, -2424811, 196608, 0, -2359275, 458752, 4, -2293739, 196608, 2, -1966059, 196608, 0, -1900523, 458752, 4, -1834987, 196608, 2, -1769451, 3, 0, -1703915, 3, 0, -1638379, 3, 0, -2686954, 3, 0, -2621418, 3, 0, -2555882, 3, 0, -2490346, 3, 0, -2424810, 3, 0, -2359274, 131072, 3, -1900522, 131072, 3, -1834986, 3, 0, -1769450, 3, 0, -1703914, 3, 0, -1638378, 3, 0, -1572842, 3, 0, -2752489, 3, 0, -2686953, 3, 0, -2621417, 3, 0, -2555881, 3, 0, -1703913, 3, 0, -1638377, 3, 0, -1572841, 3, 0, -1507305, 3, 0, -2818024, 3, 0, -2752488, 3, 0, -2686952, 3, 0, -2621416, 3, 0, -1638376, 3, 0, -1572840, 3, 0, -1507304, 3, 0, -1441768, 3, 0, -2883559, 3, 0, -2818023, 3, 0, -2752487, 3, 0, -2686951, 3, 0, -1572839, 3, 0, -1507303, 3, 0, -1441767, 3, 0, -1376231, 3, 0, -2883558, 3, 0, -2818022, 3, 0, -2752486, 3, 0, -1507302, 3, 0, -1441766, 3, 0, -1376230, 3, 0, -2883557, 3, 0, -2818021, 0, 3, -2752485, 3, 0, -2359269, 0, 3, -1900517, 0, 3, -1507301, 3, 0, -1441765, 0, 3, -1376229, 3, 0, -2883556, 196608, 0, -2818020, 458752, 4, -2752484, 196608, 2, -2424804, 196608, 0, -2359268, 327680, 3, -1900516, 327680, 2, -1834980, 196608, 2, -1507300, 196608, 0, -1441764, 458752, 4, -1376228, 196608, 2, -2818019, 131072, 3, -1441763, 131072, 3, -2818014, 0, 3, -1441758, 0, 3, -2883549, 196608, 0, -2818013, 458752, 4, -2752477, 196608, 2, -2424797, 196608, 0, -2359261, 262144, 3, -1900509, 262144, 2, -1834973, 196608, 2, -1507293, 196608, 0, -1441757, 458752, 4, -1376221, 196608, 2, -2883548, 3, 0, -2818012, 131072, 3, -2752476, 3, 0, -2359260, 131072, 3, -1900508, 131072, 3, -1507292, 3, 0, -1441756, 131072, 3, -1376220, 3, 0, -2883547, 3, 0, -2818011, 3, 0, -2752475, 3, 0, -1507291, 3, 0, -1441755, 3, 0, -1376219, 3, 0, -2883546, 3, 0, -2818010, 3, 0, -2752474, 3, 0, -2686938, 3, 0, -1572826, 3, 0, -1507290, 3, 0, -1441754, 3, 0, -1376218, 3, 0, -2818009, 3, 0, -2752473, 3, 0, -2686937, 3, 0, -2621401, 3, 0, -1638361, 3, 0, -1572825, 3, 0, -1507289, 3, 0, -1441753, 3, 0, -2752472, 3, 0, -2686936, 3, 0, -2621400, 3, 0, -2555864, 3, 0, -1703896, 3, 0, -1638360, 3, 0, -1572824, 3, 0, -1507288, 3, 0, -2686935, 3, 0, -2621399, 3, 0, -2555863, 3, 0, -2490327, 3, 0, -2359255, 0, 3, -1900503, 0, 3, -1834967, 3, 0, -1769431, 3, 0, -1703895, 3, 0, -1638359, 3, 0, -1572823, 3, 0, -2621398, 3, 0, -2555862, 3, 0, -2490326, 3, 0, -2424790, 196608, 0, -2359254, 458752, 4, -2293718, 196608, 2, -1966038, 196608, 0, -1900502, 458752, 4, -1834966, 196608, 2, -1769430, 3, 0, -1703894, 3, 0, -1638358, 3, 0, -2555861, 3, 0, -2490325, 3, 0, -2424789, 3, 0, -2359253, 131072, 3, -1900501, 131072, 3, -1834965, 3, 0, -1769429, 3, 0, -1703893, 3, 0, 1048560, 3, 0, 983087, 3, 0, 983086, 3, 0, 983085, 3, 0, 983084, 131075, 0, 983083, 65539, 0, 983082, 3, 0, 983081, 131075, 0, 983080, 131075, 0, 983079, 65539, 0, 983064, 65539, 0, 983063, 131075, 0, 983062, 131075, 0, 983061, 65539, 0, 983060, 131075, 0, 983059, 131075, 0, 983058, 131075, 0, 983057, 3, 0, 983056, 65539, 0, 983055, 65539, 0, 983054, 3, 0, 983053, 65539, 0, 983052, 65539, 0, 983051, 3, 0, 983050, 3, 0, 983049, 3, 0, 983048, 65539, 0, 983047, 131075, 0, 1048567, 65539, 0, 1048566, 3, 0, 1048565, 3, 0, 1048564, 65539, 0, 1048563, 65539, 0, 1048562, 131075, 0, 1048561, 131075, 0, 983024, 3, 0, 917488, 65539, 0, 851952, 131075, 0, 786416, 65539, 0, 720880, 131075, 0, 655344, 131075, 0, 589808, 131075, 0, 524272, 3, 0, -458768, 131075, 0, -524304, 65539, 0, -589840, 65539, 0, -655376, 65539, 0, -720912, 3, 0, -786448, 131075, 0, -851984, 131075, 0, -917520, 65539, 0, -983056, 65539, 0, -1048592, 131075, 0, -1114128, 65539, 0, -1179664, 3, 0, -1245200, 3, 0, -1310736, 3, 0, -1376272, 3, 0, -1441808, 3, 0, -1507344, 65539, 0, -1572880, 131075, 0, -1638416, 65539, 0, -1703952, 65539, 0, -1769488, 65539, 0, -1835024, 65539, 0, -2293776, 3, 0, -2359312, 131075, 0, -2424848, 65539, 0, -2490384, 65539, 0, -2555920, 131075, 0, -2621456, 3, 0, -2686992, 3, 0, -2752528, 65539, 0, -2818064, 3, 0, -2883600, 3, 0, -2949136, 65539, 0, -3080208, 3, 0, -3014672, 3, 0, -3080207, 3, 0, -3080206, 65539, 0, -3080205, 3, 0, -3080204, 3, 0, -3080203, 3, 0, -3080202, 131075, 0, -3080201, 65539, 0, -3080200, 65539, 0, -3145721, 131075, 0, -3145720, 65539, 0, -3145719, 65539, 0, -3145718, 3, 0, -3145717, 3, 0, -3145716, 65539, 0, -3145715, 65539, 0, -3145714, 65539, 0, -3145713, 65539, 0, -3145712, 3, 0, -3145711, 131075, 0, -3145710, 65539, 0, -3145709, 65539, 0, -3145708, 3, 0, -3145707, 65539, 0, -3145706, 3, 0, -3145705, 131075, 0, -3145704, 65539, 0, -3145689, 65539, 0, -3145688, 65539, 0, -3145687, 131075, 0, -3145686, 3, 0, -3145685, 131075, 0, -3145684, 131075, 0, -3145683, 3, 0, -3145682, 3, 0, -3145681, 3, 0, -3080145, 3, 0, -3014609, 3, 0, -2949073, 65539, 0, -2883537, 3, 0, -2818001, 65539, 0, -2752465, 131075, 0, -2686929, 65539, 0, -2621393, 65539, 0, -1638353, 131075, 0, -1572817, 131075, 0, -1507281, 131075, 0, -1441745, 131075, 0, -1376209, 131075, 0, -1310673, 65539, 0, -1245137, 3, 0, -1179601, 65539, 0, -1114065, 3, 0, -1048529, 131075, 0, -982993, 3, 0, -917457, 3, 0, -851921, 3, 0, -786385, 3, 0, -720849, 3, 0, -655313, 3, 0, -589777, 3, 0, -524241, 131075, 0, 458799, 3, 0, 524335, 65539, 0, 589871, 3, 0, 655407, 3, 0, 720943, 131075, 0, 786479, 65539, 0, 852015, 65539, 0, 917551, 3, 0, 1048568, 65539, 0, 851953, 131075, 0, 917489, 131075, 0, 983025, 131075, 0, 983026, 3, 0, 983027, 3, 0, 917490, 3, 0, -3014671, 3, 0, -2949135, 3, 0, -2883599, 3, 0, -3014670, 3, 0, -3014669, 3, 0, -2949134, 3, 0, -3080148, 3, 0, -3080147, 3, 0, -3080146, 3, 0, -3014610, 3, 0, -2949074, 3, 0, -3014611, 3, 0, 786478, 3, 0, 852014, 3, 0, 917550, 3, 0, 917549, 3, 0, 917548, 3, 0, 852013, 3, 0, 458736, 131075, 0, 393200, 3, 0, 327664, 3, 0, 262128, 131075, 0, 196592, 131075, 0, 131056, 65539, 0, 65520, 131075, 0, -16, 131075, 0, -65552, 3, 0, -131088, 131075, 0, -196624, 131075, 0, -262160, 65539, 0, -327696, 131075, 0, -393232, 65539, 0, 1048569, 131075, 0, 1048570, 65539, 0, 1048571, 131075, 0, 1048572, 3, 0, 1048573, 131075, 0, 1048574, 65539, 0, 1048575, 131075, 0, 983040, 65539, 0, 983041, 65539, 0, 983042, 65539, 0, 983043, 131075, 0, 983044, 65539, 0, 983045, 131075, 0, 983046, 3, 0, 983065, 3, 0, 983066, 131075, 0, 983067, 3, 0, 983068, 65539, 0, 983069, 65539, 0, 983070, 131075, 0, 983071, 65539, 0, 983072, 131075, 0, 983073, 65539, 0, 983074, 131075, 0, 983075, 65539, 0, 983076, 3, 0, 983077, 65539, 0, 983078, 131075, 0, 393263, 65539, 0, 327727, 131075, 0, 262191, 65539, 0, 196655, 3, 0, 131119, 65539, 0, 65583, 131075, 0, 47, 3, 0, -65489, 65539, 0, -131025, 131075, 0, -196561, 65539, 0, -262097, 131075, 0, -327633, 3, 0, -393169, 131075, 0, -458705, 65539, 0, -1703889, 131075, 0, -1769425, 131075, 0, -1834961, 65539, 0, -1900497, 65539, 0, -1966033, 131075, 0, -2031569, 3, 0, -2097105, 65539, 0, -2162641, 65539, 0, -2228177, 131075, 0, -2293713, 131075, 0, -2359249, 131075, 0, -2424785, 65539, 0, -2490321, 131075, 0, -2555857, 65539, 0, -3145690, 131075, 0, -3145691, 65539, 0, -3145692, 131075, 0, -3145693, 65539, 0, -3145694, 65539, 0, -3145695, 65539, 0, -3145696, 65539, 0, -3145697, 3, 0, -3145698, 3, 0, -3145699, 3, 0, -3145700, 3, 0, -3145701, 131075, 0, -3145702, 65539, 0, -3145703, 65539, 0, -3145722, 131075, 0, -3145723, 131075, 0, -3145724, 3, 0, -3145725, 65539, 0, -3145726, 131075, 0, -3145727, 131075, 0, -3145728, 65539, 0, -3080193, 65539, 0, -3080194, 65539, 0, -3080195, 65539, 0, -3080196, 3, 0, -3080197, 3, 0, -3080198, 131075, 0, -3080199, 3, 0, -2228240, 65539, 0, -2162704, 3, 0, -2097168, 65539, 0, -2031632, 3, 0, -1966096, 131075, 0, -1900560, 65539, 0, -2818065, 3, 0, -2883601, 131075, 0, -2949137, 65539, 0, -2752529, 3, 0, -2686993, 131075, 0, -2621457, 131075, 0, -2555921, 131075, 0, -2490385, 3, 0, -2424849, 3, 0, -2359313, 131075, 0, -2293777, 131075, 0, -2228241, 65539, 0, -2162705, 131075, 0, -2097169, 65539, 0, -2031633, 3, 0, -1966097, 65539, 0, -1900561, 131075, 0, -1835025, 131075, 0, -1769489, 3, 0, -1703953, 131075, 0, -1638417, 65539, 0, -1572881, 65539, 0, -1507345, 65539, 0, -1441809, 131075, 0, -1376273, 3, 0, -1310737, 3, 0, -1245201, 65539, 0, -1179665, 131075, 0, -1114129, 65539, 0, -1048593, 65539, 0, -983057, 65539, 0, -917521, 65539, 0, -851985, 131075, 0, -786449, 3, 0, -720913, 65539, 0, -655377, 131075, 0, -589841, 131075, 0, -524305, 131075, 0, -458769, 65539, 0, -393233, 131075, 0, -327697, 3, 0, -262161, 65539, 0, -196625, 3, 0, -131089, 131075, 0, -65553, 131075, 0, -17, 3, 0, 65519, 3, 0, 131055, 65539, 0, 196591, 131075, 0, 262127, 3, 0, 327663, 65539, 0, 393199, 131075, 0, 458735, 65539, 0, 524271, 131075, 0, 589807, 3, 0, 655343, 65539, 0, 720879, 131075, 0, 786415, 3, 0, 851951, 131075, 0, 917487, 3, 0, 1114099, 3, 0, 1114098, 65539, 0, 1114100, 3, 0, 1114101, 3, 0, 1114102, 65539, 0, 1114103, 3, 0, 1114104, 65539, 0, 1114105, 65539, 0, 1114106, 3, 0, 1114107, 131075, 0, 1114108, 131075, 0, 1114109, 3, 0, 1114110, 65539, 0, 1114111, 65539, 0, 1048576, 3, 0, 1048577, 131075, 0, 1048578, 3, 0, 1048579, 65539, 0, 1048580, 3, 0, 1048581, 3, 0, 1048582, 65539, 0, 1048583, 65539, 0, 1048584, 65539, 0, 1048585, 3, 0, 1048586, 3, 0, 1048587, 65539, 0, 1048588, 131075, 0, 1048589, 131075, 0, 1048590, 65539, 0, 1048591, 65539, 0, 1048592, 3, 0, 1048593, 65539, 0, 1048594, 65539, 0, 1048595, 65539, 0, 1048596, 131075, 0, 1048597, 131075, 0, 1048598, 3, 0, 1048599, 65539, 0, 1048600, 65539, 0, 1048601, 65539, 0, 1048602, 131075, 0, 1048603, 3, 0, 1048604, 131075, 0, 1048605, 3, 0, 1048606, 65539, 0, 1048607, 3, 0, 1048608, 131075, 0, 1048609, 65539, 0, 1048610, 65539, 0, 1048611, 65539, 0, 1048612, 3, 0, 1048613, 131075, 0, 1048614, 65539, 0, 1048615, 65539, 0, 1048616, 3, 0, 1048617, 65539, 0, 1048618, 65539, 0, 1048619, 131075, 0, 1048620, 3, 0, 1048621, 131075, 0, 786480, 3, 0, 852016, 3, 0, 720944, 65539, 0, 655408, 131075, 0, 589872, 3, 0, 524336, 3, 0, 458800, 65539, 0, 393264, 131075, 0, 327728, 131075, 0, 262192, 3, 0, 196656, 3, 0, 131120, 3, 0, 65584, 65539, 0, 48, 65539, 0, -65488, 65539, 0, -131024, 3, 0, -196560, 131075, 0, -262096, 3, 0, -327632, 65539, 0, -393168, 65539, 0, -458704, 65539, 0, -524240, 3, 0, -589776, 3, 0, -655312, 65539, 0, -720848, 131075, 0, -786384, 131075, 0, -851920, 131075, 0, -917456, 65539, 0, -982992, 65539, 0, -1048528, 3, 0, -1114064, 3, 0, -1179600, 65539, 0, -1245136, 65539, 0, -1310672, 3, 0, -1376208, 131075, 0, -1441744, 65539, 0, -1507280, 3, 0, -1572816, 131075, 0, -1638352, 3, 0, -1703888, 65539, 0, -1769424, 3, 0, -1834960, 65539, 0, -1900496, 3, 0, -1966032, 3, 0, -2031568, 131075, 0, -2097104, 131075, 0, -2162640, 3, 0, -2228176, 131075, 0, -2293712, 131075, 0, -2359248, 65539, 0, -2424784, 3, 0, -2490320, 131075, 0, -2555856, 65539, 0, -2621392, 65539, 0, -2686928, 3, 0, -2752464, 3, 0, -2818000, 131075, 0, -2883536, 3, 0, -2949072, 131075, 0, -3014608, 65539, 0, -3211219, 131075, 0, -3211220, 3, 0, -3211221, 65539, 0, -3211222, 131075, 0, -3211223, 131075, 0, -3211224, 65539, 0, -3211225, 65539, 0, -3211226, 65539, 0, -3211227, 3, 0, -3211228, 131075, 0, -3211229, 3, 0, -3211230, 131075, 0, -3211231, 131075, 0, -3211232, 131075, 0, -3211233, 3, 0, -3211234, 131075, 0, -3211235, 3, 0, -3211236, 65539, 0, -3211237, 65539, 0, -3211238, 131075, 0, -3211239, 3, 0, -3211240, 131075, 0, -3211241, 65539, 0, -3211242, 65539, 0, -3211243, 65539, 0, -3211244, 3, 0, -3211245, 3, 0, -3211246, 3, 0, -3211247, 131075, 0, -3211248, 131075, 0, -3211249, 131075, 0, -3211250, 65539, 0, -3211251, 3, 0, -3211252, 131075, 0, -3211253, 65539, 0, -3211254, 3, 0, -3211255, 3, 0, -3211256, 3, 0, -3211257, 3, 0, -3211258, 3, 0, -3211259, 65539, 0, -3211260, 65539, 0, -3211261, 65539, 0, -3211262, 131075, 0, -3211263, 131075, 0, -3211264, 65539, 0, -3145729, 3, 0, -3145730, 3, 0, -3145731, 3, 0, -3145732, 3, 0, -3145733, 131075, 0, -3145734, 3, 0, -3145735, 131075, 0, -3145736, 65539, 0, -3145737, 65539, 0, -3145738, 3, 0, -3145739, 3, 0, -3145740, 65539, 0, -3145741, 131075, 0, -3145742, 65539, 0, -851956, 3, 0, -851949, 3, 1, -1310708, 3, 0, -1310701, 3, 1, -1376243, 3, 0, -1376238, 3, 0, -1245173, 131075, 1, -917493, 3, 1, -786419, 3, 0, -786414, 3, 0, -917484, 3, 0, -1245164, 3, 0, -1179638, 3, 1, -1114102, 131075, 1, -1048566, 3, 1, -983030, 3, 1, -1179627, 3, 1, -1114091, 131075, 1, -1048555, 131075, 1, -983019, 3, 1, -1441778, 131075, 1, -1441777, 131075, 1, -1441776, 3, 1, -1441775, 131075, 1, -720882, 131075, 1, -720881, 3, 0, -720880, 3, 0, -720879, 3, 0, -1048562, 131075, 1, -1114098, 131075, 1, -1179634, 131075, 1, -1245170, 131075, 1, -1310706, 3, 0, -1376242, 3, 0, -1376241, 131075, 1, -1310705, 131075, 1, -1245169, 3, 0, -1179633, 3, 1, -1114097, 3, 1, -1048561, 3, 0, -983025, 3, 1, -983026, 3, 0, -983027, 3, 1, -1048563, 3, 0, -1114099, 3, 1, -1179635, 3, 1, -1245171, 131075, 1, -1310707, 3, 1, -1245172, 131075, 1, -1179636, 3, 0, -1179637, 3, 0, -1114101, 131075, 1, -1048565, 3, 1, -983029, 3, 0, -983028, 131075, 1, -1048564, 131075, 1, -1114100, 3, 1, -917492, 3, 0, -917491, 3, 0, -851955, 3, 0, -851954, 3, 1, -917490, 131075, 1, -917489, 3, 1, -851953, 3, 1, -786417, 3, 1, -786418, 3, 0, -786416, 3, 1, -851952, 131075, 1, -917488, 3, 0, -983024, 3, 1, -1048560, 3, 1, -1114096, 3, 0, -1179632, 3, 1, -1245168, 3, 1, -1310704, 3, 0, -1376240, 131075, 1, -1376239, 3, 1, -1310703, 3, 1, -1245167, 131075, 1, -1179631, 131075, 1, -1114095, 3, 0, -1048559, 3, 1, -983023, 3, 1, -917487, 3, 0, -851951, 131075, 1, -786415, 3, 0, -851950, 3, 1, -917486, 131075, 1, -983022, 131075, 1, -1048558, 131075, 1, -1114094, 131075, 1, -1179630, 131075, 1, -1245166, 131075, 1, -1310702, 131075, 1, -1245165, 3, 1, -1179629, 131075, 1, -1114093, 3, 1, -1048557, 3, 1, -983021, 3, 0, -917485, 3, 1, -983020, 3, 1, -1048556, 3, 1, -1114092, 3, 1, -1179628, 131075, 1, -3080179, 262144, 2, -3080178, 65536, 3, -3080177, 65536, 3, -3080176, 65536, 3, -3080175, 65536, 3, -3080174, 327680, 2, -3014638, 196608, 2, -2818030, 196608, 0, -2752494, 327680, 3, -2752495, 0, 3, -3014643, 196608, 2, -2818035, 196608, 0, -2752499, 262144, 3, -2752498, 131072, 3)
layer_1/tile_data = PackedInt32Array(-65539, 65538, 0, -3, 65538, 0, 65533, 2, 0, 131069, 2, 0, 196605, 2, 0, 196606, 131074, 0, 196607, 65538, 0, 131072, 196610, 0, 131073, 2, 0, 131074, 65538, 0, 65538, 2, 0, 2, 2, 0, -65534, 2, 0, -131070, 2, 0, -196606, 65538, 0, -196607, 2, 0, -196608, 131074, 0, -131073, 65538, 0, -131074, 65538, 0, -131075, 196610, 0, -65538, 2, 0, -2, 2, 0, 65534, 2, 0, -1, 65538, 0, -65537, 65538, 0, 65535, 2, 0, 131071, 65538, 0, 131070, 2, 0, 65536, 2, 0, 65537, 65538, 0, 1, 65538, 0, -65535, 65538, 0, -131071, 2, 0, -131072, 65538, 0, -65536, 2, 0, 0, 65538, 0, 262132, 1, 0, 327668, 1, 0, 393204, 65537, 0, 458740, 65537, 0, 458741, 65537, 0, 524277, 1, 0, 524278, 65537, 0, 589814, 1, 0, 589815, 1, 0, 655351, 1, 0, 655352, 1, 0, 720888, 1, 0, 720889, 1, 0, 720890, 1, 0, 720891, 1, 0, 786425, 1, 0, 786426, 1, 0, 786427, 1, 0, 786428, 1, 0, 786429, 1, 0, 786430, 1, 0, 786431, 1, 0, 720896, 1, 0, 720897, 1, 0, 720898, 1, 0, 720899, 1, 0, 720900, 1, 0, 720901, 1, 0, 720902, 1, 0, 655366, 1, 0, 655367, 1, 0, 589831, 1, 0, 589832, 1, 0, 524296, 1, 0, 524297, 1, 0, 458761, 1, 0, 458762, 1, 0, 393226, 1, 0, 393227, 1, 0, 327691, 196609, 0, 262155, 131073, 0, 196619, 65537, 0, 131083, 65537, 0, 65547, 1, 0, 11, 131073, 0, -65525, 1, 0, -131061, 65537, 0, -196597, 65537, 0, -262133, 65537, 0, -327669, 65537, 0, -393205, 1, 0, -458741, 65537, 0, -458742, 1, 0, -524278, 1, 0, -327692, 1, 0, -393228, 65537, 0, -262156, 65537, 0, -196620, 131073, 0, -131084, 1, 0, -65548, 65537, 0, -12, 1, 0, 65524, 65537, 0, 131060, 131073, 0, 196596, 1, 0, -393227, 65537, 0, -458763, 196609, 0, -458762, 1, 0, -524298, 65537, 0, -524297, 131073, 0, -589833, 65537, 0, -589832, 65537, 0, -589831, 1, 0, -655367, 65537, 0, -655368, 1, 0, -720903, 65537, 0, -720902, 1, 0, -720901, 1, 0, -720900, 1, 0, -720899, 1, 0, -720898, 65537, 0, -720897, 1, 0, -786432, 65537, 0, -786431, 1, 0, -786430, 65537, 0, -786429, 1, 0, -786428, 65537, 0, -786427, 1, 0, -786426, 65537, 0, -720890, 65537, 0, -720889, 65537, 0, -655353, 1, 0, -655352, 1, 0, -589816, 1, 0, -589815, 1, 0, -524279, 1, 0, -196603, 1, 0, -7, 65537, 0, -65543, 131073, 0, -131079, 65537, 0, -196615, 65537, 0, -262151, 65537, 0, -327687, 1, 0, -393223, 1, 0, -458759, 131073, 0, -524295, 65537, 0, -524296, 1, 0, -458760, 1, 0, -458761, 131073, 0, -393225, 65537, 0, -393226, 196609, 0, -327690, 1, 0, -327691, 196609, 0, -262155, 1, 0, -196619, 65537, 0, -131083, 1, 0, -65547, 1, 0, -11, 1, 0, 65525, 1, 0, 131061, 65537, 0, 196597, 1, 0, 262133, 1, 0, 327669, 131073, 0, 393205, 65537, 0, 393206, 65537, 0, 327670, 65537, 0, 262134, 1, 0, 196598, 65537, 0, 131062, 1, 0, 65526, 1, 0, -10, 65537, 0, -65546, 1, 0, -131082, 1, 0, -196618, 65537, 0, -262154, 65537, 0, -262153, 65537, 0, -327689, 65537, 0, -327688, 65537, 0, -393224, 196609, 0, -262152, 65537, 0, -196616, 1, 0, -196617, 65537, 0, -131081, 1, 0, -65545, 65537, 0, -9, 65537, 0, 65527, 65537, 0, 131063, 65537, 0, 196599, 65537, 0, 262135, 131073, 0, 327671, 65537, 0, 393207, 65537, 0, 458743, 1, 0, 458742, 1, 0, 524279, 65537, 0, 524280, 65537, 0, 458744, 1, 0, 393208, 1, 0, 327672, 65537, 0, 262136, 1, 0, 196600, 65537, 0, 131064, 1, 0, 65528, 65537, 0, -8, 65537, 0, -65544, 1, 0, -131080, 65537, 0, 65529, 1, 0, 131065, 1, 0, 196601, 1, 0, 262137, 65537, 0, 327673, 65537, 0, 393209, 1, 0, 458745, 1, 0, 524281, 65537, 0, 589817, 1, 0, 589816, 1, 0, 655353, 1, 0, 655354, 1, 0, 589818, 1, 0, 524282, 1, 0, 458746, 1, 0, 393210, 1, 0, 327674, 1, 0, 262138, 1, 0, 196602, 1, 0, 131066, 1, 0, 65530, 1, 0, -6, 1, 0, -65542, 1, 0, -131078, 1, 0, -196614, 1, 0, -262150, 1, 0, -327686, 1, 0, -393222, 1, 0, -458758, 1, 0, -524294, 1, 0, -589830, 1, 0, -655366, 1, 0, -655365, 1, 0, -589829, 1, 0, -524293, 1, 0, -458757, 1, 0, -393221, 1, 0, -327685, 1, 0, -262149, 1, 0, -196613, 1, 0, -131077, 2, 0, -65541, 2, 0, -5, 2, 0, 65531, 2, 0, 131067, 2, 0, 196603, 2, 0, 262139, 1, 0, 327675, 1, 0, 393211, 1, 0, 458747, 1, 0, 524283, 1, 0, 589819, 1, 0, 655355, 1, 0, 655356, 1, 0, 589820, 1, 0, 524284, 1, 0, 458748, 1, 0, 393212, 1, 0, 327676, 1, 0, 262140, 2, 0, 196604, 65538, 0, 131068, 2, 0, 65532, 2, 0, -4, 2, 0, -65540, 2, 0, -131076, 2, 0, -196612, 65538, 0, -262148, 1, 0, -327684, 1, 0, -393220, 1, 0, -458756, 1, 0, -524292, 1, 0, -589828, 1, 0, -655364, 1, 0, -655363, 1, 0, -589827, 1, 0, -524291, 1, 0, -458755, 1, 0, -393219, 1, 0, -327683, 1, 0, -262147, 2, 0, -196611, 2, 0, -196610, 65538, 0, -262146, 2, 0, -327682, 1, 0, -393218, 1, 0, -458754, 1, 0, -524290, 1, 0, -589826, 1, 0, -655362, 131073, 0, -655361, 196609, 0, -589825, 1, 0, -524289, 1, 0, -458753, 1, 0, -393217, 1, 0, -327681, 1, 0, -262145, 2, 0, -196609, 65538, 0, -262144, 2, 0, -327680, 2, 0, -393216, 1, 0, -458752, 1, 0, -524288, 1, 0, -589824, 1, 0, -655360, 1, 0, -720896, 196609, 0, -720895, 1, 0, -655359, 1, 0, -589823, 1, 0, -524287, 1, 0, -458751, 1, 0, -393215, 1, 0, -327679, 2, 0, -262143, 65538, 0, -262142, 2, 0, -327678, 2, 0, -393214, 1, 0, -458750, 1, 0, -524286, 1, 0, -589822, 1, 0, -655358, 1, 0, -720894, 1, 0, -720893, 196609, 0, -655357, 1, 0, -589821, 1, 0, -524285, 1, 0, -458749, 1, 0, -393213, 1, 0, -327677, 1, 0, -262141, 65538, 0, -196605, 2, 0, -131069, 2, 0, -65533, 196610, 0, 3, 2, 0, 65539, 65538, 0, 131075, 2, 0, 196611, 131074, 0, 196610, 65538, 0, 196609, 196610, 0, 196608, 65538, 0, 262143, 65538, 0, 262142, 2, 0, 262141, 65538, 0, 327677, 2, 0, 393213, 1, 0, 458749, 1, 0, 524285, 1, 0, 589821, 1, 0, 655357, 1, 0, 720893, 1, 0, 720892, 1, 0, 720894, 1, 0, 655358, 1, 0, 589822, 1, 0, 524286, 1, 0, 458750, 1, 0, 393214, 1, 0, 327678, 2, 0, 327679, 2, 0, 393215, 1, 0, 458751, 1, 0, 524287, 1, 0, 589823, 1, 0, 655359, 1, 0, 720895, 1, 0, 655360, 1, 0, 589824, 1, 0, 524288, 1, 0, 458752, 1, 0, 393216, 1, 0, 327680, 1, 0, 262144, 2, 0, 262145, 2, 0, 327681, 1, 0, 393217, 1, 0, 458753, 1, 0, 524289, 1, 0, 589825, 1, 0, 655361, 1, 0, 655362, 1, 0, 589826, 1, 0, 524290, 1, 0, 458754, 1, 0, 393218, 1, 0, 327682, 1, 0, 262146, 2, 0, 262147, 1, 0, 327683, 1, 0, 393219, 1, 0, 458755, 1, 0, 524291, 1, 0, 589827, 1, 0, 655363, 1, 0, 655364, 1, 0, 589828, 1, 0, 524292, 1, 0, 458756, 1, 0, 393220, 1, 0, 327684, 1, 0, 262148, 1, 0, 196612, 1, 0, 131076, 2, 0, 65540, 2, 0, 4, 2, 0, -65532, 2, 0, -131068, 2, 0, -196604, 2, 0, -262140, 1, 0, -327676, 1, 0, -393212, 1, 0, -458748, 1, 0, -524284, 1, 0, -589820, 1, 0, -655356, 1, 0, -720892, 65537, 0, -720891, 1, 0, -655355, 1, 0, -589819, 1, 0, -524283, 1, 0, -458747, 1, 0, -393211, 1, 0, -327675, 1, 0, -262139, 1, 0, -262138, 1, 0, -327674, 1, 0, -393210, 1, 0, -458746, 1, 0, -524282, 1, 0, -589818, 1, 0, -655354, 1, 0, -589817, 1, 0, -524281, 1, 0, -458745, 1, 0, -393209, 1, 0, -327673, 1, 0, -262137, 1, 0, -196601, 1, 0, -196602, 1, 0, -131066, 1, 0, -131067, 1, 0, -65531, 1, 0, 5, 1, 0, 65541, 1, 0, 131077, 1, 0, 196613, 1, 0, 262149, 1, 0, 327685, 1, 0, 393221, 1, 0, 458757, 1, 0, 524293, 1, 0, 589829, 1, 0, 655365, 1, 0, 589830, 1, 0, 524294, 1, 0, 458758, 1, 0, 393222, 1, 0, 327686, 1, 0, 262150, 1, 0, 196614, 1, 0, 131078, 1, 0, 65542, 1, 0, 6, 1, 0, -65530, 1, 0, -65529, 1, 0, -131065, 1, 0, -131064, 1, 0, -196600, 1, 0, -262136, 1, 0, -327672, 1, 0, -393208, 1, 0, -458744, 1, 0, -524280, 1, 0, -458743, 1, 0, -393207, 1, 0, -327671, 1, 0, -262135, 1, 0, -196599, 1, 0, -131063, 1, 0, -65527, 1, 0, -65528, 1, 0, 8, 1, 0, 7, 1, 0, 65543, 1, 0, 131079, 1, 0, 196615, 1, 0, 262151, 1, 0, 327687, 1, 0, 393223, 1, 0, 458759, 1, 0, 524295, 1, 0, 458760, 1, 0, 393224, 1, 0, 327688, 1, 0, 262152, 1, 0, 196616, 1, 0, 131080, 1, 0, 65544, 1, 0, 65545, 1, 0, 9, 1, 0, 10, 1, 0, -65526, 1, 0, -131062, 1, 0, -196598, 1, 0, -262134, 1, 0, -327670, 1, 0, -393206, 1, 0, 65546, 1, 0, 131082, 1, 0, 131081, 1, 0, 196617, 1, 0, 262153, 1, 0, 327689, 1, 0, 393225, 1, 0, 327690, 1, 0, 262154, 1, 0, 196618, 1, 0, 327695, 131073, 0, 262159, 131073, 0, 196623, 196609, 0, 131087, 65537, 0, 65551, 65537, 0, 15, 196609, 0, -65521, 1, 0, -131057, 65537, 0, -196593, 1, 0, -262129, 65537, 0, -327665, 65537, 0, -393201, 65537, 0, -458737, 131073, 0, -524273, 65537, 0, -589809, 65537, 0, -655345, 1, 0, -720881, 1, 0, -786417, 1, 0, -851953, 1, 0, -917489, 1, 0, -983025, 1, 0, -1048561, 1, 0, -1114097, 1, 0, -1179633, 65537, 0, -1245169, 131073, 0, -1310705, 65537, 0, -1376241, 1, 0, -1441777, 1, 0, -1507313, 1, 0, -1572849, 1, 0, -1638385, 1, 0, -1703921, 1, 0, -1769457, 65537, 0, -1834993, 1, 0, -1900529, 65537, 0, -1966065, 65537, 0, -2031601, 65537, 0, -2097137, 65537, 0, -2162673, 131073, 0, -2228209, 65537, 0, -2293745, 65537, 0, -2359281, 1, 0, -2424817, 1, 0, -2490353, 1, 0, -2555889, 1, 0, -2621425, 196609, 0, -2686961, 1, 0, -2752497, 2, 0, -2818033, 2, 0, -2883569, 65538, 0, -2949105, 65538, 0, -3014641, 2, 0, -3080177, 1, 0, -3145713, 1, 0, -3211249, 1, 0, -3211250, 1, 0, -3211251, 1, 0, -3211252, 1, 0, -3211253, 1, 0, -3211254, 1, 0, -3211255, 1, 0, -3211256, 1, 0, -3211257, 1, 0, -3211258, 1, 0, -3211259, 1, 0, -3211260, 1, 0, -3211261, 1, 0, -3211262, 1, 0, -3211263, 1, 0, -3211264, 1, 0, -3145729, 1, 0, -3145730, 1, 0, -3145731, 1, 0, -3145732, 1, 0, -3145733, 1, 0, -3145734, 1, 0, -3145735, 1, 0, -3145736, 1, 0, -3145737, 1, 0, -3145738, 1, 0, -3145739, 1, 0, -3145740, 1, 0, -3145741, 1, 0, -3145742, 1, 0, -2949137, 1, 0, -2883601, 1, 0, -2818065, 1, 0, -2752529, 1, 0, -2686993, 1, 0, -2621457, 1, 0, -2555921, 1, 0, -2490385, 1, 0, -2424849, 1, 0, -2359313, 1, 0, -2293777, 1, 0, -2228241, 1, 0, -2162705, 1, 0, -2097169, 1, 0, -2031633, 1, 0, -1966097, 1, 0, -1900561, 1, 0, -1835025, 1, 0, -1769489, 1, 0, -1703953, 1, 0, -1638417, 1, 0, -1572881, 1, 0, -1507345, 1, 0, -1441809, 1, 0, -1376273, 1, 0, -1310737, 1, 0, -1245201, 1, 0, -1179665, 1, 0, -1114129, 1, 0, -1048593, 1, 0, -983057, 1, 0, -917521, 1, 0, -851985, 1, 0, -786449, 1, 0, -720913, 1, 0, -655377, 1, 0, -589841, 1, 0, -524305, 1, 0, -458769, 1, 0, -393233, 1, 0, -327697, 1, 0, -262161, 1, 0, -196625, 1, 0, -131089, 1, 0, -65553, 1, 0, -17, 1, 0, 65519, 1, 0, 131055, 1, 0, 196591, 1, 0, 262127, 1, 0, 327663, 1, 0, 393199, 1, 0, 458735, 1, 0, 524271, 1, 0, 589807, 1, 0, 655343, 1, 0, 720879, 1, 0, 786415, 1, 0, 851951, 1, 0, 917487, 1, 0, 1048560, 1, 0, 983024, 1, 0, 917488, 1, 0, 851952, 1, 0, 786416, 1, 0, 720880, 1, 0, 655344, 1, 0, 589808, 1, 0, 524272, 1, 0, 458736, 1, 0, 393200, 1, 0, 327664, 1, 0, 262128, 1, 0, 196592, 1, 0, 131056, 1, 0, 65520, 1, 0, -16, 1, 0, -65552, 1, 0, -131088, 1, 0, -196624, 1, 0, -262160, 1, 0, -327696, 1, 0, -393232, 1, 0, -458768, 1, 0, -524304, 1, 0, -589840, 1, 0, -655376, 1, 0, -720912, 1, 0, -786448, 1, 0, -851984, 1, 0, -917520, 1, 0, -983056, 1, 0, -1048592, 1, 0, -1114128, 1, 0, -1179664, 1, 0, -1245200, 1, 0, -1310736, 1, 0, -1376272, 1, 0, -1441808, 1, 0, -1507344, 1, 0, -1572880, 1, 0, -1638416, 1, 0, -1703952, 1, 0, -1769488, 1, 0, -1835024, 1, 0, -1900560, 1, 0, -1966096, 1, 0, -2031632, 1, 0, -2097168, 1, 0, -2162704, 1, 0, -2228240, 1, 0, -2293776, 1, 0, -2359312, 1, 0, -2424848, 1, 0, -2490384, 1, 0, -2555920, 1, 0, -2621456, 1, 0, -2686992, 1, 0, -2752528, 1, 0, -2818064, 1, 0, -2883600, 1, 0, -2949136, 1, 0, -3014672, 1, 0, -3080208, 1, 0, -3080207, 1, 0, -3014671, 1, 0, -2949135, 1, 0, -2883599, 1, 0, -2818063, 1, 0, -2752527, 1, 0, -2686991, 1, 0, -2621455, 1, 0, -2555919, 1, 0, -2490383, 1, 0, -2424847, 1, 0, -2359311, 1, 0, -2293775, 1, 0, -2228239, 1, 0, -2162703, 1, 0, -2097167, 1, 0, -2031631, 1, 0, -1966095, 1, 0, -1900559, 1, 0, -1835023, 1, 0, -1769487, 1, 0, -1703951, 1, 0, -1638415, 1, 0, -1572879, 1, 0, -1507343, 1, 0, -1441807, 1, 0, -1376271, 1, 0, -1310735, 1, 0, -1245199, 1, 0, -1179663, 1, 0, -1114127, 1, 0, -1048591, 1, 0, -983055, 1, 0, -917519, 1, 0, -851983, 1, 0, -786447, 1, 0, -720911, 1, 0, -655375, 1, 0, -589839, 1, 0, -524303, 1, 0, -458767, 1, 0, -393231, 1, 0, -327695, 1, 0, -262159, 1, 0, -196623, 1, 0, -131087, 1, 0, -65551, 1, 0, -15, 1, 0, 65521, 1, 0, 131057, 1, 0, 196593, 1, 0, 262129, 1, 0, 327665, 1, 0, 393201, 1, 0, 458737, 1, 0, 524273, 1, 0, 589809, 1, 0, 655345, 1, 0, 720881, 1, 0, 786417, 1, 0, 851953, 1, 0, 917489, 1, 0, 983025, 1, 0, 1048561, 1, 0, 1114098, 1, 0, 1048562, 1, 0, 983026, 1, 0, 917490, 1, 0, 851954, 1, 0, 786418, 1, 0, 720882, 1, 0, 655346, 1, 0, 589810, 1, 0, 524274, 1, 0, 458738, 1, 0, 393202, 1, 0, 327666, 1, 0, 262130, 1, 0, 196594, 1, 0, 131058, 1, 0, 65522, 1, 0, -14, 1, 0, -65550, 1, 0, -131086, 1, 0, -196622, 1, 0, -262158, 1, 0, -327694, 1, 0, -393230, 1, 0, -458766, 1, 0, -524302, 1, 0, -589838, 1, 0, -655374, 1, 0, -720910, 1, 0, -786446, 1, 0, -851982, 1, 0, -917518, 1, 0, -983054, 1, 0, -1048590, 1, 0, -1114126, 1, 0, -1179662, 1, 0, -1245198, 1, 0, -1310734, 1, 0, -1376270, 1, 0, -1441806, 1, 0, -1507342, 1, 0, -1572878, 1, 0, -1638414, 1, 0, -1703950, 1, 0, -1769486, 1, 0, -1835022, 1, 0, -1900558, 1, 0, -1966094, 1, 0, -2031630, 1, 0, -2097166, 1, 0, -2162702, 1, 0, -2228238, 1, 0, -2293774, 1, 0, -2359310, 1, 0, -2424846, 1, 0, -2490382, 1, 0, -2555918, 1, 0, -2621454, 1, 0, -2686990, 1, 0, -2752526, 1, 0, -2818062, 1, 0, -2883598, 1, 0, -2949134, 1, 0, -3014670, 1, 0, -3080206, 1, 0, -3080205, 1, 0, -3014669, 1, 0, -2949133, 1, 0, -2883597, 1, 0, -2818061, 1, 0, -2752525, 1, 0, -2686989, 1, 0, -2621453, 1, 0, -2555917, 1, 0, -2490381, 1, 0, -2424845, 1, 0, -2359309, 1, 0, -2293773, 1, 0, -2228237, 1, 0, -2162701, 1, 0, -2097165, 1, 0, -2031629, 1, 0, -1966093, 1, 0, -1900557, 1, 0, -1835021, 1, 0, -1769485, 1, 0, -1703949, 1, 0, -1638413, 1, 0, -1572877, 1, 0, -1507341, 1, 0, -1441805, 1, 0, -1376269, 1, 0, -1310733, 1, 0, -1245197, 1, 0, -1179661, 1, 0, -1114125, 1, 0, -1048589, 1, 0, -983053, 1, 0, -917517, 1, 0, -851981, 1, 0, -786445, 1, 0, -720909, 1, 0, -655373, 1, 0, -589837, 1, 0, -524301, 1, 0, -458765, 1, 0, -393229, 1, 0, -327693, 1, 0, -262157, 1, 0, -196621, 1, 0, -131085, 1, 0, -65549, 1, 0, -13, 1, 0, 65523, 1, 0, 131059, 1, 0, 196595, 1, 0, 262131, 1, 0, 327667, 1, 0, 393203, 1, 0, 458739, 1, 0, 524275, 1, 0, 589811, 1, 0, 655347, 1, 0, 720883, 1, 0, 786419, 1, 0, 851955, 1, 0, 917491, 1, 0, 983027, 1, 0, 1048563, 1, 0, 1114099, 1, 0, 1114100, 1, 0, 1048564, 1, 0, 983028, 1, 0, 917492, 1, 0, 851956, 1, 0, 786420, 1, 0, 720884, 1, 0, 655348, 1, 0, 589812, 1, 0, 524276, 65537, 0, 589813, 1, 0, 655349, 1, 0, 720885, 1, 0, 786421, 1, 0, 851957, 1, 0, 917493, 1, 0, 983029, 1, 0, 1048565, 1, 0, 1114101, 1, 0, 1114102, 1, 0, 1048566, 1, 0, 983030, 1, 0, 917494, 1, 0, 851958, 1, 0, 786422, 1, 0, 720886, 1, 0, 655350, 1, 0, 720887, 1, 0, 786423, 1, 0, 851959, 1, 0, 917495, 1, 0, 983031, 1, 0, 1048567, 1, 0, 1114103, 1, 0, 1114104, 1, 0, 1048568, 1, 0, 983032, 1, 0, 917496, 1, 0, 851960, 1, 0, 786424, 1, 0, 851961, 1, 0, 917497, 1, 0, 983033, 1, 0, 1048569, 1, 0, 1114105, 1, 0, 1114106, 1, 0, 1048570, 1, 0, 983034, 1, 0, 917498, 1, 0, 851962, 1, 0, 851963, 1, 0, 917499, 1, 0, 983035, 1, 0, 1048571, 1, 0, 1114107, 1, 0, 1114108, 1, 0, 1048572, 1, 0, 983036, 1, 0, 917500, 1, 0, 851964, 1, 0, 851965, 1, 0, 917501, 1, 0, 983037, 1, 0, 1048573, 1, 0, 1114109, 1, 0, 1114110, 1, 0, 1048574, 1, 0, 983038, 1, 0, 917502, 1, 0, 851966, 1, 0, 851967, 1, 0, 917503, 1, 0, 983039, 1, 0, 1048575, 1, 0, 1114111, 1, 0, 1048576, 1, 0, 983040, 1, 0, 917504, 1, 0, 851968, 1, 0, 786432, 1, 0, 786433, 1, 0, 851969, 1, 0, 917505, 1, 0, 983041, 1, 0, 1048577, 1, 0, 1048578, 1, 0, 983042, 1, 0, 917506, 1, 0, 851970, 1, 0, 786434, 1, 0, 786435, 1, 0, 851971, 1, 0, 917507, 1, 0, 983043, 1, 0, 1048579, 1, 0, 1048580, 1, 0, 983044, 1, 0, 917508, 1, 0, 851972, 1, 0, 786436, 1, 0, 786437, 1, 0, 851973, 1, 0, 917509, 1, 0, 983045, 1, 0, 1048581, 1, 0, 1048582, 1, 0, 983046, 1, 0, 917510, 1, 0, 851974, 1, 0, 786438, 1, 0, 786439, 1, 0, 720903, 1, 0, 720904, 1, 0, 655368, 1, 0, 655369, 1, 0, 589833, 1, 0, 589834, 1, 0, 524298, 1, 0, 524299, 1, 0, 458763, 1, 0, 458764, 1, 0, 393228, 65537, 0, 327692, 65537, 0, 262156, 131073, 0, 196620, 65537, 0, 131084, 131073, 0, 65548, 65537, 0, 12, 65537, 0, -65524, 65537, 0, -131060, 1, 0, -196596, 196609, 0, -262132, 1, 0, -327668, 1, 0, -393204, 196609, 0, -458740, 65537, 0, -524276, 196609, 0, -589812, 65537, 0, -655348, 65537, 0, -720884, 1, 0, -786420, 131073, 0, -851956, 131073, 0, -917492, 131073, 0, -983028, 65537, 0, -1048564, 65537, 0, -1114100, 65537, 0, -1179636, 65537, 0, -1245172, 65537, 0, -1310708, 1, 0, -1376244, 1, 0, -1441780, 65537, 0, -1507316, 131073, 0, -1572852, 65537, 0, -1638388, 65537, 0, -1703924, 65537, 0, -1769460, 196609, 0, -1834996, 1, 0, -1900532, 1, 0, -1966068, 65537, 0, -2031604, 65537, 0, -2097140, 65537, 0, -2162676, 131073, 0, -2228212, 65537, 0, -2293748, 1, 0, -2359284, 131073, 0, -2424820, 1, 0, -2490356, 65537, 0, -2555892, 131073, 0, -2621428, 65537, 0, -2686964, 1, 0, -2752500, 1, 0, -2818036, 1, 0, -2883572, 1, 0, -2949108, 1, 0, -3014644, 1, 0, -3080180, 1, 0, -3145716, 1, 0, -3145717, 1, 0, -3145718, 1, 0, -3145719, 1, 0, -3145720, 1, 0, -3145721, 1, 0, -3145722, 1, 0, -3145723, 1, 0, -3145724, 1, 0, -3145725, 1, 0, -3145726, 1, 0, -3145727, 1, 0, -3145728, 1, 0, -3080193, 1, 0, -3080194, 1, 0, -3080195, 1, 0, -3080196, 1, 0, -3080197, 1, 0, -3080198, 1, 0, -3080199, 1, 0, -3080200, 1, 0, -3080201, 1, 0, -3080202, 1, 0, -3080203, 1, 0, -3080204, 1, 0, -3014668, 1, 0, -2949132, 1, 0, -2883596, 1, 0, -2818060, 1, 0, -2752524, 1, 0, -2686988, 1, 0, -2621452, 1, 0, -2555916, 1, 0, -2490380, 1, 0, -2424844, 1, 0, -2359308, 1, 0, -2293772, 1, 0, -2228236, 1, 0, -2162700, 1, 0, -2097164, 1, 0, -2031628, 1, 0, -1966092, 1, 0, -1900556, 1, 0, -1835020, 1, 0, -1769484, 1, 0, -1703948, 1, 0, -1638412, 1, 0, -1572876, 1, 0, -1507340, 1, 0, -1441804, 1, 0, -1376268, 1, 0, -1310732, 1, 0, -1245196, 1, 0, -1179660, 1, 0, -1114124, 1, 0, -1048588, 1, 0, -983052, 1, 0, -917516, 1, 0, -851980, 1, 0, -786444, 65537, 0, -720908, 65537, 0, -655372, 65537, 0, -589836, 1, 0, -524300, 65537, 0, -458764, 1, 0, -524299, 65537, 0, -589835, 65537, 0, -655371, 65537, 0, -720907, 1, 0, -786443, 1, 0, -851979, 65537, 0, -917515, 1, 0, -983051, 1, 0, -1048587, 1, 0, -1114123, 1, 0, -1179659, 1, 0, -1245195, 1, 0, -1310731, 1, 0, -1376267, 1, 0, -1441803, 1, 0, -1507339, 1, 0, -1572875, 1, 0, -1638411, 1, 0, -1703947, 1, 0, -1769483, 1, 0, -1835019, 1, 0, -1900555, 1, 0, -1966091, 1, 0, -2031627, 1, 0, -2097163, 1, 0, -2162699, 1, 0, -2228235, 1, 0, -2293771, 1, 0, -2359307, 1, 0, -2424843, 1, 0, -2490379, 1, 0, -2555915, 1, 0, -2621451, 1, 0, -2686987, 1, 0, -2752523, 1, 0, -2818059, 1, 0, -2883595, 1, 0, -2949131, 1, 0, -3014667, 1, 0, -3014666, 1, 0, -2949130, 1, 0, -2883594, 1, 0, -2818058, 1, 0, -2752522, 1, 0, -2686986, 1, 0, -2621450, 1, 0, -2555914, 65537, 0, -2490378, 196609, 0, -2424842, 65537, 0, -2359306, 1, 0, -2293770, 65537, 0, -2228234, 65537, 0, -2162698, 1, 0, -2097162, 1, 0, -2031626, 131073, 0, -1966090, 1, 0, -1900554, 65537, 0, -1835018, 65537, 0, -1769482, 1, 0, -1703946, 1, 0, -1638410, 65537, 0, -1572874, 1, 0, -1507338, 65537, 0, -1441802, 131073, 0, -1376266, 1, 0, -1310730, 1, 0, -1245194, 65537, 0, -1179658, 65537, 0, -1114122, 1, 0, -1048586, 1, 0, -983050, 1, 0, -917514, 1, 0, -851978, 1, 0, -786442, 1, 0, -720906, 65537, 0, -655370, 196609, 0, -589834, 65537, 0, -655369, 1, 0, -720905, 1, 0, -786441, 196609, 0, -851977, 1, 0, -917513, 1, 0, -983049, 1, 0, -1048585, 1, 0, -1114121, 131073, 0, -1179657, 65537, 0, -1245193, 1, 0, -1310729, 65537, 0, -1376265, 1, 0, -1441801, 1, 0, -1507337, 1, 0, -1572873, 1, 0, -1638409, 1, 0, -1703945, 65537, 0, -1769481, 65537, 0, -1835017, 1, 0, -1900553, 65537, 0, -1966089, 1, 0, -2031625, 65537, 0, -2097161, 65537, 0, -2162697, 131073, 0, -2228233, 65537, 0, -2293769, 65537, 0, -2359305, 65537, 0, -2424841, 1, 0, -2490377, 1, 0, -2555913, 1, 0, -2621449, 1, 0, -2686985, 1, 0, -2752521, 1, 0, -2818057, 1, 0, -2883593, 1, 0, -2949129, 1, 0, -3014665, 1, 0, -3014664, 1, 0, -2949128, 1, 0, -2883592, 1, 0, -2818056, 1, 0, -2752520, 1, 0, -2686984, 1, 0, -2621448, 1, 0, -2555912, 196609, 0, -2490376, 1, 0, -2424840, 196609, 0, -2359304, 65537, 0, -2293768, 65537, 0, -2228232, 1, 0, -2162696, 65537, 0, -2097160, 1, 0, -2031624, 65537, 0, -1966088, 65537, 0, -1900552, 65537, 0, -1835016, 1, 0, -1769480, 196609, 0, -1703944, 1, 0, -1638408, 1, 0, -1572872, 1, 0, -1507336, 65537, 0, -1441800, 1, 0, -1376264, 65537, 0, -1310728, 65537, 0, -1245192, 65537, 0, -1179656, 196609, 0, -1114120, 1, 0, -1048584, 1, 0, -983048, 1, 0, -917512, 1, 0, -851976, 65537, 0, -786440, 65537, 0, -720904, 1, 0, -786439, 65537, 0, -851975, 65537, 0, -917511, 1, 0, -983047, 1, 0, -1048583, 1, 0, -1114119, 65537, 0, -1179655, 65537, 0, -1245191, 65537, 0, -1310727, 131073, 0, -1376263, 196609, 0, -1441799, 131073, 0, -1507335, 1, 0, -1572871, 131073, 0, -1638407, 1, 0, -1703943, 1, 0, -1769479, 65537, 0, -1835015, 1, 0, -1900551, 1, 0, -1966087, 1, 0, -2031623, 1, 0, -2097159, 1, 0, -2162695, 65537, 0, -2228231, 1, 0, -2293767, 1, 0, -2359303, 1, 0, -2424839, 1, 0, -2490375, 65537, 0, -2555911, 65537, 0, -2621447, 1, 0, -2686983, 1, 0, -2752519, 1, 0, -2818055, 1, 0, -2883591, 1, 0, -2949127, 1, 0, -3014663, 1, 0, -3014662, 1, 0, -2949126, 1, 0, -2883590, 1, 0, -2818054, 1, 0, -2752518, 1, 0, -2686982, 1, 0, -2621446, 1, 0, -2555910, 1, 0, -2490374, 1, 0, -2424838, 65537, 0, -2359302, 65537, 0, -2293766, 196609, 0, -2228230, 65537, 0, -2162694, 65537, 0, -2097158, 1, 0, -2031622, 65537, 0, -1966086, 65537, 0, -1900550, 196609, 0, -1835014, 1, 0, -1769478, 65537, 0, -1703942, 65537, 0, -1638406, 65537, 0, -1572870, 1, 0, -1507334, 1, 0, -1441798, 1, 0, -1376262, 1, 0, -1310726, 1, 0, -1245190, 1, 0, -1179654, 131073, 0, -1114118, 65537, 0, -1048582, 1, 0, -983046, 1, 0, -917510, 1, 0, -851974, 1, 0, -786438, 1, 0, -786437, 1, 0, -851973, 1, 0, -917509, 1, 0, -983045, 1, 0, -1048581, 1, 0, -1114117, 65537, 0, -1179653, 196609, 0, -1245189, 196609, 0, -1310725, 1, 0, -1376261, 1, 0, -1441797, 65537, 0, -1507333, 1, 0, -1572869, 131073, 0, -1638405, 131073, 0, -1703941, 131073, 0, -1769477, 65537, 0, -1835013, 65537, 0, -1900549, 2, 0, -1966085, 2, 0, -2031621, 2, 0, -2097157, 2, 0, -2162693, 2, 0, -2228229, 2, 0, -2293765, 1, 0, -2359301, 1, 0, -2424837, 131073, 0, -2490373, 196609, 0, -2555909, 1, 0, -2621445, 1, 0, -2686981, 1, 0, -2752517, 1, 0, -2818053, 1, 0, -2883589, 1, 0, -2949125, 1, 0, -3014661, 1, 0, -3014660, 1, 0, -2949124, 1, 0, -2883588, 1, 0, -2818052, 1, 0, -2752516, 1, 0, -2686980, 1, 0, -2621444, 1, 0, -2555908, 65537, 0, -2490372, 65537, 0, -2424836, 196609, 0, -2359300, 65537, 0, -2293764, 2, 0, -2228228, 65538, 0, -2162692, 131074, 0, -2097156, 2, 0, -2031620, 2, 0, -1966084, 65538, 0, -1900548, 65538, 0, -1835012, 2, 0, -1769476, 1, 0, -1703940, 1, 0, -1638404, 65537, 0, -1572868, 131073, 0, -1507332, 1, 0, -1441796, 65537, 0, -1376260, 1, 0, -1310724, 1, 0, -1245188, 65537, 0, -1179652, 65537, 0, -1114116, 65537, 0, -1048580, 1, 0, -983044, 1, 0, -917508, 1, 0, -851972, 1, 0, -786436, 1, 0, -786435, 1, 0, -851971, 1, 0, -917507, 1, 0, -983043, 1, 0, -1048579, 1, 0, -1114115, 65537, 0, -1179651, 65537, 0, -1245187, 1, 0, -1310723, 65537, 0, -1376259, 65537, 0, -1441795, 1, 0, -1507331, 1, 0, -1572867, 1, 0, -1638403, 65537, 0, -1703939, 1, 0, -1769475, 2, 0, -1835011, 2, 0, -1900547, 131074, 0, -1966083, 131074, 0, -2031619, 65538, 0, -2097155, 65538, 0, -2162691, 2, 0, -2228227, 65538, 0, -2293763, 65538, 0, -2359299, 2, 0, -2424835, 1, 0, -2490371, 65537, 0, -2555907, 1, 0, -2621443, 1, 0, -2686979, 1, 0, -2752515, 1, 0, -2818051, 1, 0, -2883587, 1, 0, -2949123, 1, 0, -3014659, 1, 0, -3014658, 1, 0, -2949122, 1, 0, -2883586, 1, 0, -2818050, 1, 0, -2752514, 1, 0, -2686978, 1, 0, -2621442, 1, 0, -2555906, 1, 0, -2490370, 1, 0, -2424834, 131073, 0, -2359298, 2, 0, -2293762, 65538, 0, -2228226, 65538, 0, -2162690, 2, 0, -2097154, 65538, 0, -2031618, 196610, 0, -1966082, 65538, 0, -1900546, 65538, 0, -1835010, 131074, 0, -1769474, 2, 0, -1703938, 1, 0, -1638402, 196609, 0, -1572866, 65537, 0, -1507330, 65537, 0, -1441794, 1, 0, -1376258, 65537, 0, -1310722, 65537, 0, -1245186, 65537, 0, -1179650, 65537, 0, -1114114, 65537, 0, -1048578, 1, 0, -983042, 1, 0, -917506, 131073, 0, -851970, 65537, 0, -786434, 196609, 0, -786433, 1, 0, -851969, 196609, 0, -917505, 65537, 0, -983041, 65537, 0, -1048577, 1, 0, -1114113, 65537, 0, -1179649, 65537, 0, -1245185, 65537, 0, -1310721, 65537, 0, -1376257, 196609, 0, -1441793, 131073, 0, -1507329, 65537, 0, -1572865, 1, 0, -1638401, 1, 0, -1703937, 1, 0, -1769473, 2, 0, -1835009, 2, 0, -1900545, 2, 0, -1966081, 2, 0, -2031617, 65538, 0, -2097153, 131074, 0, -2162689, 2, 0, -2228225, 65538, 0, -2293761, 65538, 0, -2359297, 2, 0, -2424833, 196609, 0, -2490369, 65537, 0, -2555905, 1, 0, -2621441, 1, 0, -2686977, 1, 0, -2752513, 1, 0, -2818049, 1, 0, -2883585, 1, 0, -2949121, 1, 0, -3014657, 1, 0, -3080192, 1, 0, -3014656, 1, 0, -2949120, 1, 0, -2883584, 1, 0, -2818048, 1, 0, -2752512, 1, 0, -2686976, 1, 0, -2621440, 1, 0, -2555904, 65537, 0, -2490368, 65537, 0, -2424832, 2, 0, -2359296, 131074, 0, -2293760, 65538, 0, -2228224, 2, 0, -2162688, 65538, 0, -2097152, 2, 0, -2031616, 65538, 0, -1966080, 65538, 0, -1900544, 65538, 0, -1835008, 2, 0, -1769472, 131073, 0, -1703936, 1, 0, -1638400, 1, 0, -1572864, 65537, 0, -1507328, 65537, 0, -1441792, 1, 0, -1376256, 65537, 0, -1310720, 1, 0, -1245184, 131073, 0, -1179648, 1, 0, -1114112, 65537, 0, -1048576, 65537, 0, -983040, 131073, 0, -917504, 1, 0, -851968, 1, 0, -851967, 65537, 0, -917503, 1, 0, -983039, 1, 0, -1048575, 196609, 0, -1114111, 1, 0, -1179647, 1, 0, -1245183, 1, 0, -1310719, 1, 0, -1376255, 1, 0, -1441791, 1, 0, -1507327, 1, 0, -1572863, 1, 0, -1638399, 65537, 0, -1703935, 1, 0, -1769471, 1, 0, -1835007, 2, 0, -1900543, 2, 0, -1966079, 2, 0, -2031615, 65538, 0, -2097151, 131074, 0, -2162687, 2, 0, -2228223, 2, 0, -2293759, 2, 0, -2359295, 65538, 0, -2424831, 2, 0, -2490367, 65537, 0, -2555903, 1, 0, -2621439, 1, 0, -2686975, 1, 0, -2752511, 1, 0, -2818047, 1, 0, -2883583, 1, 0, -2949119, 1, 0, -3014655, 1, 0, -3080191, 1, 0, -3080190, 1, 0, -3014654, 1, 0, -2949118, 1, 0, -2883582, 1, 0, -2818046, 1, 0, -2752510, 1, 0, -2686974, 1, 0, -2621438, 131073, 0, -2555902, 65537, 0, -2490366, 131073, 0, -2424830, 2, 0, -2359294, 65538, 0, -2293758, 2, 0, -2228222, 196610, 0, -2162686, 2, 0, -2097150, 65538, 0, -2031614, 2, 0, -1966078, 65538, 0, -1900542, 2, 0, -1835006, 2, 0, -1769470, 131073, 0, -1703934, 1, 0, -1638398, 65537, 0, -1572862, 65537, 0, -1507326, 1, 0, -1441790, 1, 0, -1376254, 65537, 0, -1310718, 1, 0, -1245182, 65537, 0, -1179646, 1, 0, -1114110, 65537, 0, -1048574, 1, 0, -983038, 65537, 0, -917502, 65537, 0, -851966, 196609, 0, -851965, 1, 0, -917501, 65537, 0, -983037, 65537, 0, -1048573, 1, 0, -1114109, 65537, 0, -1179645, 1, 0, -1245181, 1, 0, -1310717, 1, 0, -1376253, 65537, 0, -1441789, 65537, 0, -1507325, 65537, 0, -1572861, 1, 0, -1638397, 131073, 0, -1703933, 65537, 0, -1769469, 1, 0, -1835005, 1, 0, -1900541, 2, 0, -1966077, 131074, 0, -2031613, 2, 0, -2097149, 2, 0, -2162685, 65538, 0, -2228221, 2, 0, -2293757, 131074, 0, -2359293, 65538, 0, -2424829, 65537, 0, -2490365, 65537, 0, -2555901, 1, 0, -2621437, 1, 0, -2686973, 1, 0, -2752509, 1, 0, -2818045, 1, 0, -2883581, 1, 0, -2949117, 1, 0, -3014653, 1, 0, -3080189, 1, 0, -3080188, 1, 0, -3014652, 1, 0, -2949116, 1, 0, -2883580, 1, 0, -2818044, 1, 0, -2752508, 1, 0, -2686972, 1, 0, -2621436, 65537, 0, -2555900, 1, 0, -2490364, 65537, 0, -2424828, 131073, 0, -2359292, 1, 0, -2293756, 2, 0, -2228220, 2, 0, -2162684, 2, 0, -2097148, 2, 0, -2031612, 2, 0, -1966076, 2, 0, -1900540, 1, 0, -1835004, 1, 0, -1769468, 131073, 0, -1703932, 1, 0, -1638396, 65537, 0, -1572860, 65537, 0, -1507324, 65537, 0, -1441788, 65537, 0, -1376252, 1, 0, -1310716, 65537, 0, -1245180, 1, 0, -1179644, 131073, 0, -1114108, 1, 0, -1048572, 1, 0, -983036, 1, 0, -917500, 1, 0, -851964, 65537, 0, -851963, 65537, 0, -917499, 196609, 0, -983035, 65537, 0, -1048571, 131073, 0, -1114107, 65537, 0, -1179643, 196609, 0, -1245179, 65537, 0, -1310715, 65537, 0, -1376251, 65537, 0, -1441787, 65537, 0, -1507323, 1, 0, -1572859, 1, 0, -1638395, 196609, 0, -1703931, 65537, 0, -1769467, 1, 0, -1835003, 131073, 0, -1900539, 65537, 0, -1966075, 131073, 0, -2031611, 1, 0, -2097147, 65537, 0, -2162683, 65537, 0, -2228219, 1, 0, -2293755, 1, 0, -2359291, 65537, 0, -2424827, 131073, 0, -2490363, 65537, 0, -2555899, 65537, 0, -2621435, 1, 0, -2686971, 1, 0, -2752507, 1, 0, -2818043, 1, 0, -2883579, 1, 0, -2949115, 1, 0, -3014651, 1, 0, -3080187, 1, 0, -3080186, 1, 0, -3014650, 1, 0, -2949114, 1, 0, -2883578, 1, 0, -2818042, 1, 0, -2752506, 1, 0, -2686970, 1, 0, -2621434, 1, 0, -2555898, 1, 0, -2490362, 1, 0, -2424826, 65537, 0, -2359290, 196609, 0, -2293754, 1, 0, -2228218, 196609, 0, -2162682, 1, 0, -2097146, 65537, 0, -2031610, 1, 0, -1966074, 65537, 0, -1900538, 65537, 0, -1835002, 1, 0, -1769466, 1, 0, -1703930, 65537, 0, -1638394, 196609, 0, -1572858, 131073, 0, -1507322, 196609, 0, -1441786, 1, 0, -1376250, 65537, 0, -1310714, 196609, 0, -1245178, 65537, 0, -1179642, 65537, 0, -1114106, 65537, 0, -1048570, 65537, 0, -983034, 1, 0, -917498, 65537, 0, -851962, 65537, 0, -851961, 131073, 0, -917497, 131073, 0, -983033, 65537, 0, -1048569, 1, 0, -1114105, 1, 0, -1179641, 1, 0, -1245177, 1, 0, -1310713, 196609, 0, -1376249, 131073, 0, -1441785, 196609, 0, -1507321, 65537, 0, -1572857, 65537, 0, -1638393, 1, 0, -1703929, 1, 0, -1769465, 65537, 0, -1835001, 1, 0, -1900537, 65537, 0, -1966073, 65537, 0, -2031609, 1, 0, -2097145, 131073, 0, -2162681, 65537, 0, -2228217, 196609, 0, -2293753, 65537, 0, -2359289, 1, 0, -2424825, 1, 0, -2490361, 65537, 0, -2555897, 65537, 0, -2621433, 65537, 0, -2686969, 1, 0, -2752505, 1, 0, -2818041, 1, 0, -2883577, 1, 0, -2949113, 1, 0, -3014649, 1, 0, -3080185, 1, 0, -3080184, 1, 0, -3014648, 1, 0, -2949112, 1, 0, -2883576, 1, 0, -2818040, 1, 0, -2752504, 1, 0, -2686968, 1, 0, -2621432, 131073, 0, -2555896, 65537, 0, -2490360, 1, 0, -2424824, 1, 0, -2359288, 65537, 0, -2293752, 1, 0, -2228216, 65537, 0, -2162680, 1, 0, -2097144, 65537, 0, -2031608, 1, 0, -1966072, 1, 0, -1900536, 65537, 0, -1835000, 1, 0, -1769464, 1, 0, -1703928, 196609, 0, -1638392, 1, 0, -1572856, 1, 0, -1507320, 65537, 0, -1441784, 1, 0, -1376248, 1, 0, -1310712, 1, 0, -1245176, 131073, 0, -1179640, 65537, 0, -1114104, 1, 0, -1048568, 65537, 0, -983032, 65537, 0, -917496, 1, 0, -851960, 65537, 0, -786424, 65537, 0, -786425, 65537, 0, -720888, 65537, 0, -720887, 1, 0, -786423, 196609, 0, -851959, 65537, 0, -917495, 65537, 0, -983031, 1, 0, -1048567, 131073, 0, -1114103, 131073, 0, -1179639, 1, 0, -1245175, 1, 0, -1310711, 131073, 0, -1376247, 1, 0, -1441783, 65537, 0, -1507319, 65537, 0, -1572855, 65537, 0, -1638391, 196609, 0, -1703927, 65537, 0, -1769463, 65537, 0, -1834999, 196609, 0, -1900535, 1, 0, -1966071, 131073, 0, -2031607, 65537, 0, -2097143, 1, 0, -2162679, 1, 0, -2228215, 1, 0, -2293751, 1, 0, -2359287, 65537, 0, -2424823, 65537, 0, -2490359, 196609, 0, -2555895, 65537, 0, -2621431, 1, 0, -2686967, 1, 0, -2752503, 1, 0, -2818039, 1, 0, -2883575, 1, 0, -2949111, 1, 0, -3014647, 1, 0, -3080183, 1, 0, -3080182, 1, 0, -3014646, 1, 0, -2949110, 1, 0, -2883574, 1, 0, -2818038, 1, 0, -2752502, 1, 0, -2686966, 65537, 0, -2621430, 65537, 0, -2555894, 1, 0, -2490358, 131073, 0, -2424822, 131073, 0, -2359286, 65537, 0, -2293750, 196609, 0, -2228214, 196609, 0, -2162678, 1, 0, -2097142, 1, 0, -2031606, 1, 0, -1966070, 65537, 0, -1900534, 65537, 0, -1834998, 196609, 0, -1769462, 1, 0, -1703926, 196609, 0, -1638390, 196609, 0, -1572854, 1, 0, -1507318, 1, 0, -1441782, 65537, 0, -1376246, 1, 0, -1310710, 1, 0, -1245174, 196609, 0, -1179638, 65537, 0, -1114102, 1, 0, -1048566, 65537, 0, -983030, 1, 0, -917494, 65537, 0, -851958, 131073, 0, -786422, 65537, 0, -720886, 1, 0, -655350, 1, 0, -655351, 1, 0, -589814, 1, 0, -589813, 1, 0, -655349, 65537, 0, -720885, 1, 0, -786421, 196609, 0, -851957, 65537, 0, -917493, 1, 0, -983029, 65537, 0, -1048565, 1, 0, -1114101, 65537, 0, -1179637, 1, 0, -1245173, 131073, 0, -1310709, 1, 0, -1376245, 1, 0, -1441781, 1, 0, -1507317, 65537, 0, -1572853, 1, 0, -1638389, 131073, 0, -1703925, 1, 0, -1769461, 1, 0, -1834997, 65537, 0, -1900533, 131073, 0, -1966069, 196609, 0, -2031605, 65537, 0, -2097141, 65537, 0, -2162677, 196609, 0, -2228213, 65537, 0, -2293749, 1, 0, -2359285, 1, 0, -2424821, 131073, 0, -2490357, 196609, 0, -2555893, 65537, 0, -2621429, 65537, 0, -2686965, 196609, 0, -2752501, 1, 0, -2818037, 1, 0, -2883573, 1, 0, -2949109, 1, 0, -3014645, 1, 0, -3080181, 1, 0, -524277, 65537, 0, -3145715, 1, 0, -3080179, 1, 0, -3014643, 1, 0, -2949107, 2, 0, -2883571, 2, 0, -2818035, 1, 0, -2752499, 1, 0, -2686963, 65537, 0, -2621427, 65537, 0, -2555891, 65537, 0, -2490355, 65537, 0, -2424819, 65537, 0, -2359283, 65537, 0, -2293747, 1, 0, -2228211, 131073, 0, -2162675, 1, 0, -2097139, 65537, 0, -2031603, 65537, 0, -1966067, 65537, 0, -1900531, 65537, 0, -1834995, 65537, 0, -1769459, 1, 0, -1703923, 1, 0, -1638387, 65537, 0, -1572851, 65537, 0, -1507315, 65537, 0, -1441779, 1, 0, -1376243, 1, 0, -1310707, 1, 0, -1245171, 65537, 0, -1179635, 1, 0, -1114099, 65537, 0, -1048563, 1, 0, -983027, 65537, 0, -917491, 65537, 0, -851955, 1, 0, -786419, 65537, 0, -720883, 1, 0, -655347, 1, 0, -589811, 1, 0, -524275, 65537, 0, -458739, 131073, 0, -393203, 65537, 0, -327667, 65537, 0, -262131, 1, 0, -196595, 196609, 0, -131059, 131073, 0, -65523, 65537, 0, 13, 196609, 0, 65549, 131073, 0, 131085, 65537, 0, 196621, 65537, 0, 262157, 131073, 0, 327693, 1, 0, 393229, 65537, 0, 458765, 196609, 0, 524301, 1, 0, 524300, 1, 0, 589836, 1, 0, 589835, 1, 0, 655371, 1, 0, 655370, 1, 0, 720906, 1, 0, 720905, 1, 0, 786441, 1, 0, 786440, 1, 0, 851976, 1, 0, 851975, 1, 0, 917511, 1, 0, 983047, 1, 0, 1048583, 1, 0, 1048584, 1, 0, 983048, 1, 0, 917512, 1, 0, 917513, 1, 0, 851977, 1, 0, 851978, 1, 0, 786442, 1, 0, 786443, 1, 0, 720907, 1, 0, 720908, 1, 0, 655372, 1, 0, 655373, 1, 0, 589837, 1, 0, 589838, 1, 0, 524302, 1, 0, 458766, 1, 0, 393230, 1, 0, 327694, 65537, 0, 262158, 1, 0, 196622, 131073, 0, 131086, 65537, 0, 65550, 131073, 0, 14, 65537, 0, -65522, 65537, 0, -131058, 65537, 0, -196594, 1, 0, -262130, 65537, 0, -327666, 1, 0, -393202, 65537, 0, -458738, 65537, 0, -524274, 65537, 0, -589810, 65537, 0, -655346, 1, 0, -720882, 1, 0, -786418, 65537, 0, -851954, 131073, 0, -917490, 1, 0, -983026, 65537, 0, -1048562, 1, 0, -1114098, 65537, 0, -1179634, 65537, 0, -1245170, 1, 0, -1310706, 65537, 0, -1376242, 196609, 0, -1441778, 1, 0, -1507314, 1, 0, -1572850, 1, 0, -1638386, 65537, 0, -1703922, 131073, 0, -1769458, 65537, 0, -1834994, 1, 0, -1900530, 1, 0, -1966066, 65537, 0, -2031602, 65537, 0, -2097138, 65537, 0, -2162674, 65537, 0, -2228210, 1, 0, -2293746, 1, 0, -2359282, 131073, 0, -2424818, 65537, 0, -2490354, 65537, 0, -2555890, 65537, 0, -2621426, 1, 0, -2686962, 65537, 0, -2752498, 1, 0, -2818034, 2, 0, -2883570, 2, 0, -2949106, 2, 0, -3014642, 2, 0, -3080178, 1, 0, -3145714, 1, 0, 393231, 65537, 0, 458767, 1, 0, 524303, 65537, 0, 589839, 1, 0, 655375, 1, 0, 655374, 1, 0, 720910, 1, 0, 720909, 1, 0, 786445, 1, 0, 786444, 1, 0, 851980, 1, 0, 851979, 1, 0, 917515, 1, 0, 917514, 1, 0, 983050, 1, 0, 983049, 1, 0, 1048585, 1, 0, 1048586, 1, 0, 1048587, 1, 0, 983051, 1, 0, 983052, 1, 0, 917516, 1, 0, 917517, 1, 0, 851981, 1, 0, 851982, 1, 0, 786446, 1, 0, 786447, 1, 0, 720911, 1, 0, 720912, 65537, 0, 655376, 65537, 0, 589840, 65537, 0, 524304, 65537, 0, 458768, 196609, 0, 393232, 196609, 0, 327696, 65537, 0, 262160, 65537, 0, 196624, 196609, 0, 131088, 65537, 0, 65552, 1, 0, 16, 65537, 0, -65520, 1, 0, -131056, 1, 0, -196592, 65537, 0, -262128, 196609, 0, -327664, 1, 0, -393200, 1, 0, -458736, 1, 0, -524272, 65537, 0, -589808, 131073, 0, -655344, 65537, 0, -720880, 196609, 0, -786416, 131073, 0, -851952, 1, 0, -917488, 65537, 0, -983024, 65537, 0, -1048560, 131073, 0, -1114096, 1, 0, -1179632, 65537, 0, -1245168, 65537, 0, -1310704, 65537, 0, -1376240, 65537, 0, -1441776, 65537, 0, -1507312, 131073, 0, -1572848, 1, 0, -1638384, 1, 0, -1703920, 65537, 0, -1769456, 1, 0, -1834992, 1, 0, -1900528, 65537, 0, -1966064, 1, 0, -2031600, 65537, 0, -2097136, 196609, 0, -2162672, 1, 0, -2228208, 65537, 0, -2293744, 131073, 0, -2359280, 65537, 0, -2424816, 1, 0, -2490352, 65537, 0, -2555888, 65537, 0, -2621424, 65537, 0, -2686960, 65537, 0, -2752496, 2, 0, -2818032, 2, 0, -2883568, 65538, 0, -2949104, 65538, 0, -3014640, 2, 0, -3080176, 1, 0, -3145712, 1, 0, -3211248, 1, 0, -3211247, 1, 0, -3145711, 1, 0, -3080175, 1, 0, -3014639, 2, 0, -2949103, 2, 0, -2883567, 2, 0, -2818031, 2, 0, -2752495, 1, 0, -2686959, 1, 0, -2621423, 1, 0, -2555887, 1, 0, -2490351, 65537, 0, -2424815, 1, 0, -2359279, 1, 0, -2293743, 1, 0, -2228207, 65537, 0, -2162671, 1, 0, -2097135, 65537, 0, -2031599, 65537, 0, -1966063, 65537, 0, -1900527, 65537, 0, -1834991, 1, 0, -1769455, 196609, 0, -1703919, 65537, 0, -1638383, 1, 0, -1572847, 1, 0, -1507311, 65537, 0, -1441775, 1, 0, -1376239, 65537, 0, -1310703, 131073, 0, -1245167, 1, 0, -1179631, 1, 0, -1114095, 65537, 0, -1048559, 1, 0, -983023, 65537, 0, -917487, 196609, 0, -851951, 65537, 0, -786415, 196609, 0, -720879, 1, 0, -655343, 1, 0, -589807, 1, 0, -524271, 1, 0, -458735, 1, 0, -393199, 65537, 0, -327663, 1, 0, -262127, 1, 0, -196591, 65537, 0, -131055, 131073, 0, -65519, 65537, 0, 17, 131073, 0, 65553, 65537, 0, 131089, 65537, 0, 196625, 65537, 0, 262161, 1, 0, 327697, 65537, 0, 393233, 1, 0, 458769, 65537, 0, 524305, 1, 0, 589841, 65537, 0, 655377, 1, 0, 720913, 65537, 0, 786449, 65537, 0, 786448, 1, 0, 851984, 1, 0, 851983, 65537, 0, 917519, 65537, 0, 917518, 1, 0, 983054, 1, 0, 983053, 1, 0, 1048589, 1, 0, 1048588, 1, 0, 1048590, 1, 0, 1048591, 65537, 0, 983055, 1, 0, 983056, 1, 0, 917520, 1, 0, 917521, 65537, 0, 851985, 65537, 0, 851986, 65537, 0, 786450, 65537, 0, 720914, 131073, 0, 655378, 1, 0, 589842, 1, 0, 524306, 1, 0, 458770, 196609, 0, 393234, 65537, 0, 327698, 65537, 0, 262162, 65537, 0, 196626, 1, 0, 131090, 131073, 0, 65554, 131073, 0, 18, 65537, 0, -65518, 65537, 0, -131054, 65537, 0, -196590, 65537, 0, -262126, 1, 0, -327662, 1, 0, -393198, 65537, 0, -458734, 1, 0, -524270, 1, 0, -589806, 1, 0, -655342, 65537, 0, -720878, 131073, 0, -786414, 131073, 0, -851950, 65537, 0, -917486, 65537, 0, -983022, 131073, 0, -1048558, 1, 0, -1114094, 65537, 0, -1179630, 131073, 0, -1245166, 65537, 0, -1310702, 1, 0, -1376238, 1, 0, -1441774, 1, 0, -1507310, 131073, 0, -1572846, 1, 0, -1638382, 65537, 0, -1703918, 1, 0, -1769454, 196609, 0, -1834990, 65537, 0, -1900526, 1, 0, -1966062, 65537, 0, -2031598, 65537, 0, -2097134, 196609, 0, -2162670, 65537, 0, -2228206, 196609, 0, -2293742, 131073, 0, -2359278, 65537, 0, -2424814, 65537, 0, -2490350, 1, 0, -2555886, 65537, 0, -2621422, 1, 0, -2686958, 65537, 0, -2752494, 1, 0, -2818030, 1, 0, -2883566, 2, 0, -2949102, 2, 0, -3014638, 1, 0, -3080174, 1, 0, -3145710, 1, 0, -3211246, 1, 0, -3211245, 1, 0, -3145709, 1, 0, -3080173, 1, 0, -3014637, 1, 0, -2949101, 1, 0, -2883565, 1, 0, -2818029, 1, 0, -2752493, 1, 0, -2686957, 65537, 0, -2621421, 1, 0, -2555885, 65537, 0, -2490349, 65537, 0, -2424813, 1, 0, -2359277, 65537, 0, -2293741, 65537, 0, -2228205, 1, 0, -2162669, 1, 0, -2097133, 131073, 0, -2031597, 65537, 0, -1966061, 65537, 0, -1900525, 1, 0, -1834989, 131073, 0, -1769453, 65537, 0, -1703917, 131073, 0, -1638381, 65537, 0, -1572845, 1, 0, -1507309, 1, 0, -1441773, 1, 0, -1376237, 65537, 0, -1310701, 131073, 0, -1245165, 65537, 0, -1179629, 1, 0, -1114093, 65537, 0, -1048557, 1, 0, -983021, 65537, 0, -917485, 1, 0, -851949, 65537, 0, -786413, 131073, 0, -720877, 131073, 0, -655341, 65537, 0, -589805, 65537, 0, -524269, 65537, 0, -458733, 1, 0, -393197, 65537, 0, -327661, 65537, 0, -262125, 65537, 0, -196589, 1, 0, -131053, 1, 0, -65517, 65537, 0, 19, 1, 0, 65555, 196609, 0, 131091, 65537, 0, 196627, 65537, 0, 262163, 196609, 0, 327699, 131073, 0, 393235, 131073, 0, 458771, 65537, 0, 524307, 1, 0, 589843, 1, 0, 655379, 131073, 0, 720915, 65537, 0, 786451, 1, 0, 851987, 1, 0, 917523, 65537, 0, 917522, 196609, 0, 983058, 65537, 0, 983057, 196609, 0, 1048593, 1, 0, 1048592, 1, 0, 1048594, 1, 0, 1048595, 1, 0, 983059, 65537, 0, 983060, 1, 0, 917524, 65537, 0, 851988, 65537, 0, 786452, 1, 0, 720916, 1, 0, 655380, 1, 0, 589844, 65537, 0, 524308, 65537, 0, 458772, 1, 0, 393236, 1, 0, 327700, 65537, 0, 262164, 196609, 0, 196628, 196609, 0, 131092, 1, 0, 65556, 65537, 0, 20, 196609, 0, -65516, 65537, 0, -131052, 1, 0, -196588, 1, 0, -262124, 196609, 0, -327660, 196609, 0, -393196, 1, 0, -458732, 131073, 0, -524268, 65537, 0, -589804, 1, 0, -655340, 65537, 0, -720876, 65537, 0, -786412, 196609, 0, -851948, 1, 0, -917484, 1, 0, -983020, 131073, 0, -1048556, 1, 0, -1114092, 65537, 0, -1179628, 1, 0, -1245164, 131073, 0, -1310700, 65537, 0, -1376236, 1, 0, -1441772, 65537, 0, -1507308, 131073, 0, -1572844, 1, 0, -1638380, 1, 0, -1703916, 65537, 0, -1769452, 131073, 0, -1834988, 1, 0, -1900524, 65537, 0, -1966060, 65537, 0, -2031596, 1, 0, -2097132, 65537, 0, -2162668, 131073, 0, -2228204, 65537, 0, -2293740, 65537, 0, -2359276, 1, 0, -2424812, 1, 0, -2490348, 1, 0, -2555884, 65537, 0, -2621420, 65537, 0, -2686956, 1, 0, -2752492, 1, 0, -2818028, 1, 0, -2883564, 1, 0, -2949100, 1, 0, -3014636, 1, 0, -3080172, 1, 0, -3145708, 1, 0, -3211244, 1, 0, -3211243, 1, 0, -3145707, 1, 0, -3080171, 1, 0, -3014635, 1, 0, -2949099, 1, 0, -2883563, 1, 0, -2818027, 1, 0, -2752491, 1, 0, -2686955, 131073, 0, -2621419, 1, 0, -2555883, 1, 0, -2490347, 65537, 0, -2424811, 1, 0, -2359275, 1, 0, -2293739, 131073, 0, -2228203, 65537, 0, -2162667, 1, 0, -2097131, 196609, 0, -2031595, 1, 0, -1966059, 1, 0, -1900523, 131073, 0, -1834987, 65537, 0, -1769451, 65537, 0, -1703915, 1, 0, -1638379, 196609, 0, -1572843, 1, 0, -1507307, 131073, 0, -1441771, 65537, 0, -1376235, 1, 0, -1310699, 1, 0, -1245163, 65537, 0, -1179627, 1, 0, -1114091, 1, 0, -1048555, 65537, 0, -983019, 65537, 0, -917483, 1, 0, -851947, 1, 0, -786411, 1, 0, -720875, 65537, 0, -655339, 1, 0, -589803, 65537, 0, -524267, 65537, 0, -458731, 1, 0, -393195, 65537, 0, -327659, 1, 0, -262123, 65537, 0, -196587, 131073, 0, -131051, 131073, 0, -65515, 1, 0, 21, 1, 0, 65557, 131073, 0, 131093, 1, 0, 196629, 1, 0, 262165, 1, 0, 327701, 196609, 0, 393237, 1, 0, 458773, 65537, 0, 524309, 65537, 0, 589845, 65537, 0, 655381, 65537, 0, 720917, 1, 0, 786453, 1, 0, 851989, 1, 0, 917525, 65537, 0, 983061, 65537, 0, 1048597, 65537, 0, 1048596, 1, 0, 1048598, 131073, 0, 983062, 196609, 0, 917526, 1, 0, 851990, 65537, 0, 786454, 1, 0, 720918, 65537, 0, 655382, 1, 0, 589846, 1, 0, 524310, 196609, 0, 458774, 65537, 0, 393238, 1, 0, 327702, 65537, 0, 262166, 1, 0, 196630, 196609, 0, 131094, 1, 0, 65558, 1, 0, 22, 65537, 0, -65514, 1, 0, -131050, 1, 0, -196586, 1, 0, -262122, 65537, 0, -327658, 1, 0, -393194, 1, 0, -458730, 65537, 0, -524266, 131073, 0, -589802, 65537, 0, -655338, 131073, 0, -720874, 1, 0, -786410, 65537, 0, -851946, 196609, 0, -917482, 131073, 0, -983018, 1, 0, -1048554, 65537, 0, -1114090, 65537, 0, -1179626, 65537, 0, -1245162, 65537, 0, -1310698, 1, 0, -1376234, 1, 0, -1441770, 1, 0, -1507306, 1, 0, -1572842, 131073, 0, -1638378, 1, 0, -1703914, 65537, 0, -1769450, 1, 0, -1834986, 65537, 0, -1900522, 65537, 0, -1966058, 1, 0, -2031594, 65537, 0, -2097130, 65537, 0, -2162666, 1, 0, -2228202, 65537, 0, -2293738, 1, 0, -2359274, 65537, 0, -2424810, 1, 0, -2490346, 65537, 0, -2555882, 1, 0, -2621418, 65537, 0, -2686954, 65537, 0, -2752490, 1, 0, -2818026, 1, 0, -2883562, 1, 0, -2949098, 1, 0, -3014634, 1, 0, -3080170, 1, 0, -3145706, 1, 0, -3211242, 1, 0, -3211241, 1, 0, -3145705, 1, 0, -3080169, 1, 0, -3014633, 1, 0, -2949097, 1, 0, -2883561, 1, 0, -2818025, 1, 0, -2752489, 1, 0, -2686953, 1, 0, -2621417, 65537, 0, -2555881, 65537, 0, -2490345, 1, 0, -2424809, 1, 0, -2359273, 1, 0, -2293737, 1, 0, -2228201, 1, 0, -2162665, 1, 0, -2097129, 1, 0, -2031593, 196609, 0, -1966057, 65537, 0, -1900521, 65537, 0, -1834985, 196609, 0, -1769449, 1, 0, -1703913, 1, 0, -1638377, 65537, 0, -1572841, 1, 0, -1507305, 1, 0, -1441769, 65537, 0, -1376233, 1, 0, -1310697, 1, 0, -1245161, 65537, 0, -1179625, 65537, 0, -1114089, 65537, 0, -1048553, 65537, 0, -983017, 65537, 0, -917481, 65537, 0, -851945, 65537, 0, -786409, 65537, 0, -720873, 65537, 0, -655337, 131073, 0, -589801, 1, 0, -524265, 65537, 0, -458729, 65537, 0, -393193, 1, 0, -327657, 1, 0, -262121, 65537, 0, -196585, 196609, 0, -131049, 131073, 0, -65513, 65537, 0, 23, 1, 0, 65559, 1, 0, 131095, 65537, 0, 196631, 1, 0, 262167, 196609, 0, 327703, 1, 0, 393239, 1, 0, 458775, 65537, 0, 524311, 65537, 0, 589847, 1, 0, 655383, 1, 0, 720919, 1, 0, 786455, 65537, 0, 851991, 1, 0, 917527, 65537, 0, 983063, 1, 0, 1048599, 65537, 0, 1048600, 1, 0, 983064, 1, 0, 917528, 1, 0, 851992, 1, 0, 786456, 65537, 0, 720920, 1, 0, 655384, 1, 0, 589848, 1, 0, 524312, 65537, 0, 458776, 131073, 0, 393240, 1, 0, 327704, 131073, 0, 262168, 1, 0, 196632, 65537, 0, 131096, 65537, 0, 65560, 131073, 0, 24, 65537, 0, -65512, 1, 0, -131048, 196609, 0, -196584, 65537, 0, -262120, 65537, 0, -327656, 65537, 0, -393192, 65537, 0, -458728, 65537, 0, -524264, 65537, 0, -589800, 131073, 0, -655336, 65537, 0, -720872, 65537, 0, -786408, 1, 0, -851944, 1, 0, -917480, 196609, 0, -983016, 196609, 0, -1048552, 65537, 0, -1114088, 65537, 0, -1179624, 65537, 0, -1245160, 1, 0, -1310696, 1, 0, -1376232, 65537, 0, -1441768, 65537, 0, -1507304, 65537, 0, -1572840, 65537, 0, -1638376, 1, 0, -1703912, 65537, 0, -1769448, 131073, 0, -1834984, 65537, 0, -1900520, 1, 0, -1966056, 65537, 0, -2031592, 1, 0, -2097128, 65537, 0, -2162664, 65537, 0, -2228200, 131073, 0, -2293736, 65537, 0, -2359272, 65537, 0, -2424808, 131073, 0, -2490344, 65537, 0, -2555880, 1, 0, -2621416, 1, 0, -2686952, 196609, 0, -2752488, 1, 0, -2818024, 1, 0, -2883560, 1, 0, -2949096, 1, 0, -3014632, 1, 0, -3080168, 1, 0, -3145704, 1, 0, -3211240, 1, 0, -3211239, 1, 0, -3145703, 1, 0, -3080167, 1, 0, -3014631, 1, 0, -2949095, 1, 0, -2883559, 1, 0, -2818023, 1, 0, -2752487, 1, 0, -2686951, 1, 0, -2621415, 1, 0, -2555879, 65537, 0, -2490343, 1, 0, -2424807, 1, 0, -2359271, 65537, 0, -2293735, 65537, 0, -2228199, 1, 0, -2162663, 65537, 0, -2097127, 65537, 0, -2031591, 1, 0, -1966055, 1, 0, -1900519, 1, 0, -1834983, 131073, 0, -1769447, 65537, 0, -1703911, 1, 0, -1638375, 65537, 0, -1572839, 65537, 0, -1507303, 1, 0, -1441767, 65537, 0, -1376231, 1, 0, -1310695, 65537, 0, -1245159, 65537, 0, -1179623, 65537, 0, -1114087, 65537, 0, -1048551, 1, 0, -983015, 1, 0, -917479, 65537, 0, -851943, 1, 0, -786407, 65537, 0, -720871, 131073, 0, -655335, 196609, 0, -589799, 1, 0, -524263, 65537, 0, -458727, 1, 0, -393191, 65537, 0, -327655, 65537, 0, -262119, 65537, 0, -196583, 1, 0, -131047, 131073, 0, -65511, 65537, 0, 25, 1, 0, 65561, 65537, 0, 131097, 65537, 0, 196633, 65537, 0, 262169, 1, 0, 327705, 65537, 0, 393241, 196609, 0, 458777, 65537, 0, 524313, 1, 0, 589849, 1, 0, 655385, 1, 0, 720921, 1, 0, 786457, 1, 0, 851993, 65537, 0, 917529, 65537, 0, 983065, 196609, 0, 1048601, 1, 0, 1048602, 65537, 0, 983066, 1, 0, 917530, 1, 0, 851994, 65537, 0, 786458, 65537, 0, 720922, 131073, 0, 655386, 1, 0, 589850, 1, 0, 524314, 65537, 0, 458778, 1, 0, 393242, 65537, 0, 327706, 196609, 0, 262170, 65537, 0, 196634, 1, 0, 131098, 1, 0, 65562, 1, 0, 26, 1, 0, -65510, 1, 0, -131046, 1, 0, -196582, 65537, 0, -262118, 65537, 0, -327654, 65537, 0, -393190, 131073, 0, -458726, 1, 0, -524262, 1, 0, -589798, 1, 0, -655334, 65537, 0, -720870, 196609, 0, -786406, 1, 0, -851942, 65537, 0, -917478, 1, 0, -983014, 1, 0, -1048550, 1, 0, -1114086, 65537, 0, -1179622, 65537, 0, -1245158, 1, 0, -1310694, 1, 0, -1376230, 131073, 0, -1441766, 1, 0, -1507302, 65537, 0, -1572838, 1, 0, -1638374, 65537, 0, -1703910, 65537, 0, -1769446, 65537, 0, -1834982, 1, 0, -1900518, 1, 0, -1966054, 65537, 0, -2031590, 65537, 0, -2097126, 65537, 0, -2162662, 65537, 0, -2228198, 65537, 0, -2293734, 131073, 0, -2359270, 65537, 0, -2424806, 131073, 0, -2490342, 1, 0, -2555878, 196609, 0, -2621414, 1, 0, -2686950, 1, 0, -2752486, 1, 0, -2818022, 1, 0, -2883558, 1, 0, -2949094, 1, 0, -3014630, 1, 0, -3080166, 1, 0, -3145702, 1, 0, -3211238, 1, 0, -3211237, 1, 0, -3145701, 1, 0, -3080165, 1, 0, -3014629, 1, 0, -2949093, 1, 0, -2883557, 1, 0, -2818021, 1, 0, -2752485, 1, 0, -2686949, 1, 0, -2621413, 131073, 0, -2555877, 65537, 0, -2490341, 131073, 0, -2424805, 196609, 0, -2359269, 65537, 0, -2293733, 2, 0, -2228197, 2, 0, -2162661, 2, 0, -2097125, 2, 0, -2031589, 2, 0, -1966053, 2, 0, -1900517, 65537, 0, -1834981, 1, 0, -1769445, 196609, 0, -1703909, 131073, 0, -1638373, 131073, 0, -1572837, 65537, 0, -1507301, 65537, 0, -1441765, 1, 0, -1376229, 196609, 0, -1310693, 131073, 0, -1245157, 65537, 0, -1179621, 65537, 0, -1114085, 1, 0, -1048549, 1, 0, -983013, 1, 0, -917477, 1, 0, -851941, 65537, 0, -786405, 65537, 0, -720869, 1, 0, -655333, 1, 0, -589797, 65537, 0, -524261, 196609, 0, -458725, 196609, 0, -393189, 1, 0, -327653, 1, 0, -262117, 196609, 0, -196581, 2, 0, -131045, 2, 0, -65509, 2, 0, 27, 2, 0, 65563, 2, 0, 131099, 2, 0, 196635, 65537, 0, 262171, 1, 0, 327707, 1, 0, 393243, 65537, 0, 458779, 65537, 0, 524315, 1, 0, 589851, 1, 0, 655387, 1, 0, 720923, 1, 0, 786459, 1, 0, 851995, 1, 0, 917531, 1, 0, 983067, 1, 0, 1048603, 65537, 0, 1048604, 65537, 0, 983068, 65537, 0, 917532, 1, 0, 851996, 65537, 0, 786460, 1, 0, 720924, 131073, 0, 655388, 1, 0, 589852, 1, 0, 524316, 131073, 0, 458780, 65537, 0, 393244, 65537, 0, 327708, 1, 0, 262172, 1, 0, 196636, 65538, 0, 131100, 2, 0, 65564, 196610, 0, 28, 65538, 0, -65508, 2, 0, -131044, 2, 0, -196580, 2, 0, -262116, 2, 0, -327652, 65537, 0, -393188, 1, 0, -458724, 131073, 0, -524260, 65537, 0, -589796, 65537, 0, -655332, 65537, 0, -720868, 65537, 0, -786404, 1, 0, -851940, 1, 0, -917476, 1, 0, -983012, 1, 0, -1048548, 1, 0, -1114084, 196609, 0, -1179620, 1, 0, -1245156, 1, 0, -1310692, 65537, 0, -1376228, 65537, 0, -1441764, 65537, 0, -1507300, 1, 0, -1572836, 65537, 0, -1638372, 1, 0, -1703908, 65537, 0, -1769444, 1, 0, -1834980, 65537, 0, -1900516, 131074, 0, -1966052, 2, 0, -2031588, 65538, 0, -2097124, 2, 0, -2162660, 131074, 0, -2228196, 65538, 0, -2293732, 2, 0, -2359268, 65538, 0, -2424804, 65537, 0, -2490340, 65537, 0, -2555876, 1, 0, -2621412, 65537, 0, -2686948, 1, 0, -2752484, 1, 0, -2818020, 1, 0, -2883556, 1, 0, -2949092, 1, 0, -3014628, 1, 0, -3080164, 1, 0, -3145700, 1, 0, -3211236, 1, 0, -3211235, 1, 0, -3145699, 1, 0, -3080163, 1, 0, -3014627, 1, 0, -2949091, 1, 0, -2883555, 1, 0, -2818019, 1, 0, -2752483, 1, 0, -2686947, 1, 0, -2621411, 1, 0, -2555875, 131073, 0, -2490339, 1, 0, -2424803, 2, 0, -2359267, 131074, 0, -2293731, 65538, 0, -2228195, 2, 0, -2162659, 131074, 0, -2097123, 2, 0, -2031587, 2, 0, -1966051, 2, 0, -1900515, 65538, 0, -1834979, 2, 0, -1769443, 65537, 0, -1703907, 65537, 0, -1638371, 1, 0, -1572835, 65537, 0, -1507299, 1, 0, -1441763, 1, 0, -1376227, 1, 0, -1310691, 65537, 0, -1245155, 1, 0, -1179619, 131073, 0, -1114083, 1, 0, -1048547, 1, 0, -983011, 1, 0, -917475, 65537, 0, -851939, 131073, 0, -786403, 65537, 0, -720867, 1, 0, -655331, 131073, 0, -589795, 1, 0, -524259, 65537, 0, -458723, 65537, 0, -393187, 1, 0, -327651, 2, 0, -262115, 2, 0, -196579, 65538, 0, -131043, 196610, 0, -65507, 131074, 0, 29, 65538, 0, 65565, 2, 0, 131101, 2, 0, 196637, 2, 0, 262173, 2, 0, 327709, 65537, 0, 393245, 1, 0, 458781, 65537, 0, 524317, 1, 0, 589853, 1, 0, 655389, 1, 0, 720925, 65537, 0, 786461, 65537, 0, 851997, 1, 0, 917533, 1, 0, 983069, 65537, 0, 1048605, 131073, 0, 1048606, 65537, 0, 983070, 65537, 0, 917534, 1, 0, 851998, 1, 0, 786462, 65537, 0, 720926, 65537, 0, 655390, 196609, 0, 589854, 65537, 0, 524318, 1, 0, 458782, 196609, 0, 393246, 1, 0, 327710, 1, 0, 262174, 2, 0, 196638, 131074, 0, 131102, 65538, 0, 65566, 2, 0, 30, 196610, 0, -65506, 65538, 0, -131042, 65538, 0, -196578, 2, 0, -262114, 2, 0, -327650, 2, 0, -393186, 65537, 0, -458722, 65537, 0, -524258, 1, 0, -589794, 196609, 0, -655330, 65537, 0, -720866, 1, 0, -786402, 1, 0, -851938, 65537, 0, -917474, 1, 0, -983010, 1, 0, -1048546, 1, 0, -1114082, 65537, 0, -1179618, 65537, 0, -1245154, 65537, 0, -1310690, 65537, 0, -1376226, 65537, 0, -1441762, 1, 0, -1507298, 1, 0, -1572834, 131073, 0, -1638370, 65537, 0, -1703906, 65537, 0, -1769442, 1, 0, -1834978, 2, 0, -1900514, 2, 0, -1966050, 65538, 0, -2031586, 65538, 0, -2097122, 65538, 0, -2162658, 65538, 0, -2228194, 196610, 0, -2293730, 196610, 0, -2359266, 2, 0, -2424802, 2, 0, -2490338, 1, 0, -2555874, 65537, 0, -2621410, 65537, 0, -2686946, 1, 0, -2752482, 1, 0, -2818018, 1, 0, -2883554, 1, 0, -2949090, 1, 0, -3014626, 1, 0, -3080162, 1, 0, -3145698, 1, 0, -3211234, 1, 0, -3211233, 1, 0, -3145697, 1, 0, -3080161, 1, 0, -3014625, 1, 0, -2949089, 1, 0, -2883553, 1, 0, -2818017, 1, 0, -2752481, 1, 0, -2686945, 1, 0, -2621409, 65537, 0, -2555873, 1, 0, -2490337, 65537, 0, -2424801, 2, 0, -2359265, 65538, 0, -2293729, 2, 0, -2228193, 196610, 0, -2162657, 2, 0, -2097121, 65538, 0, -2031585, 2, 0, -1966049, 65538, 0, -1900513, 65538, 0, -1834977, 2, 0, -1769441, 65537, 0, -1703905, 65537, 0, -1638369, 1, 0, -1572833, 65537, 0, -1507297, 1, 0, -1441761, 65537, 0, -1376225, 1, 0, -1310689, 65537, 0, -1245153, 1, 0, -1179617, 65537, 0, -1114081, 65537, 0, -1048545, 1, 0, -983009, 1, 0, -917473, 65537, 0, -851937, 1, 0, -786401, 65537, 0, -720865, 1, 0, -655329, 65537, 0, -589793, 131073, 0, -524257, 1, 0, -458721, 65537, 0, -393185, 1, 0, -327649, 2, 0, -262113, 65538, 0, -196577, 2, 0, -131041, 2, 0, -65505, 65538, 0, 31, 65538, 0, 65567, 65538, 0, 131103, 2, 0, 196639, 65538, 0, 262175, 2, 0, 327711, 65537, 0, 393247, 131073, 0, 458783, 65537, 0, 524319, 1, 0, 589855, 1, 0, 655391, 1, 0, 720927, 65537, 0, 786463, 1, 0, 851999, 65537, 0, 917535, 65537, 0, 983071, 65537, 0, 1048607, 1, 0, 1048608, 1, 0, 983072, 65537, 0, 917536, 1, 0, 852000, 196609, 0, 786464, 196609, 0, 720928, 65537, 0, 655392, 65537, 0, 589856, 1, 0, 524320, 1, 0, 458784, 65537, 0, 393248, 65537, 0, 327712, 1, 0, 262176, 2, 0, 196640, 131074, 0, 131104, 65538, 0, 65568, 2, 0, 32, 65538, 0, -65504, 65538, 0, -131040, 2, 0, -196576, 65538, 0, -262112, 131074, 0, -327648, 2, 0, -393184, 1, 0, -458720, 65537, 0, -524256, 1, 0, -589792, 65537, 0, -655328, 1, 0, -720864, 1, 0, -786400, 1, 0, -851936, 1, 0, -917472, 1, 0, -983008, 1, 0, -1048544, 1, 0, -1114080, 196609, 0, -1179616, 1, 0, -1245152, 131073, 0, -1310688, 1, 0, -1376224, 65537, 0, -1441760, 1, 0, -1507296, 131073, 0, -1572832, 1, 0, -1638368, 196609, 0, -1703904, 1, 0, -1769440, 65537, 0, -1834976, 2, 0, -1900512, 65538, 0, -1966048, 65538, 0, -2031584, 196610, 0, -2097120, 2, 0, -2162656, 2, 0, -2228192, 65538, 0, -2293728, 196610, 0, -2359264, 2, 0, -2424800, 2, 0, -2490336, 65537, 0, -2555872, 1, 0, -2621408, 1, 0, -2686944, 1, 0, -2752480, 1, 0, -2818016, 1, 0, -2883552, 1, 0, -2949088, 1, 0, -3014624, 1, 0, -3080160, 1, 0, -3145696, 1, 0, -3211232, 1, 0, -3211231, 1, 0, -3145695, 1, 0, -3080159, 1, 0, -3014623, 1, 0, -2949087, 1, 0, -2883551, 1, 0, -2818015, 1, 0, -2752479, 1, 0, -2686943, 1, 0, -2621407, 1, 0, -2555871, 65537, 0, -2490335, 1, 0, -2424799, 2, 0, -2359263, 2, 0, -2293727, 65538, 0, -2228191, 196610, 0, -2162655, 131074, 0, -2097119, 2, 0, -2031583, 65538, 0, -1966047, 65538, 0, -1900511, 2, 0, -1834975, 2, 0, -1769439, 65537, 0, -1703903, 65537, 0, -1638367, 65537, 0, -1572831, 131073, 0, -1507295, 65537, 0, -1441759, 65537, 0, -1376223, 1, 0, -1310687, 65537, 0, -1245151, 65537, 0, -1179615, 1, 0, -1114079, 65537, 0, -1048543, 1, 0, -983007, 1, 0, -917471, 65537, 0, -851935, 1, 0, -786399, 1, 0, -720863, 131073, 0, -655327, 65537, 0, -589791, 1, 0, -524255, 131073, 0, -458719, 1, 0, -393183, 1, 0, -327647, 2, 0, -262111, 2, 0, -196575, 65538, 0, -131039, 2, 0, -65503, 65538, 0, 33, 65538, 0, 65569, 65538, 0, 131105, 2, 0, 196641, 131074, 0, 262177, 2, 0, 327713, 131073, 0, 393249, 1, 0, 458785, 65537, 0, 524321, 65537, 0, 589857, 65537, 0, 655393, 65537, 0, 720929, 65537, 0, 786465, 65537, 0, 852001, 1, 0, 917537, 1, 0, 983073, 65537, 0, 1048609, 1, 0, 1048610, 131073, 0, 983074, 1, 0, 917538, 65537, 0, 852002, 65537, 0, 786466, 65537, 0, 720930, 1, 0, 655394, 1, 0, 589858, 65537, 0, 524322, 65537, 0, 458786, 1, 0, 393250, 1, 0, 327714, 196609, 0, 262178, 2, 0, 196642, 65538, 0, 131106, 131074, 0, 65570, 196610, 0, 34, 65538, 0, -65502, 2, 0, -131038, 2, 0, -196574, 2, 0, -262110, 65538, 0, -327646, 2, 0, -393182, 1, 0, -458718, 1, 0, -524254, 1, 0, -589790, 65537, 0, -655326, 65537, 0, -720862, 65537, 0, -786398, 196609, 0, -851934, 1, 0, -917470, 65537, 0, -983006, 1, 0, -1048542, 1, 0, -1114078, 1, 0, -1179614, 1, 0, -1245150, 196609, 0, -1310686, 131073, 0, -1376222, 131073, 0, -1441758, 65537, 0, -1507294, 65537, 0, -1572830, 65537, 0, -1638366, 65537, 0, -1703902, 65537, 0, -1769438, 65537, 0, -1834974, 2, 0, -1900510, 65538, 0, -1966046, 65538, 0, -2031582, 65538, 0, -2097118, 65538, 0, -2162654, 65538, 0, -2228190, 65538, 0, -2293726, 2, 0, -2359262, 65538, 0, -2424798, 2, 0, -2490334, 65537, 0, -2555870, 65537, 0, -2621406, 65537, 0, -2686942, 1, 0, -2752478, 1, 0, -2818014, 1, 0, -2883550, 1, 0, -2949086, 1, 0, -3014622, 1, 0, -3080158, 1, 0, -3145694, 1, 0, -3211230, 1, 0, -3211229, 1, 0, -3145693, 1, 0, -3080157, 1, 0, -3014621, 1, 0, -2949085, 1, 0, -2883549, 1, 0, -2818013, 1, 0, -2752477, 1, 0, -2686941, 1, 0, -2621405, 65537, 0, -2555869, 196609, 0, -2490333, 1, 0, -2424797, 1, 0, -2359261, 2, 0, -2293725, 196610, 0, -2228189, 65538, 0, -2162653, 2, 0, -2097117, 2, 0, -2031581, 65538, 0, -1966045, 65538, 0, -1900509, 2, 0, -1834973, 1, 0, -1769437, 65537, 0, -1703901, 1, 0, -1638365, 1, 0, -1572829, 131073, 0, -1507293, 65537, 0, -1441757, 1, 0, -1376221, 131073, 0, -1310685, 65537, 0, -1245149, 1, 0, -1179613, 1, 0, -1114077, 65537, 0, -1048541, 1, 0, -983005, 1, 0, -917469, 65537, 0, -851933, 65537, 0, -786397, 131073, 0, -720861, 65537, 0, -655325, 65537, 0, -589789, 65537, 0, -524253, 65537, 0, -458717, 131073, 0, -393181, 65537, 0, -327645, 65537, 0, -262109, 65538, 0, -196573, 196610, 0, -131037, 65538, 0, -65501, 196610, 0, 35, 2, 0, 65571, 2, 0, 131107, 2, 0, 196643, 65538, 0, 262179, 65537, 0, 327715, 65537, 0, 393251, 1, 0, 458787, 131073, 0, 524323, 65537, 0, 589859, 1, 0, 655395, 131073, 0, 720931, 65537, 0, 786467, 131073, 0, 852003, 65537, 0, 917539, 65537, 0, 983075, 1, 0, 1048611, 65537, 0, 1048612, 1, 0, 983076, 196609, 0, 917540, 1, 0, 852004, 1, 0, 786468, 1, 0, 720932, 65537, 0, 655396, 1, 0, 589860, 131073, 0, 524324, 1, 0, 458788, 1, 0, 393252, 196609, 0, 327716, 65537, 0, 262180, 1, 0, 196644, 1, 0, 131108, 2, 0, 65572, 2, 0, 36, 2, 0, -65500, 2, 0, -131036, 2, 0, -196572, 2, 0, -262108, 65537, 0, -327644, 65537, 0, -393180, 1, 0, -458716, 65537, 0, -524252, 65537, 0, -589788, 65537, 0, -655324, 65537, 0, -720860, 131073, 0, -786396, 1, 0, -851932, 196609, 0, -917468, 1, 0, -983004, 1, 0, -1048540, 1, 0, -1114076, 131073, 0, -1179612, 65537, 0, -1245148, 131073, 0, -1310684, 65537, 0, -1376220, 131073, 0, -1441756, 1, 0, -1507292, 1, 0, -1572828, 65537, 0, -1638364, 1, 0, -1703900, 1, 0, -1769436, 65537, 0, -1834972, 65537, 0, -1900508, 65537, 0, -1966044, 2, 0, -2031580, 2, 0, -2097116, 2, 0, -2162652, 2, 0, -2228188, 2, 0, -2293724, 2, 0, -2359260, 1, 0, -2424796, 1, 0, -2490332, 65537, 0, -2555868, 1, 0, -2621404, 65537, 0, -2686940, 1, 0, -2752476, 1, 0, -2818012, 1, 0, -2883548, 1, 0, -2949084, 1, 0, -3014620, 1, 0, -3080156, 1, 0, -3145692, 1, 0, -3211228, 1, 0, -3211227, 1, 0, -3145691, 1, 0, -3080155, 1, 0, -3014619, 1, 0, -2949083, 1, 0, -2883547, 1, 0, -2818011, 1, 0, -2752475, 1, 0, -2686939, 1, 0, -2621403, 65537, 0, -2555867, 1, 0, -2490331, 1, 0, -2424795, 1, 0, -2359259, 65537, 0, -2293723, 65537, 0, -2228187, 1, 0, -2162651, 65537, 0, -2097115, 1, 0, -2031579, 65537, 0, -1966043, 1, 0, -1900507, 1, 0, -1834971, 1, 0, -1769435, 1, 0, -1703899, 1, 0, -1638363, 65537, 0, -1572827, 65537, 0, -1507291, 131073, 0, -1441755, 131073, 0, -1376219, 1, 0, -1310683, 65537, 0, -1245147, 196609, 0, -1179611, 1, 0, -1114075, 65537, 0, -1048539, 1, 0, -983003, 1, 0, -917467, 65537, 0, -851931, 65537, 0, -786395, 1, 0, -720859, 196609, 0, -655323, 65537, 0, -589787, 196609, 0, -524251, 1, 0, -458715, 131073, 0, -393179, 65537, 0, -327643, 1, 0, -262107, 196609, 0, -196571, 196609, 0, -131035, 65537, 0, -65499, 1, 0, 37, 65537, 0, 65573, 1, 0, 131109, 1, 0, 196645, 65537, 0, 262181, 1, 0, 327717, 65537, 0, 393253, 65537, 0, 458789, 65537, 0, 524325, 65537, 0, 589861, 1, 0, 655397, 1, 0, 720933, 65537, 0, 786469, 65537, 0, 852005, 65537, 0, 917541, 65537, 0, 983077, 196609, 0, 1048613, 131073, 0, 1048614, 1, 0, 983078, 1, 0, 917542, 1, 0, 852006, 1, 0, 786470, 1, 0, 720934, 1, 0, 655398, 1, 0, 589862, 1, 0, 524326, 65537, 0, 458790, 1, 0, 393254, 65537, 0, 327718, 1, 0, 262182, 65537, 0, 196646, 1, 0, 131110, 1, 0, 65574, 1, 0, 38, 1, 0, -65498, 196609, 0, -131034, 1, 0, -196570, 65537, 0, -262106, 196609, 0, -327642, 131073, 0, -393178, 196609, 0, -458714, 1, 0, -524250, 65537, 0, -589786, 1, 0, -655322, 1, 0, -720858, 65537, 0, -786394, 65537, 0, -851930, 1, 0, -917466, 65537, 0, -983002, 1, 0, -1048538, 1, 0, -1114074, 1, 0, -1179610, 1, 0, -1245146, 1, 0, -1310682, 1, 0, -1376218, 1, 0, -1441754, 131073, 0, -1507290, 196609, 0, -1572826, 1, 0, -1638362, 65537, 0, -1703898, 65537, 0, -1769434, 65537, 0, -1834970, 1, 0, -1900506, 131073, 0, -1966042, 1, 0, -2031578, 65537, 0, -2097114, 131073, 0, -2162650, 1, 0, -2228186, 65537, 0, -2293722, 1, 0, -2359258, 65537, 0, -2424794, 65537, 0, -2490330, 1, 0, -2555866, 65537, 0, -2621402, 65537, 0, -2686938, 1, 0, -2752474, 1, 0, -2818010, 1, 0, -2883546, 1, 0, -2949082, 1, 0, -3014618, 1, 0, -3080154, 1, 0, -3145690, 1, 0, -3211226, 1, 0, -3211225, 1, 0, -3145689, 1, 0, -3080153, 1, 0, -3014617, 1, 0, -2949081, 1, 0, -2883545, 1, 0, -2818009, 1, 0, -2752473, 1, 0, -2686937, 1, 0, -2621401, 1, 0, -2555865, 1, 0, -2490329, 65537, 0, -2424793, 65537, 0, -2359257, 65537, 0, -2293721, 1, 0, -2228185, 196609, 0, -2162649, 1, 0, -2097113, 1, 0, -2031577, 1, 0, -1966041, 1, 0, -1900505, 65537, 0, -1834969, 65537, 0, -1769433, 1, 0, -1703897, 1, 0, -1638361, 65537, 0, -1572825, 1, 0, -1507289, 131073, 0, -1441753, 1, 0, -1376217, 1, 0, -1310681, 196609, 0, -1245145, 1, 0, -1179609, 1, 0, -1114073, 1, 0, -1048537, 1, 0, -983001, 1, 0, -917465, 196609, 0, -851929, 1, 0, -786393, 1, 0, -720857, 65537, 0, -655321, 65537, 0, -589785, 1, 0, -524249, 65537, 0, -458713, 1, 0, -393177, 65537, 0, -327641, 1, 0, -262105, 1, 0, -196569, 1, 0, -131033, 65537, 0, -65497, 1, 0, 39, 1, 0, 65575, 196609, 0, 131111, 196609, 0, 196647, 1, 0, 262183, 65537, 0, 327719, 1, 0, 393255, 1, 0, 458791, 1, 0, 524327, 1, 0, 589863, 1, 0, 655399, 1, 0, 720935, 1, 0, 786471, 1, 0, 852007, 1, 0, 917543, 1, 0, 983079, 1, 0, 1048615, 1, 0, 1048616, 1, 0, 983080, 1, 0, 917544, 1, 0, 852008, 1, 0, 786472, 1, 0, 720936, 1, 0, 655400, 1, 0, 589864, 1, 0, 524328, 1, 0, 458792, 1, 0, 393256, 1, 0, 327720, 1, 0, 262184, 65537, 0, 196648, 196609, 0, 131112, 65537, 0, 65576, 1, 0, 40, 196609, 0, -65496, 65537, 0, -131032, 1, 0, -196568, 196609, 0, -262104, 1, 0, -327640, 1, 0, -393176, 1, 0, -458712, 65537, 0, -524248, 131073, 0, -589784, 65537, 0, -655320, 1, 0, -720856, 131073, 0, -786392, 1, 0, -851928, 196609, 0, -917464, 131073, 0, -983000, 1, 0, -1048536, 1, 0, -1114072, 1, 0, -1179608, 1, 0, -1245144, 1, 0, -1310680, 1, 0, -1376216, 1, 0, -1441752, 65537, 0, -1507288, 1, 0, -1572824, 1, 0, -1638360, 131073, 0, -1703896, 1, 0, -1769432, 1, 0, -1834968, 65537, 0, -1900504, 1, 0, -1966040, 65537, 0, -2031576, 1, 0, -2097112, 1, 0, -2162648, 131073, 0, -2228184, 1, 0, -2293720, 1, 0, -2359256, 1, 0, -2424792, 1, 0, -2490328, 65537, 0, -2555864, 1, 0, -2621400, 1, 0, -2686936, 1, 0, -2752472, 1, 0, -2818008, 1, 0, -2883544, 1, 0, -2949080, 1, 0, -3014616, 1, 0, -3080152, 1, 0, -3145688, 1, 0, -3211224, 1, 0, -3211223, 1, 0, -3145687, 1, 0, -3080151, 1, 0, -3014615, 1, 0, -2949079, 1, 0, -2883543, 1, 0, -2818007, 1, 0, -2752471, 1, 0, -2686935, 1, 0, -2621399, 1, 0, -2555863, 1, 0, -2490327, 65537, 0, -2424791, 65537, 0, -2359255, 65537, 0, -2293719, 131073, 0, -2228183, 1, 0, -2162647, 65537, 0, -2097111, 1, 0, -2031575, 65537, 0, -1966039, 1, 0, -1900503, 65537, 0, -1834967, 65537, 0, -1769431, 1, 0, -1703895, 65537, 0, -1638359, 1, 0, -1572823, 1, 0, -1507287, 1, 0, -1441751, 1, 0, -1376215, 1, 0, -1310679, 1, 0, -1245143, 1, 0, -1179607, 1, 0, -1114071, 1, 0, -1048535, 1, 0, -982999, 1, 0, -917463, 65537, 0, -851927, 1, 0, -786391, 65537, 0, -720855, 131073, 0, -655319, 1, 0, -589783, 1, 0, -524247, 1, 0, -458711, 1, 0, -393175, 1, 0, -327639, 1, 0, -262103, 1, 0, -196567, 196609, 0, -131031, 1, 0, -65495, 1, 0, 41, 131073, 0, 65577, 65537, 0, 131113, 131073, 0, 196649, 196609, 0, 262185, 1, 0, 327721, 1, 0, 393257, 1, 0, 458793, 1, 0, 524329, 1, 0, 589865, 1, 0, 655401, 1, 0, 720937, 1, 0, 786473, 1, 0, 852009, 1, 0, 917545, 1, 0, 983081, 1, 0, 1048617, 1, 0, 1048618, 1, 0, 983082, 1, 0, 917546, 1, 0, 852010, 1, 0, 786474, 1, 0, 720938, 1, 0, 655402, 1, 0, 589866, 1, 0, 524330, 1, 0, 458794, 1, 0, 393258, 1, 0, 327722, 1, 0, 262186, 1, 0, 196650, 1, 0, 131114, 1, 0, 65578, 65537, 0, 42, 196609, 0, -65494, 196609, 0, -131030, 65537, 0, -196566, 1, 0, -262102, 65537, 0, -327638, 131073, 0, -393174, 65537, 0, -458710, 131073, 0, -524246, 1, 0, -589782, 65537, 0, -655318, 65537, 0, -720854, 131073, 0, -786390, 65537, 0, -851926, 65537, 0, -917462, 196609, 0, -982998, 1, 0, -1048534, 1, 0, -1114070, 1, 0, -1179606, 1, 0, -1245142, 1, 0, -1310678, 1, 0, -1376214, 65537, 0, -1441750, 1, 0, -1507286, 65537, 0, -1572822, 131073, 0, -1638358, 131073, 0, -1703894, 65537, 0, -1769430, 1, 0, -1834966, 1, 0, -1900502, 1, 0, -1966038, 1, 0, -2031574, 65537, 0, -2097110, 1, 0, -2162646, 1, 0, -2228182, 65537, 0, -2293718, 65537, 0, -2359254, 65537, 0, -2424790, 65537, 0, -2490326, 65537, 0, -2555862, 1, 0, -2621398, 1, 0, -2686934, 1, 0, -2752470, 1, 0, -2818006, 1, 0, -2883542, 1, 0, -2949078, 1, 0, -3014614, 1, 0, -3080150, 1, 0, -3145686, 1, 0, -3211222, 1, 0, -3211221, 1, 0, -3145685, 1, 0, -3080149, 1, 0, -3014613, 1, 0, -2949077, 1, 0, -2883541, 1, 0, -2818005, 1, 0, -2752469, 1, 0, -2686933, 1, 0, -2621397, 1, 0, -2555861, 1, 0, -2490325, 65537, 0, -2424789, 131073, 0, -2359253, 1, 0, -2293717, 196609, 0, -2228181, 65537, 0, -2162645, 1, 0, -2097109, 65537, 0, -2031573, 1, 0, -1966037, 1, 0, -1900501, 1, 0, -1834965, 1, 0, -1769429, 1, 0, -1703893, 1, 0, -1638357, 65537, 0, -1572821, 131073, 0, -1507285, 1, 0, -1441749, 65537, 0, -1376213, 1, 0, -1310677, 1, 0, -1245141, 1, 0, -1179605, 1, 0, -1114069, 1, 0, -1048533, 1, 0, -982997, 1, 0, -917461, 131073, 0, -851925, 1, 0, -786389, 1, 0, -720853, 1, 0, -655317, 131073, 0, -589781, 65537, 0, -524245, 196609, 0, -458709, 65537, 0, -393173, 1, 0, -327637, 1, 0, -262101, 196609, 0, -196565, 1, 0, -131029, 65537, 0, -65493, 65537, 0, 43, 65537, 0, 65579, 65537, 0, 131115, 65537, 0, 196651, 65537, 0, 262187, 65537, 0, 327723, 1, 0, 393259, 1, 0, 458795, 1, 0, 524331, 1, 0, 589867, 1, 0, 655403, 1, 0, 720939, 1, 0, 786475, 1, 0, 852011, 1, 0, 917547, 1, 0, 983083, 1, 0, 1048619, 1, 0, 1048620, 1, 0, 983084, 1, 0, 917548, 1, 0, 852012, 1, 0, 786476, 1, 0, 720940, 1, 0, 655404, 1, 0, 589868, 1, 0, 524332, 1, 0, 458796, 1, 0, 393260, 1, 0, 327724, 1, 0, 262188, 65537, 0, 196652, 1, 0, 131116, 1, 0, 65580, 131073, 0, 44, 1, 0, -65492, 65537, 0, -131028, 131073, 0, -196564, 65537, 0, -262100, 65537, 0, -327636, 1, 0, -393172, 131073, 0, -458708, 1, 0, -524244, 131073, 0, -589780, 1, 0, -655316, 65537, 0, -720852, 1, 0, -786388, 1, 0, -851924, 1, 0, -917460, 65537, 0, -982996, 1, 0, -1048532, 1, 0, -1114068, 1, 0, -1179604, 1, 0, -1245140, 1, 0, -1310676, 65537, 0, -1376212, 1, 0, -1441748, 131073, 0, -1507284, 1, 0, -1572820, 1, 0, -1638356, 1, 0, -1703892, 65537, 0, -1769428, 1, 0, -1834964, 65537, 0, -1900500, 1, 0, -1966036, 65537, 0, -2031572, 1, 0, -2097108, 65537, 0, -2162644, 1, 0, -2228180, 65537, 0, -2293716, 65537, 0, -2359252, 1, 0, -2424788, 1, 0, -2490324, 65537, 0, -2555860, 1, 0, -2621396, 1, 0, -2686932, 1, 0, -2752468, 1, 0, -2818004, 1, 0, -2883540, 1, 0, -2949076, 1, 0, -3014612, 1, 0, -3080148, 1, 0, -3145684, 1, 0, -3211220, 1, 0, -3211219, 1, 0, -3145683, 1, 0, -3080147, 1, 0, -3014611, 1, 0, -2949075, 1, 0, -2883539, 1, 0, -2818003, 1, 0, -2752467, 1, 0, -2686931, 1, 0, -2621395, 1, 0, -2555859, 1, 0, -2490323, 1, 0, -2424787, 1, 0, -2359251, 1, 0, -2293715, 1, 0, -2228179, 1, 0, -2162643, 1, 0, -2097107, 1, 0, -2031571, 1, 0, -1966035, 1, 0, -1900499, 1, 0, -1834963, 1, 0, -1769427, 1, 0, -1703891, 1, 0, -1638355, 1, 0, -1572819, 1, 0, -1507283, 1, 0, -1441747, 1, 0, -1376211, 1, 0, -1310675, 1, 0, -1245139, 1, 0, -1179603, 1, 0, -1114067, 1, 0, -1048531, 1, 0, -982995, 1, 0, -917459, 1, 0, -851923, 1, 0, -786387, 1, 0, -720851, 1, 0, -655315, 1, 0, -589779, 1, 0, -524243, 1, 0, -458707, 1, 0, -393171, 1, 0, -327635, 1, 0, -262099, 1, 0, -196563, 1, 0, -131027, 1, 0, -65491, 1, 0, 45, 1, 0, 65581, 1, 0, 131117, 1, 0, 196653, 1, 0, 262189, 1, 0, 327725, 1, 0, 393261, 1, 0, 458797, 1, 0, 524333, 1, 0, 589869, 1, 0, 655405, 1, 0, 720941, 1, 0, 786477, 1, 0, 852013, 1, 0, 917549, 1, 0, 983085, 1, 0, 1048621, 1, 0, 983086, 1, 0, 917550, 1, 0, 852014, 1, 0, 786478, 1, 0, 720942, 1, 0, 655406, 1, 0, 589870, 1, 0, 524334, 1, 0, 458798, 1, 0, 393262, 1, 0, 327726, 1, 0, 262190, 1, 0, 196654, 1, 0, 131118, 1, 0, 65582, 1, 0, 46, 1, 0, -65490, 1, 0, -131026, 1, 0, -196562, 1, 0, -262098, 1, 0, -327634, 1, 0, -393170, 1, 0, -458706, 1, 0, -524242, 1, 0, -589778, 1, 0, -655314, 1, 0, -720850, 1, 0, -786386, 1, 0, -851922, 1, 0, -917458, 1, 0, -982994, 1, 0, -1048530, 1, 0, -1114066, 1, 0, -1179602, 1, 0, -1245138, 1, 0, -1310674, 1, 0, -1376210, 1, 0, -1441746, 1, 0, -1507282, 1, 0, -1572818, 1, 0, -1638354, 1, 0, -1703890, 1, 0, -1769426, 1, 0, -1834962, 1, 0, -1900498, 1, 0, -1966034, 1, 0, -2031570, 1, 0, -2097106, 1, 0, -2162642, 1, 0, -2228178, 1, 0, -2293714, 1, 0, -2359250, 1, 0, -2424786, 1, 0, -2490322, 1, 0, -2555858, 1, 0, -2621394, 1, 0, -2686930, 1, 0, -2752466, 1, 0, -2818002, 1, 0, -2883538, 1, 0, -2949074, 1, 0, -3014610, 1, 0, -3080146, 1, 0, -3145682, 1, 0, -3145681, 1, 0, -3080145, 1, 0, -3014609, 1, 0, -2949073, 1, 0, -2883537, 1, 0, -2818001, 1, 0, -2752465, 1, 0, -2686929, 1, 0, -2621393, 1, 0, -2555857, 1, 0, -2490321, 1, 0, -2424785, 1, 0, -2359249, 1, 0, -2293713, 1, 0, -2228177, 1, 0, -2162641, 1, 0, -2097105, 1, 0, -2031569, 1, 0, -1966033, 1, 0, -1900497, 1, 0, -1834961, 1, 0, -1769425, 1, 0, -1703889, 1, 0, -1638353, 1, 0, -1572817, 1, 0, -1507281, 1, 0, -1441745, 1, 0, -1376209, 1, 0, -1310673, 1, 0, -1245137, 1, 0, -1179601, 1, 0, -1114065, 1, 0, -1048529, 1, 0, -982993, 1, 0, -917457, 1, 0, -851921, 1, 0, -786385, 1, 0, -720849, 1, 0, -655313, 1, 0, -589777, 1, 0, -524241, 1, 0, -458705, 1, 0, -393169, 1, 0, -327633, 1, 0, -262097, 1, 0, -196561, 1, 0, -131025, 1, 0, -65489, 1, 0, 47, 1, 0, 65583, 1, 0, 131119, 1, 0, 196655, 1, 0, 262191, 1, 0, 327727, 1, 0, 393263, 1, 0, 458799, 1, 0, 524335, 1, 0, 589871, 1, 0, 655407, 1, 0, 720943, 1, 0, 786479, 1, 0, 852015, 1, 0, 917551, 1, 0, 983087, 1, 0, 852016, 1, 0, 786480, 1, 0, 720944, 1, 0, 655408, 1, 0, 589872, 1, 0, 524336, 1, 0, 458800, 1, 0, 393264, 1, 0, 327728, 1, 0, 262192, 1, 0, 196656, 1, 0, 131120, 1, 0, 65584, 1, 0, 48, 1, 0, -65488, 1, 0, -131024, 1, 0, -196560, 1, 0, -262096, 1, 0, -327632, 1, 0, -393168, 1, 0, -458704, 1, 0, -524240, 1, 0, -589776, 1, 0, -655312, 1, 0, -720848, 1, 0, -786384, 1, 0, -851920, 1, 0, -917456, 1, 0, -982992, 1, 0, -1048528, 1, 0, -1114064, 1, 0, -1179600, 1, 0, -1245136, 1, 0, -1310672, 1, 0, -1376208, 1, 0, -1441744, 1, 0, -1507280, 1, 0, -1572816, 1, 0, -1638352, 1, 0, -1703888, 1, 0, -1769424, 1, 0, -1834960, 1, 0, -1900496, 1, 0, -1966032, 1, 0, -2031568, 1, 0, -2097104, 1, 0, -2162640, 1, 0, -2228176, 1, 0, -2293712, 1, 0, -2359248, 1, 0, -2424784, 1, 0, -2490320, 1, 0, -2555856, 1, 0, -2621392, 1, 0, -2686928, 1, 0, -2752464, 1, 0, -2818000, 1, 0, -2883536, 1, 0, -2949072, 1, 0, -3014608, 1, 0)

[node name="Exit" parent="." index="2"]
position = Vector2(512, -1406)
NEXT_LEVEL = "res://scenes/menus/Victory.tscn"

[node name="Enemy" parent="Enemy_Node" index="0" instance=ExtResource("2_nk8yv")]
position = Vector2(480, 0)

[node name="Enemy2" parent="Enemy_Node" index="1" instance=ExtResource("2_nk8yv")]
position = Vector2(512, -136)

[node name="Enemy3" parent="Enemy_Node" index="2" instance=ExtResource("2_nk8yv")]
position = Vector2(-24, 408)

[node name="Enemy4" parent="Enemy_Node" index="3" instance=ExtResource("2_nk8yv")]
position = Vector2(912, -24)

[node name="Enemy5" parent="Enemy_Node" index="4" instance=ExtResource("2_nk8yv")]
position = Vector2(1032, -128)

[node name="Enemy6" parent="Enemy_Node" index="5" instance=ExtResource("2_nk8yv")]
position = Vector2(992, 71)

[node name="Enemy7" parent="Enemy_Node" index="6" instance=ExtResource("2_nk8yv")]
position = Vector2(1016, -8)

[node name="Enemy8" parent="Enemy_Node" index="7" instance=ExtResource("2_nk8yv")]
position = Vector2(1120, -8)

[node name="Enemy9" parent="Enemy_Node" index="8" instance=ExtResource("2_nk8yv")]
position = Vector2(1080, 88)

[node name="Enemy10" parent="Enemy_Node" index="9" instance=ExtResource("2_nk8yv")]
position = Vector2(-160, -544)

[node name="Enemy11" parent="Enemy_Node" index="10" instance=ExtResource("2_nk8yv")]
position = Vector2(72, -560)

[node name="Enemy12" parent="Enemy_Node" index="11" instance=ExtResource("2_nk8yv")]
position = Vector2(-32, -424)

[node name="Enemy13" parent="Enemy_Node" index="12" instance=ExtResource("2_nk8yv")]
position = Vector2(960, -472)

[node name="Enemy14" parent="Enemy_Node" index="13" instance=ExtResource("2_nk8yv")]
position = Vector2(1008, -512)

[node name="Enemy15" parent="Enemy_Node" index="14" instance=ExtResource("2_nk8yv")]
position = Vector2(1008, -448)

[node name="Enemy16" parent="Enemy_Node" index="15" instance=ExtResource("2_nk8yv")]
position = Vector2(-208, -872)

[node name="Enemy17" parent="Enemy_Node" index="16" instance=ExtResource("2_nk8yv")]
position = Vector2(-16, -1160)

[node name="Enemy18" parent="Enemy_Node" index="17" instance=ExtResource("2_nk8yv")]
position = Vector2(16, -992)

[node name="Enemy19" parent="Enemy_Node" index="18" instance=ExtResource("2_nk8yv")]
position = Vector2(496, -1048)

[node name="Enemy20" parent="Enemy_Node" index="19" instance=ExtResource("2_nk8yv")]
position = Vector2(1016, -1032)

[node name="Enemy21" parent="Enemy_Node" index="20" instance=ExtResource("2_nk8yv")]
position = Vector2(1016, -968)

[node name="Enemy22" parent="Enemy_Node" index="21" instance=ExtResource("2_nk8yv")]
position = Vector2(552, -1104)

[node name="Enemy23" parent="Enemy_Node" index="22" instance=ExtResource("2_nk8yv")]
position = Vector2(1456, -1024)

[node name="Enemy24" parent="Enemy_Node" index="23" instance=ExtResource("2_nk8yv")]
position = Vector2(1048, -776)
